Logging to ./experiments/1enc.1dec.0.2dropout.50epochs.log
Chosen device not a CPU! Setting CUDA tensors as default...
Epoch 0 done.
Train Intent loss: 5366.119777679443
Train Slot loss: 67872.43243408203
Dev Intent loss: 607.1408233642578
Dev slot loss: 14405.05615234375
Intent accuracy (dev): 0.718
Slot F1 (dev): 0.8685
Epoch 1 done.
Train Intent loss: 4718.472526550293
Train Slot loss: 14287.004417419434
Dev Intent loss: 572.0356864929199
Dev slot loss: 17697.406494140625
Intent accuracy (dev): 0.718
Slot F1 (dev): 0.9436
Epoch 2 done.
Train Intent loss: 3103.9591217041016
Train Slot loss: 6072.385116577148
Dev Intent loss: 749.2776336669922
Dev slot loss: 19714.967529296875
Intent accuracy (dev): 0.8
Slot F1 (dev): 0.9662
Epoch 3 done.
Train Intent loss: 2212.990315437317
Train Slot loss: 3143.3827476501465
Dev Intent loss: 777.0232315063477
Dev slot loss: 21394.835693359375
Intent accuracy (dev): 0.834
Slot F1 (dev): 0.9809
Epoch 4 done.
Train Intent loss: 1563.4029550552368
Train Slot loss: 1782.4649868011475
Dev Intent loss: 1033.554672241211
Dev slot loss: 22686.3876953125
Intent accuracy (dev): 0.87
Slot F1 (dev): 0.984
Epoch 5 done.
Train Intent loss: 1053.097989320755
Train Slot loss: 1138.4278588294983
Dev Intent loss: 974.9176635742188
Dev slot loss: 24108.792724609375
Intent accuracy (dev): 0.91
Slot F1 (dev): 0.9836
Epoch 6 done.
Train Intent loss: 722.6599282026291
Train Slot loss: 696.9882805347443
Dev Intent loss: 1159.1214141845703
Dev slot loss: 25301.9931640625
Intent accuracy (dev): 0.91
Slot F1 (dev): 0.9853
Epoch 7 done.
Train Intent loss: 543.1995390057564
Train Slot loss: 517.0364736318588
Dev Intent loss: 1153.1915969848633
Dev slot loss: 26268.4384765625
Intent accuracy (dev): 0.936
Slot F1 (dev): 0.9862
Epoch 8 done.
Train Intent loss: 404.260404586792
Train Slot loss: 331.1182163953781
Dev Intent loss: 1144.943374633789
Dev slot loss: 27379.169189453125
Intent accuracy (dev): 0.944
Slot F1 (dev): 0.9857
Epoch 9 done.
Train Intent loss: 285.27785754203796
Train Slot loss: 275.2806658744812
Dev Intent loss: 1537.0259094238281
Dev slot loss: 28423.408935546875
Intent accuracy (dev): 0.95
Slot F1 (dev): 0.988
Epoch 10 done.
Train Intent loss: 237.89181795716286
Train Slot loss: 186.81955391168594
Dev Intent loss: 1536.8949737548828
Dev slot loss: 29561.939697265625
Intent accuracy (dev): 0.96
Slot F1 (dev): 0.9873
Epoch 11 done.
Train Intent loss: 174.73695005476475
Train Slot loss: 187.57959389686584
Dev Intent loss: 1465.5167541503906
Dev slot loss: 29772.283447265625
Intent accuracy (dev): 0.97
Slot F1 (dev): 0.9869
Epoch 12 done.
Train Intent loss: 121.8119340017438
Train Slot loss: 136.05457079410553
Dev Intent loss: 1682.7330322265625
Dev slot loss: 30845.166259765625
Intent accuracy (dev): 0.966
Slot F1 (dev): 0.9871
Epoch 13 done.
Train Intent loss: 105.7232349216938
Train Slot loss: 145.54960924386978
Dev Intent loss: 1695.0650177001953
Dev slot loss: 31472.908447265625
Intent accuracy (dev): 0.958
Slot F1 (dev): 0.9874
Epoch 14 done.
Train Intent loss: 93.13596075959504
Train Slot loss: 111.81598529219627
Dev Intent loss: 1475.5550842285156
Dev slot loss: 32166.199951171875
Intent accuracy (dev): 0.97
Slot F1 (dev): 0.9883
Epoch 15 done.
Train Intent loss: 91.85129310190678
Train Slot loss: 88.6905070990324
Dev Intent loss: 1757.4926147460938
Dev slot loss: 33272.5244140625
Intent accuracy (dev): 0.966
Slot F1 (dev): 0.9878
Epoch 16 done.
Train Intent loss: 62.93341432325542
Train Slot loss: 119.11993193626404
Dev Intent loss: 2092.8661193847656
Dev slot loss: 33018.915771484375
Intent accuracy (dev): 0.956
Slot F1 (dev): 0.9874
Epoch 17 done.
Train Intent loss: 63.03360884916037
Train Slot loss: 90.75013396143913
Dev Intent loss: 1713.1266632080078
Dev slot loss: 34779.613525390625
Intent accuracy (dev): 0.974
Slot F1 (dev): 0.9887
Epoch 18 done.
Train Intent loss: 102.29777537100017
Train Slot loss: 104.30448743700981
Dev Intent loss: 1717.3732147216797
Dev slot loss: 35129.039794921875
Intent accuracy (dev): 0.968
Slot F1 (dev): 0.9882
Epoch 19 done.
Train Intent loss: 78.42048172466457
Train Slot loss: 82.54485896974802
Dev Intent loss: 1633.414779663086
Dev slot loss: 34504.903076171875
Intent accuracy (dev): 0.96
Slot F1 (dev): 0.9866
Epoch 20 done.
Train Intent loss: 40.67848084587604
Train Slot loss: 136.78011013567448
Dev Intent loss: 1721.9462585449219
Dev slot loss: 34737.24267578125
Intent accuracy (dev): 0.974
Slot F1 (dev): 0.9857
Epoch 21 done.
Train Intent loss: 24.855292642489076
Train Slot loss: 112.09209847450256
Dev Intent loss: 1876.8112182617188
Dev slot loss: 37783.5498046875
Intent accuracy (dev): 0.974
Slot F1 (dev): 0.9871
Epoch 22 done.
Train Intent loss: 12.265995589084923
Train Slot loss: 102.41161781549454
Dev Intent loss: 1851.7684020996094
Dev slot loss: 37206.01220703125
Intent accuracy (dev): 0.97
Slot F1 (dev): 0.9881
Epoch 23 done.
Train Intent loss: 14.713692270684987
Train Slot loss: 167.43369661271572
Dev Intent loss: 1900.3798370361328
Dev slot loss: 38035.304443359375
Intent accuracy (dev): 0.972
Slot F1 (dev): 0.9881
Epoch 24 done.
Train Intent loss: 16.522647243808024
Train Slot loss: 90.65760792791843
Dev Intent loss: 1842.8105010986328
Dev slot loss: 38274.923095703125
Intent accuracy (dev): 0.97
Slot F1 (dev): 0.9886
Epoch 25 done.
Train Intent loss: 87.91260517155752
Train Slot loss: 92.95423210412264
Dev Intent loss: 1534.1843719482422
Dev slot loss: 38723.025390625
Intent accuracy (dev): 0.96
Slot F1 (dev): 0.9883
Epoch 26 done.
Train Intent loss: 53.37467826344073
Train Slot loss: 88.37962744757533
Dev Intent loss: 1522.3404083251953
Dev slot loss: 39335.00634765625
Intent accuracy (dev): 0.956
Slot F1 (dev): 0.9878
Epoch 27 done.
Train Intent loss: 18.599884749623016
Train Slot loss: 92.65324170514941
Dev Intent loss: 1873.8200073242188
Dev slot loss: 40036.12548828125
Intent accuracy (dev): 0.97
Slot F1 (dev): 0.9878
Epoch 28 done.
Train Intent loss: 70.89060538588092
Train Slot loss: 30.68937687948346
Dev Intent loss: 1998.3482208251953
Dev slot loss: 40198.7783203125
Intent accuracy (dev): 0.966
Slot F1 (dev): 0.9877
Epoch 29 done.
Train Intent loss: 78.68732764991
Train Slot loss: 34.70714155212045
Dev Intent loss: 1783.9013061523438
Dev slot loss: 40434.431640625
Intent accuracy (dev): 0.97
Slot F1 (dev): 0.9871
Epoch 30 done.
Train Intent loss: 72.99605499627069
Train Slot loss: 34.33744405955076
Dev Intent loss: 1927.2865295410156
Dev slot loss: 41008.443359375
Intent accuracy (dev): 0.978
Slot F1 (dev): 0.988
Epoch 31 done.
Train Intent loss: 59.03949115239084
Train Slot loss: 35.68855160288513
Dev Intent loss: 1892.8976135253906
Dev slot loss: 42364.5302734375
Intent accuracy (dev): 0.968
Slot F1 (dev): 0.9881
Epoch 32 done.
Train Intent loss: 65.43823824310675
Train Slot loss: 23.659075552597642
Dev Intent loss: 1694.6192092895508
Dev slot loss: 43580.2578125
Intent accuracy (dev): 0.968
Slot F1 (dev): 0.9893
Epoch 33 done.
Train Intent loss: 33.16608512075618
Train Slot loss: 52.00277593359351
Dev Intent loss: 1966.7562408447266
Dev slot loss: 44340.01708984375
Intent accuracy (dev): 0.97
Slot F1 (dev): 0.9876
Epoch 34 done.
Train Intent loss: 15.362962282728404
Train Slot loss: 62.75338322855532
Dev Intent loss: 1969.1565551757812
Dev slot loss: 44678.75830078125
Intent accuracy (dev): 0.97
Slot F1 (dev): 0.9878
Epoch 35 done.
Train Intent loss: 11.186762969358824
Train Slot loss: 87.3419272787869
Dev Intent loss: 2041.902114868164
Dev slot loss: 43372.984375
Intent accuracy (dev): 0.966
Slot F1 (dev): 0.987
Epoch 36 done.
Train Intent loss: 8.286556073115207
Train Slot loss: 54.10050864890218
Dev Intent loss: 1951.900619506836
Dev slot loss: 45004.9169921875
Intent accuracy (dev): 0.97
Slot F1 (dev): 0.9882
Epoch 37 done.
Train Intent loss: 5.900571062113158
Train Slot loss: 82.24667765386403
Dev Intent loss: 1980.7495727539062
Dev slot loss: 44158.2666015625
Intent accuracy (dev): 0.97
Slot F1 (dev): 0.989
Epoch 38 done.
Train Intent loss: 14.977194821054582
Train Slot loss: 47.95837657339871
Dev Intent loss: 1939.277084350586
Dev slot loss: 45021.36669921875
Intent accuracy (dev): 0.968
Slot F1 (dev): 0.9893
Epoch 39 done.
Train Intent loss: 17.097353297751397
Train Slot loss: 47.39824594929814
Dev Intent loss: 1890.7212677001953
Dev slot loss: 44942.51708984375
Intent accuracy (dev): 0.968
Slot F1 (dev): 0.9879
Epoch 40 done.
Train Intent loss: 37.51388444809709
Train Slot loss: 38.2877558413893
Dev Intent loss: 1942.7238159179688
Dev slot loss: 45421.5869140625
Intent accuracy (dev): 0.962
Slot F1 (dev): 0.9878
Epoch 41 done.
Train Intent loss: 49.20559532241896
Train Slot loss: 27.822055520489812
Dev Intent loss: 1752.3160552978516
Dev slot loss: 45789.2998046875
Intent accuracy (dev): 0.972
Slot F1 (dev): 0.9878
Epoch 42 done.
Train Intent loss: 35.69099994224962
Train Slot loss: 52.61315414309502
Dev Intent loss: 1717.127182006836
Dev slot loss: 45640.5029296875
Intent accuracy (dev): 0.974
Slot F1 (dev): 0.9871
Epoch 43 done.
Train Intent loss: 7.708520414074883
Train Slot loss: 65.41425428166986
Dev Intent loss: 1782.3472442626953
Dev slot loss: 44267.627197265625
Intent accuracy (dev): 0.964
Slot F1 (dev): 0.9869
Epoch 44 done.
Train Intent loss: 10.947475342894904
Train Slot loss: 43.64028451219201
Dev Intent loss: 1846.6742401123047
Dev slot loss: 45309.87353515625
Intent accuracy (dev): 0.958
Slot F1 (dev): 0.9876
Epoch 45 done.
Train Intent loss: 20.543160724570043
Train Slot loss: 80.16355385631323
Dev Intent loss: 1750.6356201171875
Dev slot loss: 45309.1318359375
Intent accuracy (dev): 0.964
Slot F1 (dev): 0.9884
Epoch 46 done.
Train Intent loss: 37.06316008209251
Train Slot loss: 65.96362944226712
Dev Intent loss: 1737.4625091552734
Dev slot loss: 46261.337890625
Intent accuracy (dev): 0.96
Slot F1 (dev): 0.9886
Epoch 47 done.
Train Intent loss: 19.677369693526998
Train Slot loss: 41.96287710219622
Dev Intent loss: 1847.0084838867188
Dev slot loss: 45663.3583984375
Intent accuracy (dev): 0.972
Slot F1 (dev): 0.9885
Epoch 48 done.
Train Intent loss: 16.782190842204727
Train Slot loss: 19.619245034642518
Dev Intent loss: 2025.5731658935547
Dev slot loss: 46839.990234375
Intent accuracy (dev): 0.968
Slot F1 (dev): 0.9886
Epoch 49 done.
Train Intent loss: 21.33050889498554
Train Slot loss: 30.502808331511915
Dev Intent loss: 2016.4047546386719
Dev slot loss: 47294.87158203125
Intent accuracy (dev): 0.964
Slot F1 (dev): 0.9885
Evaluating on test set...
Intent report
                     precision    recall  f1-score   support

  atis_abbreviation       1.00      0.94      0.97        33
      atis_aircraft       0.80      0.89      0.84         9
       atis_airfare       0.98      0.98      0.98        49
       atis_airline       0.84      1.00      0.92        38
       atis_airport       1.00      0.61      0.76        18
      atis_capacity       0.94      0.81      0.87        21
          atis_city       0.67      0.67      0.67         6
      atis_day_name       0.00      0.00      0.00         2
      atis_distance       1.00      0.90      0.95        10
        atis_flight       0.98      0.99      0.98       645
     atis_flight_no       0.89      0.89      0.89         9
   atis_flight_time       1.00      1.00      1.00         1
   atis_ground_fare       1.00      0.71      0.83         7
atis_ground_service       0.92      1.00      0.96        36
          atis_meal       0.25      0.17      0.20         6
      atis_quantity       0.33      1.00      0.50         3

           accuracy                           0.96       893
          macro avg       0.79      0.78      0.77       893
       weighted avg       0.96      0.96      0.96       893

Slot filling:
                              precision    recall  f1-score   support

             B-aircraft_code       0.96      0.73      0.83        33
              B-airline_code       0.94      0.97      0.96        34
              B-airline_name       1.00      0.99      1.00       101
              B-airport_code       1.00      0.44      0.62         9
              B-airport_name       0.80      0.38      0.52        21
 B-arrive_date.date_relative       1.00      1.00      1.00         2
      B-arrive_date.day_name       0.69      1.00      0.81        11
    B-arrive_date.day_number       0.71      0.83      0.77         6
    B-arrive_date.month_name       0.71      0.83      0.77         6
      B-arrive_time.end_time       0.88      0.88      0.88         8
 B-arrive_time.period_of_day       0.75      1.00      0.86         6
    B-arrive_time.start_time       0.78      0.88      0.82         8
          B-arrive_time.time       0.92      0.97      0.94        34
 B-arrive_time.time_relative       0.97      0.94      0.95        31
             B-booking_class       0.00      0.00      0.00         1
                 B-city_name       0.83      0.53      0.65        57
                B-class_type       0.96      1.00      0.98        24
               B-compartment       0.00      0.00      0.00         1
                   B-connect       1.00      1.00      1.00         6
             B-cost_relative       1.00      0.97      0.99        37
                  B-day_name       1.00      0.50      0.67         2
                 B-days_code       0.00      0.00      0.00         1
 B-depart_date.date_relative       0.94      1.00      0.97        17
      B-depart_date.day_name       0.99      0.98      0.99       212
    B-depart_date.day_number       0.98      0.96      0.97        55
    B-depart_date.month_name       0.98      0.95      0.96        56
B-depart_date.today_relative       1.00      0.89      0.94         9
          B-depart_date.year       1.00      0.33      0.50         3
      B-depart_time.end_time       1.00      0.67      0.80         3
    B-depart_time.period_mod       0.83      1.00      0.91         5
 B-depart_time.period_of_day       0.99      0.92      0.95       130
    B-depart_time.start_time       1.00      0.33      0.50         3
          B-depart_time.time       0.86      0.98      0.92        57
 B-depart_time.time_relative       0.97      0.97      0.97        65
                   B-economy       1.00      1.00      1.00         6
               B-fare_amount       1.00      1.00      1.00         2
           B-fare_basis_code       0.94      1.00      0.97        17
                    B-flight       0.00      0.00      0.00         1
               B-flight_days       1.00      1.00      1.00        10
                B-flight_mod       1.00      1.00      1.00        24
             B-flight_number       0.85      1.00      0.92        11
               B-flight_stop       1.00      1.00      1.00        21
               B-flight_time       0.50      1.00      0.67         1
      B-fromloc.airport_code       0.83      1.00      0.91         5
      B-fromloc.airport_name       0.52      0.92      0.67        12
         B-fromloc.city_name       0.98      1.00      0.99       704
        B-fromloc.state_code       1.00      1.00      1.00        23
        B-fromloc.state_name       1.00      1.00      1.00        17
                      B-meal       0.84      1.00      0.91        16
                 B-meal_code       0.00      0.00      0.00         1
          B-meal_description       0.88      0.70      0.78        10
                       B-mod       1.00      0.50      0.67         2
                        B-or       0.38      1.00      0.55         3
             B-period_of_day       1.00      0.50      0.67         4
          B-restriction_code       1.00      1.00      1.00         4
 B-return_date.date_relative       0.50      0.33      0.40         3
      B-return_date.day_name       0.00      0.00      0.00         2
                B-round_trip       1.00      0.97      0.99        73
                B-state_code       1.00      1.00      1.00         1
                B-state_name       0.00      0.00      0.00         9
      B-stoploc.airport_code       0.00      0.00      0.00         1
         B-stoploc.city_name       0.91      1.00      0.95        20
        B-toloc.airport_code       1.00      0.50      0.67         4
        B-toloc.airport_name       0.60      1.00      0.75         3
           B-toloc.city_name       0.97      0.99      0.98       716
        B-toloc.country_name       1.00      1.00      1.00         1
          B-toloc.state_code       1.00      1.00      1.00        18
          B-toloc.state_name       0.86      0.89      0.88        28
            B-transport_type       1.00      1.00      1.00        10
              I-airline_name       0.95      0.95      0.95        65
              I-airport_name       0.81      0.45      0.58        29
    I-arrive_date.day_number       0.00      0.00      0.00         0
      I-arrive_time.end_time       0.88      0.88      0.88         8
    I-arrive_time.start_time       1.00      1.00      1.00         1
          I-arrive_time.time       0.97      0.97      0.97        35
 I-arrive_time.time_relative       1.00      1.00      1.00         4
                 I-city_name       0.92      0.37      0.52        30
                I-class_type       1.00      1.00      1.00        17
             I-cost_relative       1.00      0.67      0.80         3
    I-depart_date.day_number       1.00      0.93      0.97        15
I-depart_date.today_relative       0.00      0.00      0.00         0
      I-depart_time.end_time       0.67      0.67      0.67         3
 I-depart_time.period_of_day       1.00      1.00      1.00         1
    I-depart_time.start_time       1.00      1.00      1.00         1
          I-depart_time.time       0.96      0.98      0.97        52
 I-depart_time.time_relative       0.00      0.00      0.00         1
               I-fare_amount       1.00      1.00      1.00         2
                I-flight_mod       0.33      0.17      0.22         6
             I-flight_number       0.00      0.00      0.00         1
               I-flight_time       1.00      1.00      1.00         1
      I-fromloc.airport_name       0.44      0.93      0.60        15
         I-fromloc.city_name       0.96      0.98      0.97       177
        I-fromloc.state_name       1.00      1.00      1.00         1
          I-restriction_code       1.00      0.67      0.80         3
 I-return_date.date_relative       1.00      0.67      0.80         3
                I-round_trip       1.00      1.00      1.00        71
                I-state_name       0.00      0.00      0.00         1
         I-stoploc.city_name       1.00      1.00      1.00        10
            I-today_relative       0.00      0.00      0.00         0
        I-toloc.airport_name       1.00      1.00      1.00         3
           I-toloc.city_name       0.95      0.98      0.96       265
          I-toloc.state_name       1.00      1.00      1.00         1
            I-transport_type       0.00      0.00      0.00         1
                           O       0.99      1.00      1.00      5501

                    accuracy                           0.98      9164
                   macro avg       0.78      0.74      0.74      9164
                weighted avg       0.98      0.98      0.97      9164

Intent accuracy (test): 0.9586
Slot F1 (test): 0.9743
