Logging to ./experiments/2enc.2dec.0.6dropout.300epochs.log
Chosen device not a CPU! Setting CUDA tensors as default...
Epoch 0 done.
Train Intent loss: 5510.09587097168
Train Slot loss: 107850.69873046875
Dev Intent loss: 624.8482971191406
Dev slot loss: 10301.981689453125
Intent accuracy (dev): 0.718
Slot F1 (dev): 0.4892
Epoch 1 done.
Train Intent loss: 5026.331672668457
Train Slot loss: 70331.77221679688
Dev Intent loss: 612.2553405761719
Dev slot loss: 12182.0341796875
Intent accuracy (dev): 0.718
Slot F1 (dev): 0.6924
Epoch 2 done.
Train Intent loss: 5029.917987823486
Train Slot loss: 48509.42269897461
Dev Intent loss: 612.2453842163086
Dev slot loss: 16271.263427734375
Intent accuracy (dev): 0.718
Slot F1 (dev): 0.7412
Epoch 3 done.
Train Intent loss: 4995.170112609863
Train Slot loss: 36282.29000854492
Dev Intent loss: 605.2898902893066
Dev slot loss: 19776.242919921875
Intent accuracy (dev): 0.718
Slot F1 (dev): 0.7988
Epoch 4 done.
Train Intent loss: 4800.205448150635
Train Slot loss: 30673.0703125
Dev Intent loss: 586.071590423584
Dev slot loss: 21377.3916015625
Intent accuracy (dev): 0.718
Slot F1 (dev): 0.8247
Epoch 5 done.
Train Intent loss: 3661.8582248687744
Train Slot loss: 26571.694549560547
Dev Intent loss: 797.8737106323242
Dev slot loss: 24553.385009765625
Intent accuracy (dev): 0.718
Slot F1 (dev): 0.8511
Epoch 6 done.
Train Intent loss: 2905.6212158203125
Train Slot loss: 23109.334991455078
Dev Intent loss: 844.4446868896484
Dev slot loss: 26327.900146484375
Intent accuracy (dev): 0.73
Slot F1 (dev): 0.8642
Epoch 7 done.
Train Intent loss: 2476.204038619995
Train Slot loss: 20182.63104248047
Dev Intent loss: 805.4936790466309
Dev slot loss: 27732.45068359375
Intent accuracy (dev): 0.728
Slot F1 (dev): 0.8812
Epoch 8 done.
Train Intent loss: 2220.8550748825073
Train Slot loss: 17420.434478759766
Dev Intent loss: 924.1474914550781
Dev slot loss: 29165.94091796875
Intent accuracy (dev): 0.722
Slot F1 (dev): 0.8974
Epoch 9 done.
Train Intent loss: 2133.933485031128
Train Slot loss: 14637.106323242188
Dev Intent loss: 935.6344223022461
Dev slot loss: 30666.626953125
Intent accuracy (dev): 0.724
Slot F1 (dev): 0.9063
Epoch 10 done.
Train Intent loss: 1908.0146799087524
Train Slot loss: 12128.255477905273
Dev Intent loss: 1004.5811920166016
Dev slot loss: 31100.033935546875
Intent accuracy (dev): 0.794
Slot F1 (dev): 0.9212
Epoch 11 done.
Train Intent loss: 1766.4513425827026
Train Slot loss: 10106.567344665527
Dev Intent loss: 1014.7224197387695
Dev slot loss: 31570.231689453125
Intent accuracy (dev): 0.824
Slot F1 (dev): 0.933
Epoch 12 done.
Train Intent loss: 1609.9351749420166
Train Slot loss: 8495.230911254883
Dev Intent loss: 1036.4598083496094
Dev slot loss: 32641.557373046875
Intent accuracy (dev): 0.828
Slot F1 (dev): 0.9437
Epoch 13 done.
Train Intent loss: 1376.446692943573
Train Slot loss: 7132.295463562012
Dev Intent loss: 1014.846622467041
Dev slot loss: 33918.486328125
Intent accuracy (dev): 0.832
Slot F1 (dev): 0.9559
Epoch 14 done.
Train Intent loss: 1310.1898107528687
Train Slot loss: 6067.3173751831055
Dev Intent loss: 1227.0742111206055
Dev slot loss: 34621.43505859375
Intent accuracy (dev): 0.828
Slot F1 (dev): 0.9627
Epoch 15 done.
Train Intent loss: 1245.0610723495483
Train Slot loss: 4945.02290725708
Dev Intent loss: 1081.2193069458008
Dev slot loss: 35767.316162109375
Intent accuracy (dev): 0.848
Slot F1 (dev): 0.9669
Epoch 16 done.
Train Intent loss: 1111.6049490571022
Train Slot loss: 4243.992393493652
Dev Intent loss: 1154.8762435913086
Dev slot loss: 36637.696044921875
Intent accuracy (dev): 0.846
Slot F1 (dev): 0.9702
Epoch 17 done.
Train Intent loss: 1011.4632015228271
Train Slot loss: 3497.11287689209
Dev Intent loss: 1160.9333038330078
Dev slot loss: 36859.5029296875
Intent accuracy (dev): 0.84
Slot F1 (dev): 0.9736
Epoch 18 done.
Train Intent loss: 1044.0738809108734
Train Slot loss: 2940.9678440093994
Dev Intent loss: 1127.3086471557617
Dev slot loss: 37638.666015625
Intent accuracy (dev): 0.844
Slot F1 (dev): 0.9782
Epoch 19 done.
Train Intent loss: 895.7319940328598
Train Slot loss: 2396.3142681121826
Dev Intent loss: 1252.601936340332
Dev slot loss: 39224.769287109375
Intent accuracy (dev): 0.836
Slot F1 (dev): 0.9776
Epoch 20 done.
Train Intent loss: 841.186273932457
Train Slot loss: 2094.4861850738525
Dev Intent loss: 1284.1742401123047
Dev slot loss: 38839.1240234375
Intent accuracy (dev): 0.85
Slot F1 (dev): 0.9801
Epoch 21 done.
Train Intent loss: 807.7439306974411
Train Slot loss: 1798.5997486114502
Dev Intent loss: 1217.0379333496094
Dev slot loss: 40852.735107421875
Intent accuracy (dev): 0.858
Slot F1 (dev): 0.9807
Epoch 22 done.
Train Intent loss: 695.0345103740692
Train Slot loss: 1550.2188787460327
Dev Intent loss: 1223.2839660644531
Dev slot loss: 41155.309814453125
Intent accuracy (dev): 0.848
Slot F1 (dev): 0.9815
Epoch 23 done.
Train Intent loss: 647.0851705670357
Train Slot loss: 1357.165542125702
Dev Intent loss: 1310.5067672729492
Dev slot loss: 41659.8505859375
Intent accuracy (dev): 0.862
Slot F1 (dev): 0.9821
Epoch 24 done.
Train Intent loss: 611.7028127908707
Train Slot loss: 1205.4384541511536
Dev Intent loss: 1295.2301330566406
Dev slot loss: 42876.57275390625
Intent accuracy (dev): 0.8
Slot F1 (dev): 0.9818
Epoch 25 done.
Train Intent loss: 602.5543657541275
Train Slot loss: 1079.5611090660095
Dev Intent loss: 1215.76416015625
Dev slot loss: 42491.0986328125
Intent accuracy (dev): 0.858
Slot F1 (dev): 0.9824
Epoch 26 done.
Train Intent loss: 516.7118533849716
Train Slot loss: 894.6390709877014
Dev Intent loss: 1500.9085235595703
Dev slot loss: 44502.68701171875
Intent accuracy (dev): 0.872
Slot F1 (dev): 0.9815
Epoch 27 done.
Train Intent loss: 523.6976847350597
Train Slot loss: 853.578763961792
Dev Intent loss: 1336.38720703125
Dev slot loss: 45028.49951171875
Intent accuracy (dev): 0.87
Slot F1 (dev): 0.9822
Epoch 28 done.
Train Intent loss: 444.02566872537136
Train Slot loss: 758.0958042144775
Dev Intent loss: 1476.150520324707
Dev slot loss: 45896.39892578125
Intent accuracy (dev): 0.85
Slot F1 (dev): 0.9804
Epoch 29 done.
Train Intent loss: 446.7993748188019
Train Slot loss: 720.5055043697357
Dev Intent loss: 1330.9872283935547
Dev slot loss: 46150.55810546875
Intent accuracy (dev): 0.854
Slot F1 (dev): 0.9815
Epoch 30 done.
Train Intent loss: 386.52799090743065
Train Slot loss: 669.6647534370422
Dev Intent loss: 1511.6244506835938
Dev slot loss: 46583.470703125
Intent accuracy (dev): 0.86
Slot F1 (dev): 0.9827
Epoch 31 done.
Train Intent loss: 349.346393764019
Train Slot loss: 588.7106494903564
Dev Intent loss: 1476.7090225219727
Dev slot loss: 47243.47998046875
Intent accuracy (dev): 0.534
Slot F1 (dev): 0.9851
Epoch 32 done.
Train Intent loss: 349.5327164083719
Train Slot loss: 533.2903469800949
Dev Intent loss: 1521.7767791748047
Dev slot loss: 47116.1796875
Intent accuracy (dev): 0.89
Slot F1 (dev): 0.9834
Epoch 33 done.
Train Intent loss: 309.3887355327606
Train Slot loss: 479.30801486968994
Dev Intent loss: 1459.3770751953125
Dev slot loss: 48488.8056640625
Intent accuracy (dev): 0.858
Slot F1 (dev): 0.9829
Epoch 34 done.
Train Intent loss: 261.10209342837334
Train Slot loss: 472.19422674179077
Dev Intent loss: 1531.182502746582
Dev slot loss: 48435.19873046875
Intent accuracy (dev): 0.876
Slot F1 (dev): 0.9838
Epoch 35 done.
Train Intent loss: 292.7180589661002
Train Slot loss: 419.67914056777954
Dev Intent loss: 1437.472396850586
Dev slot loss: 50066.49951171875
Intent accuracy (dev): 0.862
Slot F1 (dev): 0.9836
Epoch 36 done.
Train Intent loss: 302.27389039844275
Train Slot loss: 372.9619654417038
Dev Intent loss: 1517.3665313720703
Dev slot loss: 49608.73388671875
Intent accuracy (dev): 0.85
Slot F1 (dev): 0.9826
Epoch 37 done.
Train Intent loss: 290.4231743887067
Train Slot loss: 360.406387925148
Dev Intent loss: 1577.2354125976562
Dev slot loss: 50865.71875
Intent accuracy (dev): 0.888
Slot F1 (dev): 0.9838
Epoch 38 done.
Train Intent loss: 255.81873723864555
Train Slot loss: 359.8251904249191
Dev Intent loss: 1537.058090209961
Dev slot loss: 50314.07373046875
Intent accuracy (dev): 0.822
Slot F1 (dev): 0.9845
Epoch 39 done.
Train Intent loss: 258.58103680610657
Train Slot loss: 322.84299778938293
Dev Intent loss: 1630.8349914550781
Dev slot loss: 52240.98974609375
Intent accuracy (dev): 0.882
Slot F1 (dev): 0.9851
Epoch 40 done.
Train Intent loss: 263.37607895582914
Train Slot loss: 283.69368147850037
Dev Intent loss: 1625.6466674804688
Dev slot loss: 52035.7890625
Intent accuracy (dev): 0.86
Slot F1 (dev): 0.9865
Epoch 41 done.
Train Intent loss: 285.45633356645703
Train Slot loss: 267.9624175429344
Dev Intent loss: 1651.1123504638672
Dev slot loss: 52036.40380859375
Intent accuracy (dev): 0.888
Slot F1 (dev): 0.9856
Epoch 42 done.
Train Intent loss: 200.28808914124966
Train Slot loss: 305.398796916008
Dev Intent loss: 1621.8891220092773
Dev slot loss: 53175.61669921875
Intent accuracy (dev): 0.878
Slot F1 (dev): 0.9851
Epoch 43 done.
Train Intent loss: 145.21456154435873
Train Slot loss: 298.6131948828697
Dev Intent loss: 1728.2583312988281
Dev slot loss: 54191.3427734375
Intent accuracy (dev): 0.902
Slot F1 (dev): 0.9856
Epoch 44 done.
Train Intent loss: 213.29171250388026
Train Slot loss: 229.4190416932106
Dev Intent loss: 1626.5729675292969
Dev slot loss: 54318.1201171875
Intent accuracy (dev): 0.906
Slot F1 (dev): 0.9867
Epoch 45 done.
Train Intent loss: 109.63085880875587
Train Slot loss: 290.682249546051
Dev Intent loss: 1724.5513763427734
Dev slot loss: 54922.6484375
Intent accuracy (dev): 0.88
Slot F1 (dev): 0.9855
Epoch 46 done.
Train Intent loss: 138.1499445773661
Train Slot loss: 270.0774521827698
Dev Intent loss: 1730.1338958740234
Dev slot loss: 55680.13623046875
Intent accuracy (dev): 0.892
Slot F1 (dev): 0.9877
Epoch 47 done.
Train Intent loss: 129.9076487235725
Train Slot loss: 211.10942921042442
Dev Intent loss: 1770.0094757080078
Dev slot loss: 55968.57861328125
Intent accuracy (dev): 0.89
Slot F1 (dev): 0.9869
Epoch 48 done.
Train Intent loss: 142.77323328331113
Train Slot loss: 201.32660892605782
Dev Intent loss: 1730.3269424438477
Dev slot loss: 56989.51806640625
Intent accuracy (dev): 0.898
Slot F1 (dev): 0.9855
Epoch 49 done.
Train Intent loss: 178.52143041417003
Train Slot loss: 241.3841415643692
Dev Intent loss: 1637.2582550048828
Dev slot loss: 56916.64453125
Intent accuracy (dev): 0.87
Slot F1 (dev): 0.9874
Epoch 50 done.
Train Intent loss: 179.49268522299826
Train Slot loss: 169.07577979564667
Dev Intent loss: 1754.127914428711
Dev slot loss: 56498.83154296875
Intent accuracy (dev): 0.88
Slot F1 (dev): 0.9861
Epoch 51 done.
Train Intent loss: 145.71294882148504
Train Slot loss: 176.1772632598877
Dev Intent loss: 1697.2064514160156
Dev slot loss: 58290.60205078125
Intent accuracy (dev): 0.882
Slot F1 (dev): 0.9858
Epoch 52 done.
Train Intent loss: 204.82792550325394
Train Slot loss: 171.34470504522324
Dev Intent loss: 1597.7300567626953
Dev slot loss: 58404.17626953125
Intent accuracy (dev): 0.868
Slot F1 (dev): 0.9863
Epoch 53 done.
Train Intent loss: 195.7600768841803
Train Slot loss: 148.70643803477287
Dev Intent loss: 1648.3572540283203
Dev slot loss: 59588.921875
Intent accuracy (dev): 0.882
Slot F1 (dev): 0.9885
Epoch 54 done.
Train Intent loss: 161.11704049818218
Train Slot loss: 207.1635558605194
Dev Intent loss: 1633.6382675170898
Dev slot loss: 59153.52880859375
Intent accuracy (dev): 0.902
Slot F1 (dev): 0.9873
Epoch 55 done.
Train Intent loss: 137.7394328378141
Train Slot loss: 193.71602687239647
Dev Intent loss: 1767.6690368652344
Dev slot loss: 58803.86083984375
Intent accuracy (dev): 0.892
Slot F1 (dev): 0.9852
Epoch 56 done.
Train Intent loss: 147.34348189085722
Train Slot loss: 151.94820699095726
Dev Intent loss: 1868.355484008789
Dev slot loss: 60255.27099609375
Intent accuracy (dev): 0.886
Slot F1 (dev): 0.9879
Epoch 57 done.
Train Intent loss: 149.4258304797113
Train Slot loss: 196.12753063440323
Dev Intent loss: 1771.677963256836
Dev slot loss: 59760.1640625
Intent accuracy (dev): 0.906
Slot F1 (dev): 0.9873
Epoch 58 done.
Train Intent loss: 129.95807803794742
Train Slot loss: 135.9324889779091
Dev Intent loss: 1792.7012329101562
Dev slot loss: 60186.8974609375
Intent accuracy (dev): 0.906
Slot F1 (dev): 0.9878
Epoch 59 done.
Train Intent loss: 100.74146775901318
Train Slot loss: 167.02321058511734
Dev Intent loss: 2020.0237884521484
Dev slot loss: 61129.66064453125
Intent accuracy (dev): 0.88
Slot F1 (dev): 0.9874
Epoch 60 done.
Train Intent loss: 96.38324173167348
Train Slot loss: 212.18135678768158
Dev Intent loss: 1756.0685577392578
Dev slot loss: 61232.244140625
Intent accuracy (dev): 0.888
Slot F1 (dev): 0.987
Epoch 61 done.
Train Intent loss: 96.7427105307579
Train Slot loss: 180.4198462665081
Dev Intent loss: 1818.4821014404297
Dev slot loss: 61250.529296875
Intent accuracy (dev): 0.906
Slot F1 (dev): 0.9874
Epoch 62 done.
Train Intent loss: 118.89294506981969
Train Slot loss: 118.62858213484287
Dev Intent loss: 1804.7658996582031
Dev slot loss: 61945.1123046875
Intent accuracy (dev): 0.874
Slot F1 (dev): 0.9855
Epoch 63 done.
Train Intent loss: 88.22167227324098
Train Slot loss: 153.79205459356308
Dev Intent loss: 1684.9962463378906
Dev slot loss: 62675.619140625
Intent accuracy (dev): 0.874
Slot F1 (dev): 0.9882
Epoch 64 done.
Train Intent loss: 128.02358567155898
Train Slot loss: 190.17795759439468
Dev Intent loss: 1725.3983459472656
Dev slot loss: 61971.2783203125
Intent accuracy (dev): 0.888
Slot F1 (dev): 0.9875
Epoch 65 done.
Train Intent loss: 114.84814179502428
Train Slot loss: 160.73441191017628
Dev Intent loss: 1836.4900665283203
Dev slot loss: 63154.03466796875
Intent accuracy (dev): 0.896
Slot F1 (dev): 0.9869
Epoch 66 done.
Train Intent loss: 94.91814300231636
Train Slot loss: 157.2311468422413
Dev Intent loss: 1675.2356262207031
Dev slot loss: 63327.517578125
Intent accuracy (dev): 0.882
Slot F1 (dev): 0.9856
Epoch 67 done.
Train Intent loss: 116.77745908871293
Train Slot loss: 106.37776201963425
Dev Intent loss: 1744.9683990478516
Dev slot loss: 63884.04736328125
Intent accuracy (dev): 0.886
Slot F1 (dev): 0.9862
Epoch 68 done.
Train Intent loss: 93.29326661955565
Train Slot loss: 155.61065785586834
Dev Intent loss: 1882.7041015625
Dev slot loss: 65210.4775390625
Intent accuracy (dev): 0.894
Slot F1 (dev): 0.9848
Epoch 69 done.
Train Intent loss: 83.48137593176216
Train Slot loss: 246.97754418849945
Dev Intent loss: 1830.0121002197266
Dev slot loss: 64448.0595703125
Intent accuracy (dev): 0.862
Slot F1 (dev): 0.9866
Epoch 70 done.
Train Intent loss: 94.08444540482014
Train Slot loss: 131.20988278090954
Dev Intent loss: 1861.043472290039
Dev slot loss: 64046.10546875
Intent accuracy (dev): 0.894
Slot F1 (dev): 0.9866
Epoch 71 done.
Train Intent loss: 50.54145007673651
Train Slot loss: 163.54176576435566
Dev Intent loss: 1868.6706848144531
Dev slot loss: 64628.58154296875
Intent accuracy (dev): 0.892
Slot F1 (dev): 0.9847
Epoch 72 done.
Train Intent loss: 57.05454310309142
Train Slot loss: 211.0587259531021
Dev Intent loss: 1903.1061553955078
Dev slot loss: 64651.87255859375
Intent accuracy (dev): 0.88
Slot F1 (dev): 0.9857
Epoch 73 done.
Train Intent loss: 103.8378000445664
Train Slot loss: 189.63052946329117
Dev Intent loss: 1832.0551147460938
Dev slot loss: 65778.33056640625
Intent accuracy (dev): 0.878
Slot F1 (dev): 0.9864
Epoch 74 done.
Train Intent loss: 75.49827626906335
Train Slot loss: 158.43841461092234
Dev Intent loss: 1902.3390655517578
Dev slot loss: 67310.60546875
Intent accuracy (dev): 0.866
Slot F1 (dev): 0.9861
Epoch 75 done.
Train Intent loss: 105.83583179209381
Train Slot loss: 132.29807810485363
Dev Intent loss: 1722.7429504394531
Dev slot loss: 66858.36572265625
Intent accuracy (dev): 0.886
Slot F1 (dev): 0.9862
Epoch 76 done.
Train Intent loss: 88.94315540231764
Train Slot loss: 132.1603737771511
Dev Intent loss: 1792.2369842529297
Dev slot loss: 67580.8134765625
Intent accuracy (dev): 0.904
Slot F1 (dev): 0.9866
Epoch 77 done.
Train Intent loss: 70.56000782642514
Train Slot loss: 118.50758875906467
Dev Intent loss: 1932.6460876464844
Dev slot loss: 67340.197265625
Intent accuracy (dev): 0.886
Slot F1 (dev): 0.987
Epoch 78 done.
Train Intent loss: 56.60669364687055
Train Slot loss: 88.16244808584452
Dev Intent loss: 2004.7748718261719
Dev slot loss: 67567.8759765625
Intent accuracy (dev): 0.892
Slot F1 (dev): 0.9863
Epoch 79 done.
Train Intent loss: 92.49159575859085
Train Slot loss: 131.3420238494873
Dev Intent loss: 1979.7430725097656
Dev slot loss: 69177.712890625
Intent accuracy (dev): 0.892
Slot F1 (dev): 0.9869
Epoch 80 done.
Train Intent loss: 81.56728702783585
Train Slot loss: 123.66035541892052
Dev Intent loss: 1836.843849182129
Dev slot loss: 68488.150390625
Intent accuracy (dev): 0.884
Slot F1 (dev): 0.9851
Epoch 81 done.
Train Intent loss: 48.2954292090144
Train Slot loss: 148.60122568160295
Dev Intent loss: 1914.218521118164
Dev slot loss: 68469.4794921875
Intent accuracy (dev): 0.886
Slot F1 (dev): 0.9852
Epoch 82 done.
Train Intent loss: 18.59325386583805
Train Slot loss: 119.33397701382637
Dev Intent loss: 1940.5110931396484
Dev slot loss: 69780.08251953125
Intent accuracy (dev): 0.896
Slot F1 (dev): 0.9867
Epoch 83 done.
Train Intent loss: 59.966704696184024
Train Slot loss: 134.8122074380517
Dev Intent loss: 2158.7196655273438
Dev slot loss: 70152.14892578125
Intent accuracy (dev): 0.866
Slot F1 (dev): 0.9866
Epoch 84 done.
Train Intent loss: 77.29495365731418
Train Slot loss: 129.9807279855013
Dev Intent loss: 1918.4198760986328
Dev slot loss: 69614.02099609375
Intent accuracy (dev): 0.894
Slot F1 (dev): 0.9868
Epoch 85 done.
Train Intent loss: 82.37405509781092
Train Slot loss: 170.226255659014
Dev Intent loss: 1909.2851867675781
Dev slot loss: 71221.123046875
Intent accuracy (dev): 0.892
Slot F1 (dev): 0.9858
Epoch 86 done.
Train Intent loss: 28.12275287718512
Train Slot loss: 110.17550971359015
Dev Intent loss: 1946.5368957519531
Dev slot loss: 71174.13623046875
Intent accuracy (dev): 0.884
Slot F1 (dev): 0.9881
Epoch 87 done.
Train Intent loss: 66.02520130714402
Train Slot loss: 170.23497377336025
Dev Intent loss: 2055.225128173828
Dev slot loss: 69421.11083984375
Intent accuracy (dev): 0.894
Slot F1 (dev): 0.9868
Epoch 88 done.
Train Intent loss: 30.3973914636299
Train Slot loss: 91.93568875640631
Dev Intent loss: 2190.029983520508
Dev slot loss: 70343.13623046875
Intent accuracy (dev): 0.896
Slot F1 (dev): 0.9869
Epoch 89 done.
Train Intent loss: 12.693426087731495
Train Slot loss: 98.53578621894121
Dev Intent loss: 2205.4188842773438
Dev slot loss: 69949.5859375
Intent accuracy (dev): 0.914
Slot F1 (dev): 0.9853
Epoch 90 done.
Train Intent loss: 5.426907419692725
Train Slot loss: 176.25999350473285
Dev Intent loss: 2273.0016479492188
Dev slot loss: 70236.4814453125
Intent accuracy (dev): 0.912
Slot F1 (dev): 0.9863
Epoch 91 done.
Train Intent loss: 48.03528891061433
Train Slot loss: 83.8378024250269
Dev Intent loss: 2310.434326171875
Dev slot loss: 71899.8583984375
Intent accuracy (dev): 0.898
Slot F1 (dev): 0.9859
Epoch 92 done.
Train Intent loss: 73.43195751146413
Train Slot loss: 204.39903435856104
Dev Intent loss: 2202.1736602783203
Dev slot loss: 72263.6650390625
Intent accuracy (dev): 0.846
Slot F1 (dev): 0.9876
Epoch 93 done.
Train Intent loss: 44.637777401832864
Train Slot loss: 134.75853346288204
Dev Intent loss: 2065.2735748291016
Dev slot loss: 71033.3466796875
Intent accuracy (dev): 0.912
Slot F1 (dev): 0.9846
Epoch 94 done.
Train Intent loss: 53.212643117818516
Train Slot loss: 130.02370130643249
Dev Intent loss: 2431.222412109375
Dev slot loss: 71633.078125
Intent accuracy (dev): 0.906
Slot F1 (dev): 0.9852
Epoch 95 done.
Train Intent loss: 142.6056296795141
Train Slot loss: 90.01530200988054
Dev Intent loss: 1933.1340637207031
Dev slot loss: 72453.4365234375
Intent accuracy (dev): 0.892
Slot F1 (dev): 0.9855
Epoch 96 done.
Train Intent loss: 60.43886367138475
Train Slot loss: 70.3998495861888
Dev Intent loss: 1879.748779296875
Dev slot loss: 72466.095703125
Intent accuracy (dev): 0.876
Slot F1 (dev): 0.9863
Epoch 97 done.
Train Intent loss: 85.71596927568316
Train Slot loss: 86.08313766494393
Dev Intent loss: 1953.1011810302734
Dev slot loss: 72355.501953125
Intent accuracy (dev): 0.868
Slot F1 (dev): 0.9841
Epoch 98 done.
Train Intent loss: 41.76310324133374
Train Slot loss: 88.65804716199636
Dev Intent loss: 2110.675338745117
Dev slot loss: 72879.123046875
Intent accuracy (dev): 0.894
Slot F1 (dev): 0.9858
Epoch 99 done.
Train Intent loss: 59.03824976505712
Train Slot loss: 166.98920208588243
Dev Intent loss: 2123.2166748046875
Dev slot loss: 71721.259765625
Intent accuracy (dev): 0.894
Slot F1 (dev): 0.9842
Epoch 100 done.
Train Intent loss: 32.104521710192785
Train Slot loss: 90.82870201021433
Dev Intent loss: 2195.0245513916016
Dev slot loss: 72156.6328125
Intent accuracy (dev): 0.894
Slot F1 (dev): 0.988
Epoch 101 done.
Train Intent loss: 26.222004564711824
Train Slot loss: 160.06288889050484
Dev Intent loss: 2153.784423828125
Dev slot loss: 72865.16455078125
Intent accuracy (dev): 0.9
Slot F1 (dev): 0.9858
Epoch 102 done.
Train Intent loss: 98.47893440758344
Train Slot loss: 100.53800824657083
Dev Intent loss: 2207.0785369873047
Dev slot loss: 74803.29150390625
Intent accuracy (dev): 0.888
Slot F1 (dev): 0.9844
Epoch 103 done.
Train Intent loss: 32.36677516927011
Train Slot loss: 120.32101851701736
Dev Intent loss: 2159.357467651367
Dev slot loss: 73008.2890625
Intent accuracy (dev): 0.888
Slot F1 (dev): 0.986
Epoch 104 done.
Train Intent loss: 17.188423444749787
Train Slot loss: 74.82728250697255
Dev Intent loss: 2246.0380859375
Dev slot loss: 72604.17529296875
Intent accuracy (dev): 0.88
Slot F1 (dev): 0.9838
Epoch 105 done.
Train Intent loss: 7.462999113718979
Train Slot loss: 137.10963417589664
Dev Intent loss: 2359.2587127685547
Dev slot loss: 73210.27783203125
Intent accuracy (dev): 0.878
Slot F1 (dev): 0.9857
Epoch 106 done.
Train Intent loss: 12.668706964934245
Train Slot loss: 98.83413110673428
Dev Intent loss: 2055.0723724365234
Dev slot loss: 73670.607421875
Intent accuracy (dev): 0.86
Slot F1 (dev): 0.9864
Epoch 107 done.
Train Intent loss: 109.03954047267325
Train Slot loss: 114.0480308495462
Dev Intent loss: 2137.1028442382812
Dev slot loss: 73606.28466796875
Intent accuracy (dev): 0.886
Slot F1 (dev): 0.9864
Epoch 108 done.
Train Intent loss: 88.1848695052322
Train Slot loss: 69.17919278517365
Dev Intent loss: 1814.7499542236328
Dev slot loss: 73882.9072265625
Intent accuracy (dev): 0.866
Slot F1 (dev): 0.9863
Epoch 109 done.
Train Intent loss: 133.6452654991299
Train Slot loss: 111.03894118592143
Dev Intent loss: 2143.4190368652344
Dev slot loss: 74175.396484375
Intent accuracy (dev): 0.886
Slot F1 (dev): 0.9855
Epoch 110 done.
Train Intent loss: 87.8409502892755
Train Slot loss: 66.42796717584133
Dev Intent loss: 2039.4827117919922
Dev slot loss: 75510.37646484375
Intent accuracy (dev): 0.872
Slot F1 (dev): 0.9864
Epoch 111 done.
Train Intent loss: 43.14529040269554
Train Slot loss: 81.4162565767765
Dev Intent loss: 2088.4553833007812
Dev slot loss: 73933.7685546875
Intent accuracy (dev): 0.888
Slot F1 (dev): 0.9864
Epoch 112 done.
Train Intent loss: 69.17895254329778
Train Slot loss: 104.28325881063938
Dev Intent loss: 2207.8426055908203
Dev slot loss: 75098.80615234375
Intent accuracy (dev): 0.896
Slot F1 (dev): 0.9854
Epoch 113 done.
Train Intent loss: 18.46324823377654
Train Slot loss: 175.50748102366924
Dev Intent loss: 2203.8060760498047
Dev slot loss: 75049.375
Intent accuracy (dev): 0.9
Slot F1 (dev): 0.9839
Epoch 114 done.
Train Intent loss: 9.215264909202233
Train Slot loss: 98.99728455021977
Dev Intent loss: 2259.3306274414062
Dev slot loss: 75362.9462890625
Intent accuracy (dev): 0.898
Slot F1 (dev): 0.9854
Epoch 115 done.
Train Intent loss: 20.107302397838794
Train Slot loss: 86.25213030725718
Dev Intent loss: 2361.726837158203
Dev slot loss: 77612.8857421875
Intent accuracy (dev): 0.896
Slot F1 (dev): 0.9845
Epoch 116 done.
Train Intent loss: 41.17707025434356
Train Slot loss: 123.46112429723144
Dev Intent loss: 2384.031204223633
Dev slot loss: 75396.62744140625
Intent accuracy (dev): 0.894
Slot F1 (dev): 0.9847
Epoch 117 done.
Train Intent loss: 33.79730916535482
Train Slot loss: 82.68880922347307
Dev Intent loss: 2444.498977661133
Dev slot loss: 74381.06201171875
Intent accuracy (dev): 0.898
Slot F1 (dev): 0.9861
Epoch 118 done.
Train Intent loss: 98.77419688890222
Train Slot loss: 103.8044006228447
Dev Intent loss: 2314.6763305664062
Dev slot loss: 75159.2890625
Intent accuracy (dev): 0.902
Slot F1 (dev): 0.9861
Epoch 119 done.
Train Intent loss: 63.528707610443234
Train Slot loss: 60.092881470918655
Dev Intent loss: 2243.965286254883
Dev slot loss: 76309.9345703125
Intent accuracy (dev): 0.898
Slot F1 (dev): 0.9861
Epoch 120 done.
Train Intent loss: 47.00342044245917
Train Slot loss: 86.57226146385074
Dev Intent loss: 2486.6340942382812
Dev slot loss: 75788.7587890625
Intent accuracy (dev): 0.77
Slot F1 (dev): 0.9863
Epoch 121 done.
Train Intent loss: 61.585029333946295
Train Slot loss: 88.72029412910342
Dev Intent loss: 2407.513397216797
Dev slot loss: 77402.26953125
Intent accuracy (dev): 0.86
Slot F1 (dev): 0.9861
Epoch 122 done.
Train Intent loss: 45.57542379433289
Train Slot loss: 116.66760797798634
Dev Intent loss: 2405.6345825195312
Dev slot loss: 77039.1064453125
Intent accuracy (dev): 0.892
Slot F1 (dev): 0.9872
Epoch 123 done.
Train Intent loss: 49.34960856381804
Train Slot loss: 86.1897549983114
Dev Intent loss: 2543.1468353271484
Dev slot loss: 76324.2646484375
Intent accuracy (dev): 0.896
Slot F1 (dev): 0.9857
Epoch 124 done.
Train Intent loss: 18.059227493184153
Train Slot loss: 115.33334759995341
Dev Intent loss: 2592.997329711914
Dev slot loss: 77182.9384765625
Intent accuracy (dev): 0.896
Slot F1 (dev): 0.9859
Epoch 125 done.
Train Intent loss: 30.144556256651413
Train Slot loss: 141.01323349773884
Dev Intent loss: 2694.6509552001953
Dev slot loss: 77487.4912109375
Intent accuracy (dev): 0.898
Slot F1 (dev): 0.9863
Epoch 126 done.
Train Intent loss: 44.75541172793601
Train Slot loss: 66.08413334563375
Dev Intent loss: 2526.5540924072266
Dev slot loss: 76683.56640625
Intent accuracy (dev): 0.89
Slot F1 (dev): 0.9865
Epoch 127 done.
Train Intent loss: 86.24953845399432
Train Slot loss: 59.26891119033098
Dev Intent loss: 2313.1354217529297
Dev slot loss: 77079.4228515625
Intent accuracy (dev): 0.882
Slot F1 (dev): 0.9857
Epoch 128 done.
Train Intent loss: 84.80922392290086
Train Slot loss: 69.70897242799401
Dev Intent loss: 2463.7344970703125
Dev slot loss: 77342.1044921875
Intent accuracy (dev): 0.888
Slot F1 (dev): 0.9857
Epoch 129 done.
Train Intent loss: 32.74537909287028
Train Slot loss: 103.92622782662511
Dev Intent loss: 2368.5142974853516
Dev slot loss: 79082.31689453125
Intent accuracy (dev): 0.89
Slot F1 (dev): 0.986
Epoch 130 done.
Train Intent loss: 48.00216274277773
Train Slot loss: 76.7776063401252
Dev Intent loss: 2337.779998779297
Dev slot loss: 76376.9306640625
Intent accuracy (dev): 0.89
Slot F1 (dev): 0.9859
Epoch 131 done.
Train Intent loss: 18.221756416605785
Train Slot loss: 113.64083125069737
Dev Intent loss: 2447.305221557617
Dev slot loss: 76615.111328125
Intent accuracy (dev): 0.886
Slot F1 (dev): 0.9854
Epoch 132 done.
Train Intent loss: 6.796118846104946
Train Slot loss: 89.79069053009152
Dev Intent loss: 2437.4237670898438
Dev slot loss: 77832.82861328125
Intent accuracy (dev): 0.892
Slot F1 (dev): 0.9849
Epoch 133 done.
Train Intent loss: 7.144593590317527
Train Slot loss: 82.247987434268
Dev Intent loss: 2353.6732482910156
Dev slot loss: 77718.61328125
Intent accuracy (dev): 0.894
Slot F1 (dev): 0.9875
Epoch 134 done.
Train Intent loss: 28.9596657063812
Train Slot loss: 120.02578386291862
Dev Intent loss: 2478.3966674804688
Dev slot loss: 78560.08349609375
Intent accuracy (dev): 0.878
Slot F1 (dev): 0.9877
Epoch 135 done.
Train Intent loss: 31.023953056836035
Train Slot loss: 84.4693655371666
Dev Intent loss: 2525.3046264648438
Dev slot loss: 79764.048828125
Intent accuracy (dev): 0.898
Slot F1 (dev): 0.9868
Epoch 136 done.
Train Intent loss: 42.91820785490563
Train Slot loss: 68.52066653594375
Dev Intent loss: 2577.8885498046875
Dev slot loss: 80355.04296875
Intent accuracy (dev): 0.882
Slot F1 (dev): 0.9863
Epoch 137 done.
Train Intent loss: 58.44591565593146
Train Slot loss: 71.69853257015347
Dev Intent loss: 2418.4707641601562
Dev slot loss: 81208.21875
Intent accuracy (dev): 0.884
Slot F1 (dev): 0.9862
Epoch 138 done.
Train Intent loss: 120.41073387104552
Train Slot loss: 79.49844183027744
Dev Intent loss: 2294.4776611328125
Dev slot loss: 80817.412109375
Intent accuracy (dev): 0.876
Slot F1 (dev): 0.9872
Epoch 139 done.
Train Intent loss: 138.49834536958952
Train Slot loss: 71.34901191294193
Dev Intent loss: 2411.542770385742
Dev slot loss: 81613.4638671875
Intent accuracy (dev): 0.854
Slot F1 (dev): 0.9863
Epoch 140 done.
Train Intent loss: 86.92454098106828
Train Slot loss: 41.38264470547438
Dev Intent loss: 2219.7223052978516
Dev slot loss: 81700.3388671875
Intent accuracy (dev): 0.898
Slot F1 (dev): 0.9861
Epoch 141 done.
Train Intent loss: 149.97238612081856
Train Slot loss: 103.70405603200197
Dev Intent loss: 2162.8337631225586
Dev slot loss: 82013.9970703125
Intent accuracy (dev): 0.902
Slot F1 (dev): 0.9847
Epoch 142 done.
Train Intent loss: 55.49200997897424
Train Slot loss: 151.32230212166905
Dev Intent loss: 2251.0045318603516
Dev slot loss: 81758.8017578125
Intent accuracy (dev): 0.902
Slot F1 (dev): 0.987
Epoch 143 done.
Train Intent loss: 126.92598335182993
Train Slot loss: 130.06014974974096
Dev Intent loss: 2054.4563903808594
Dev slot loss: 82503.96484375
Intent accuracy (dev): 0.886
Slot F1 (dev): 0.987
Epoch 144 done.
Train Intent loss: 92.33004622091539
Train Slot loss: 59.95239811576903
Dev Intent loss: 2108.9109802246094
Dev slot loss: 80763.4931640625
Intent accuracy (dev): 0.886
Slot F1 (dev): 0.9864
Epoch 145 done.
Train Intent loss: 68.13364577386528
Train Slot loss: 37.927419998683035
Dev Intent loss: 2148.126922607422
Dev slot loss: 82037.71142578125
Intent accuracy (dev): 0.89
Slot F1 (dev): 0.9866
Epoch 146 done.
Train Intent loss: 40.65897196822334
Train Slot loss: 91.1390368193388
Dev Intent loss: 2246.7543334960938
Dev slot loss: 80422.8984375
Intent accuracy (dev): 0.888
Slot F1 (dev): 0.9878
Epoch 147 done.
Train Intent loss: 101.5949862661073
Train Slot loss: 93.94649471715093
Dev Intent loss: 1761.1842041015625
Dev slot loss: 81197.7685546875
Intent accuracy (dev): 0.854
Slot F1 (dev): 0.9872
Epoch 148 done.
Train Intent loss: 108.71554873255081
Train Slot loss: 128.37250309530646
Dev Intent loss: 2100.866653442383
Dev slot loss: 82419.1328125
Intent accuracy (dev): 0.892
Slot F1 (dev): 0.9877
Epoch 149 done.
Train Intent loss: 70.7411280645756
Train Slot loss: 84.23944806773216
Dev Intent loss: 2239.3750610351562
Dev slot loss: 82649.734375
Intent accuracy (dev): 0.892
Slot F1 (dev): 0.9873
Epoch 150 done.
Train Intent loss: 46.86498108401429
Train Slot loss: 62.41907652467489
Dev Intent loss: 2244.665573120117
Dev slot loss: 82567.0673828125
Intent accuracy (dev): 0.894
Slot F1 (dev): 0.987
Epoch 151 done.
Train Intent loss: 25.603248171508312
Train Slot loss: 91.45681478083134
Dev Intent loss: 2377.438766479492
Dev slot loss: 81673.20654296875
Intent accuracy (dev): 0.888
Slot F1 (dev): 0.9871
Epoch 152 done.
Train Intent loss: 66.44395130104385
Train Slot loss: 39.37659942172468
Dev Intent loss: 2378.1456756591797
Dev slot loss: 83210.6611328125
Intent accuracy (dev): 0.896
Slot F1 (dev): 0.9878
Epoch 153 done.
Train Intent loss: 36.96788800525246
Train Slot loss: 88.66389752551913
Dev Intent loss: 2570.951156616211
Dev slot loss: 82025.3798828125
Intent accuracy (dev): 0.896
Slot F1 (dev): 0.9877
Epoch 154 done.
Train Intent loss: 42.44165868201526
Train Slot loss: 135.26657743938267
Dev Intent loss: 2571.723648071289
Dev slot loss: 80372.65185546875
Intent accuracy (dev): 0.908
Slot F1 (dev): 0.9879
Epoch 155 done.
Train Intent loss: 19.377688753244
Train Slot loss: 101.66306950896978
Dev Intent loss: 2579.6658935546875
Dev slot loss: 82048.4580078125
Intent accuracy (dev): 0.898
Slot F1 (dev): 0.9878
Epoch 156 done.
Train Intent loss: 77.75475672318134
Train Slot loss: 75.71132743172348
Dev Intent loss: 2428.1332244873047
Dev slot loss: 80217.15625
Intent accuracy (dev): 0.894
Slot F1 (dev): 0.9868
Epoch 157 done.
Train Intent loss: 40.66395958943758
Train Slot loss: 79.86902566254139
Dev Intent loss: 2303.9052124023438
Dev slot loss: 81537.41015625
Intent accuracy (dev): 0.886
Slot F1 (dev): 0.9856
Epoch 158 done.
Train Intent loss: 31.54656756433542
Train Slot loss: 119.76238973252475
Dev Intent loss: 2245.144775390625
Dev slot loss: 81392.36669921875
Intent accuracy (dev): 0.898
Slot F1 (dev): 0.9864
Epoch 159 done.
Train Intent loss: 19.548662481829524
Train Slot loss: 116.08989805728197
Dev Intent loss: 2391.1263885498047
Dev slot loss: 81264.4580078125
Intent accuracy (dev): 0.892
Slot F1 (dev): 0.9881
Epoch 160 done.
Train Intent loss: 20.412449212977663
Train Slot loss: 182.7505383193493
Dev Intent loss: 2496.6377716064453
Dev slot loss: 81334.5634765625
Intent accuracy (dev): 0.904
Slot F1 (dev): 0.9892
Epoch 161 done.
Train Intent loss: 11.057869476440828
Train Slot loss: 61.359747586771846
Dev Intent loss: 2458.4149169921875
Dev slot loss: 82625.322265625
Intent accuracy (dev): 0.902
Slot F1 (dev): 0.988
Epoch 162 done.
Train Intent loss: 7.646217162691755
Train Slot loss: 169.6175125585869
Dev Intent loss: 2413.025848388672
Dev slot loss: 82444.98828125
Intent accuracy (dev): 0.856
Slot F1 (dev): 0.9902
Epoch 163 done.
Train Intent loss: 20.904549620725447
Train Slot loss: 79.84371124859899
Dev Intent loss: 2607.8553466796875
Dev slot loss: 84019.43505859375
Intent accuracy (dev): 0.9
Slot F1 (dev): 0.9895
Epoch 164 done.
Train Intent loss: 58.512286316021346
Train Slot loss: 72.3108700606972
Dev Intent loss: 2601.2584228515625
Dev slot loss: 84209.0185546875
Intent accuracy (dev): 0.91
Slot F1 (dev): 0.989
Epoch 165 done.
Train Intent loss: 11.27135853015352
Train Slot loss: 122.92681469209492
Dev Intent loss: 2695.2376861572266
Dev slot loss: 84356.8037109375
Intent accuracy (dev): 0.906
Slot F1 (dev): 0.9881
Epoch 166 done.
Train Intent loss: 22.23140782880364
Train Slot loss: 103.96821975894272
Dev Intent loss: 2503.931915283203
Dev slot loss: 83895.3759765625
Intent accuracy (dev): 0.9
Slot F1 (dev): 0.9875
Epoch 167 done.
Train Intent loss: 135.24189614938223
Train Slot loss: 60.85147818364203
Dev Intent loss: 2644.4077758789062
Dev slot loss: 83925.05859375
Intent accuracy (dev): 0.9
Slot F1 (dev): 0.9886
Epoch 168 done.
Train Intent loss: 26.83078595637926
Train Slot loss: 95.3028763961047
Dev Intent loss: 2456.400665283203
Dev slot loss: 82684.421875
Intent accuracy (dev): 0.906
Slot F1 (dev): 0.9874
Epoch 169 done.
Train Intent loss: 103.68239435757278
Train Slot loss: 71.64936674758792
Dev Intent loss: 2460.1436309814453
Dev slot loss: 83165.11376953125
Intent accuracy (dev): 0.862
Slot F1 (dev): 0.9877
Epoch 170 done.
Train Intent loss: 55.76645812779316
Train Slot loss: 43.099211945198476
Dev Intent loss: 2222.320053100586
Dev slot loss: 83760.2841796875
Intent accuracy (dev): 0.898
Slot F1 (dev): 0.989
Epoch 171 done.
Train Intent loss: 30.24903791525867
Train Slot loss: 73.1094871237874
Dev Intent loss: 2253.792282104492
Dev slot loss: 84072.22802734375
Intent accuracy (dev): 0.89
Slot F1 (dev): 0.9894
Epoch 172 done.
Train Intent loss: 55.76560920570046
Train Slot loss: 147.24257810600102
Dev Intent loss: 2550.3848266601562
Dev slot loss: 83319.26171875
Intent accuracy (dev): 0.884
Slot F1 (dev): 0.9879
Epoch 173 done.
Train Intent loss: 34.80553782352945
Train Slot loss: 59.99716218933463
Dev Intent loss: 2687.475341796875
Dev slot loss: 83509.99609375
Intent accuracy (dev): 0.882
Slot F1 (dev): 0.9878
Epoch 174 done.
Train Intent loss: 17.586302246549167
Train Slot loss: 72.18755230819806
Dev Intent loss: 2632.483367919922
Dev slot loss: 84664.208984375
Intent accuracy (dev): 0.894
Slot F1 (dev): 0.9888
Epoch 175 done.
Train Intent loss: 40.26916436594911
Train Slot loss: 60.417151927948
Dev Intent loss: 2615.459457397461
Dev slot loss: 83694.89794921875
Intent accuracy (dev): 0.888
Slot F1 (dev): 0.9872
Epoch 176 done.
Train Intent loss: 31.256211256812094
Train Slot loss: 61.70729714632034
Dev Intent loss: 2666.7327575683594
Dev slot loss: 83520.86328125
Intent accuracy (dev): 0.892
Slot F1 (dev): 0.9871
Epoch 177 done.
Train Intent loss: 23.915956259763334
Train Slot loss: 95.95025742053986
Dev Intent loss: 2599.852828979492
Dev slot loss: 83619.111328125
Intent accuracy (dev): 0.898
Slot F1 (dev): 0.9871
Epoch 178 done.
Train Intent loss: 29.465183191001415
Train Slot loss: 96.28697009105235
Dev Intent loss: 2514.4097290039062
Dev slot loss: 84916.3642578125
Intent accuracy (dev): 0.892
Slot F1 (dev): 0.9864
Epoch 179 done.
Train Intent loss: 14.704722943119123
Train Slot loss: 121.22054467722774
Dev Intent loss: 2733.61279296875
Dev slot loss: 85095.763671875
Intent accuracy (dev): 0.9
Slot F1 (dev): 0.9878
Epoch 180 done.
Train Intent loss: 63.47938664240064
Train Slot loss: 68.34348833467811
Dev Intent loss: 2470.3026123046875
Dev slot loss: 85926.4853515625
Intent accuracy (dev): 0.892
Slot F1 (dev): 0.9873
Epoch 181 done.
Train Intent loss: 35.239885745802894
Train Slot loss: 121.68286589346826
Dev Intent loss: 2478.1336059570312
Dev slot loss: 86037.1982421875
Intent accuracy (dev): 0.896
Slot F1 (dev): 0.9875
Epoch 182 done.
Train Intent loss: 44.40990291326307
Train Slot loss: 70.97197577171028
Dev Intent loss: 2609.1181640625
Dev slot loss: 85736.9208984375
Intent accuracy (dev): 0.894
Slot F1 (dev): 0.9878
Epoch 183 done.
Train Intent loss: 70.97071299509844
Train Slot loss: 97.64884375734255
Dev Intent loss: 2720.1586303710938
Dev slot loss: 85932.169921875
Intent accuracy (dev): 0.882
Slot F1 (dev): 0.988
Epoch 184 done.
Train Intent loss: 32.120635790139204
Train Slot loss: 82.44948398834094
Dev Intent loss: 2572.312957763672
Dev slot loss: 85795.3212890625
Intent accuracy (dev): 0.852
Slot F1 (dev): 0.9879
Epoch 185 done.
Train Intent loss: 27.388826517242705
Train Slot loss: 93.19679193338379
Dev Intent loss: 2660.5804443359375
Dev slot loss: 86387.3955078125
Intent accuracy (dev): 0.884
Slot F1 (dev): 0.9869
Epoch 186 done.
Train Intent loss: 61.820986660372
Train Slot loss: 73.57884863484651
Dev Intent loss: 2490.2098083496094
Dev slot loss: 85408.18701171875
Intent accuracy (dev): 0.892
Slot F1 (dev): 0.9887
Epoch 187 done.
Train Intent loss: 62.941632897767704
Train Slot loss: 55.638265339657664
Dev Intent loss: 2551.9361572265625
Dev slot loss: 85182.255859375
Intent accuracy (dev): 0.904
Slot F1 (dev): 0.9893
Epoch 188 done.
Train Intent loss: 28.948509724083124
Train Slot loss: 91.46010979637504
Dev Intent loss: 2544.0029907226562
Dev slot loss: 85932.5302734375
Intent accuracy (dev): 0.896
Slot F1 (dev): 0.9896
Epoch 189 done.
Train Intent loss: 21.885634658057825
Train Slot loss: 66.62919130921364
Dev Intent loss: 2541.0407104492188
Dev slot loss: 87133.9716796875
Intent accuracy (dev): 0.904
Slot F1 (dev): 0.9888
Epoch 190 done.
Train Intent loss: 44.53883710084483
Train Slot loss: 90.09950719960034
Dev Intent loss: 2492.790817260742
Dev slot loss: 85503.552734375
Intent accuracy (dev): 0.892
Slot F1 (dev): 0.9884
Epoch 191 done.
Train Intent loss: 42.12768163866713
Train Slot loss: 65.83167588757351
Dev Intent loss: 2508.400924682617
Dev slot loss: 87107.4267578125
Intent accuracy (dev): 0.894
Slot F1 (dev): 0.9871
Epoch 192 done.
Train Intent loss: 67.93841740471544
Train Slot loss: 70.23343282565475
Dev Intent loss: 2385.6300506591797
Dev slot loss: 87050.7001953125
Intent accuracy (dev): 0.9
Slot F1 (dev): 0.9879
Epoch 193 done.
Train Intent loss: 24.65923979348736
Train Slot loss: 52.22382496111095
Dev Intent loss: 2699.121536254883
Dev slot loss: 87460.5966796875
Intent accuracy (dev): 0.9
Slot F1 (dev): 0.987
Epoch 194 done.
Train Intent loss: 27.520339669528767
Train Slot loss: 61.40563112171367
Dev Intent loss: 2560.917999267578
Dev slot loss: 87476.107421875
Intent accuracy (dev): 0.904
Slot F1 (dev): 0.9868
Epoch 195 done.
Train Intent loss: 28.814755278843222
Train Slot loss: 236.21575850993395
Dev Intent loss: 2788.147705078125
Dev slot loss: 85309.15771484375
Intent accuracy (dev): 0.898
Slot F1 (dev): 0.9874
Epoch 196 done.
Train Intent loss: 39.69545110306353
Train Slot loss: 64.998345839791
Dev Intent loss: 2688.333984375
Dev slot loss: 86100.3828125
Intent accuracy (dev): 0.89
Slot F1 (dev): 0.9869
Epoch 197 done.
Train Intent loss: 49.689260802348144
Train Slot loss: 97.64655368123204
Dev Intent loss: 2643.366409301758
Dev slot loss: 85870.0703125
Intent accuracy (dev): 0.896
Slot F1 (dev): 0.988
Epoch 198 done.
Train Intent loss: 41.607133430516114
Train Slot loss: 61.86982652917504
Dev Intent loss: 2848.4625549316406
Dev slot loss: 86912.95703125
Intent accuracy (dev): 0.89
Slot F1 (dev): 0.9872
Epoch 199 done.
Train Intent loss: 25.50738358475064
Train Slot loss: 85.26286353543401
Dev Intent loss: 2691.958984375
Dev slot loss: 86793.6953125
Intent accuracy (dev): 0.89
Slot F1 (dev): 0.9874
Epoch 200 done.
Train Intent loss: 7.332954069541302
Train Slot loss: 77.29840695951134
Dev Intent loss: 2743.607666015625
Dev slot loss: 87806.6845703125
Intent accuracy (dev): 0.886
Slot F1 (dev): 0.9865
Epoch 201 done.
Train Intent loss: 68.84408941253787
Train Slot loss: 95.1533450037241
Dev Intent loss: 2679.4281463623047
Dev slot loss: 87422.97607421875
Intent accuracy (dev): 0.88
Slot F1 (dev): 0.9862
Epoch 202 done.
Train Intent loss: 53.63741818262497
Train Slot loss: 63.246412521228194
Dev Intent loss: 2505.0088500976562
Dev slot loss: 87626.0595703125
Intent accuracy (dev): 0.882
Slot F1 (dev): 0.9864
Epoch 203 done.
Train Intent loss: 53.37125425116392
Train Slot loss: 55.6945303408429
Dev Intent loss: 2464.6061096191406
Dev slot loss: 86737.408203125
Intent accuracy (dev): 0.878
Slot F1 (dev): 0.9866
Epoch 204 done.
Train Intent loss: 15.34207325373427
Train Slot loss: 50.31282040569931
Dev Intent loss: 2571.2794342041016
Dev slot loss: 86069.6025390625
Intent accuracy (dev): 0.872
Slot F1 (dev): 0.987
Epoch 205 done.
Train Intent loss: 25.838354356674245
Train Slot loss: 100.19741589482874
Dev Intent loss: 2679.1075439453125
Dev slot loss: 85888.8251953125
Intent accuracy (dev): 0.874
Slot F1 (dev): 0.9868
Epoch 206 done.
Train Intent loss: 67.18692134780576
Train Slot loss: 103.1801197626628
Dev Intent loss: 2576.8663635253906
Dev slot loss: 86805.6328125
Intent accuracy (dev): 0.888
Slot F1 (dev): 0.9857
Epoch 207 done.
Train Intent loss: 93.31473220328917
Train Slot loss: 68.77828976977617
Dev Intent loss: 2522.3151245117188
Dev slot loss: 86286.8291015625
Intent accuracy (dev): 0.892
Slot F1 (dev): 0.9857
Epoch 208 done.
Train Intent loss: 40.79210008456721
Train Slot loss: 69.06374843977392
Dev Intent loss: 2434.366409301758
Dev slot loss: 86833.927734375
Intent accuracy (dev): 0.904
Slot F1 (dev): 0.9871
Epoch 209 done.
Train Intent loss: 55.971343282959424
Train Slot loss: 23.8177776907105
Dev Intent loss: 2346.894515991211
Dev slot loss: 87620.234375
Intent accuracy (dev): 0.904
Slot F1 (dev): 0.9866
Epoch 210 done.
Train Intent loss: 43.22502074460499
Train Slot loss: 78.88725501159206
Dev Intent loss: 2240.7225341796875
Dev slot loss: 88164.8515625
Intent accuracy (dev): 0.89
Slot F1 (dev): 0.9869
Epoch 211 done.
Train Intent loss: 26.49268269247841
Train Slot loss: 81.56092651002109
Dev Intent loss: 2371.8082427978516
Dev slot loss: 86663.259765625
Intent accuracy (dev): 0.896
Slot F1 (dev): 0.9875
Epoch 212 done.
Train Intent loss: 85.48996607211302
Train Slot loss: 90.20537719130516
Dev Intent loss: 2321.9602966308594
Dev slot loss: 86837.38671875
Intent accuracy (dev): 0.898
Slot F1 (dev): 0.9865
Epoch 213 done.
Train Intent loss: 70.02991352808021
Train Slot loss: 83.50071342056617
Dev Intent loss: 2498.374496459961
Dev slot loss: 86809.5126953125
Intent accuracy (dev): 0.906
Slot F1 (dev): 0.9871
Epoch 214 done.
Train Intent loss: 78.74750206436147
Train Slot loss: 103.09394621942192
Dev Intent loss: 2315.324172973633
Dev slot loss: 88662.662109375
Intent accuracy (dev): 0.902
Slot F1 (dev): 0.9882
Epoch 215 done.
Train Intent loss: 27.097095101315062
Train Slot loss: 236.86569842509925
Dev Intent loss: 2460.7386322021484
Dev slot loss: 87600.6328125
Intent accuracy (dev): 0.89
Slot F1 (dev): 0.9877
Epoch 216 done.
Train Intent loss: 41.63766875126748
Train Slot loss: 92.48731592250988
Dev Intent loss: 2608.3921813964844
Dev slot loss: 86350.6943359375
Intent accuracy (dev): 0.898
Slot F1 (dev): 0.9873
Epoch 217 done.
Train Intent loss: 92.25126119359629
Train Slot loss: 61.134586106054485
Dev Intent loss: 2265.6544189453125
Dev slot loss: 85769.3564453125
Intent accuracy (dev): 0.908
Slot F1 (dev): 0.9866
Epoch 218 done.
Train Intent loss: 84.1940672758501
Train Slot loss: 39.39592559635639
Dev Intent loss: 2497.574676513672
Dev slot loss: 86707.7333984375
Intent accuracy (dev): 0.906
Slot F1 (dev): 0.9874
Epoch 219 done.
Train Intent loss: 69.36033386133204
Train Slot loss: 74.46727130748332
Dev Intent loss: 2458.493362426758
Dev slot loss: 86832.0966796875
Intent accuracy (dev): 0.908
Slot F1 (dev): 0.987
Epoch 220 done.
Train Intent loss: 54.87751205349923
Train Slot loss: 111.31091295415536
Dev Intent loss: 2472.762420654297
Dev slot loss: 86631.0029296875
Intent accuracy (dev): 0.894
Slot F1 (dev): 0.9875
Epoch 221 done.
Train Intent loss: 17.09063215990318
Train Slot loss: 49.28469619480893
Dev Intent loss: 2564.5916595458984
Dev slot loss: 88536.6123046875
Intent accuracy (dev): 0.906
Slot F1 (dev): 0.9868
Epoch 222 done.
Train Intent loss: 24.87821351767343
Train Slot loss: 135.96803303342313
Dev Intent loss: 2658.0081481933594
Dev slot loss: 86828.8681640625
Intent accuracy (dev): 0.904
Slot F1 (dev): 0.9874
Epoch 223 done.
Train Intent loss: 75.80770959492656
Train Slot loss: 89.59580889809877
Dev Intent loss: 2596.9305419921875
Dev slot loss: 87671.4873046875
Intent accuracy (dev): 0.902
Slot F1 (dev): 0.9866
Epoch 224 done.
Train Intent loss: 1.2304006401027436
Train Slot loss: 161.35308603290468
Dev Intent loss: 2632.1976013183594
Dev slot loss: 88964.228515625
Intent accuracy (dev): 0.902
Slot F1 (dev): 0.9876
Epoch 225 done.
Train Intent loss: 23.838670420489507
Train Slot loss: 98.58338637743145
Dev Intent loss: 2486.4915924072266
Dev slot loss: 86754.64697265625
Intent accuracy (dev): 0.902
Slot F1 (dev): 0.9885
Epoch 226 done.
Train Intent loss: 33.45396236673696
Train Slot loss: 53.52096067322418
Dev Intent loss: 2371.4371032714844
Dev slot loss: 87535.1669921875
Intent accuracy (dev): 0.896
Slot F1 (dev): 0.9877
Epoch 227 done.
Train Intent loss: 14.452640793853789
Train Slot loss: 85.9505418939516
Dev Intent loss: 2723.918182373047
Dev slot loss: 85966.77734375
Intent accuracy (dev): 0.898
Slot F1 (dev): 0.987
Epoch 228 done.
Train Intent loss: 40.4483859197353
Train Slot loss: 56.40383334690705
Dev Intent loss: 2455.8246154785156
Dev slot loss: 87687.083984375
Intent accuracy (dev): 0.898
Slot F1 (dev): 0.9876
Epoch 229 done.
Train Intent loss: 56.8996451619023
Train Slot loss: 33.72475430555642
Dev Intent loss: 2604.6680603027344
Dev slot loss: 87860.46875
Intent accuracy (dev): 0.888
Slot F1 (dev): 0.9876
Epoch 230 done.
Train Intent loss: 13.607426771268365
Train Slot loss: 53.713788895867765
Dev Intent loss: 2872.1847229003906
Dev slot loss: 89312.396484375
Intent accuracy (dev): 0.912
Slot F1 (dev): 0.9866
Epoch 231 done.
Train Intent loss: 150.84059672991862
Train Slot loss: 33.28560488112271
Dev Intent loss: 2550.595932006836
Dev slot loss: 90296.8720703125
Intent accuracy (dev): 0.864
Slot F1 (dev): 0.9865
Epoch 232 done.
Train Intent loss: 63.778763673384674
Train Slot loss: 43.672108467202634
Dev Intent loss: 2647.5037231445312
Dev slot loss: 89558.14453125
Intent accuracy (dev): 0.894
Slot F1 (dev): 0.9876
Epoch 233 done.
Train Intent loss: 25.580742715246743
Train Slot loss: 83.75187197420746
Dev Intent loss: 2752.4419708251953
Dev slot loss: 89537.8271484375
Intent accuracy (dev): 0.89
Slot F1 (dev): 0.9881
Epoch 234 done.
Train Intent loss: 18.770321583302575
Train Slot loss: 40.97056069551036
Dev Intent loss: 2543.7586212158203
Dev slot loss: 88323.9287109375
Intent accuracy (dev): 0.88
Slot F1 (dev): 0.9881
Epoch 235 done.
Train Intent loss: 11.404408739093924
Train Slot loss: 58.53781780414283
Dev Intent loss: 2721.787628173828
Dev slot loss: 87634.7041015625
Intent accuracy (dev): 0.89
Slot F1 (dev): 0.988
Epoch 236 done.
Train Intent loss: 27.526729873556178
Train Slot loss: 74.6970984172076
Dev Intent loss: 2733.1142578125
Dev slot loss: 88175.77294921875
Intent accuracy (dev): 0.882
Slot F1 (dev): 0.9878
Epoch 237 done.
Train Intent loss: 23.231236251864175
Train Slot loss: 79.9037986798212
Dev Intent loss: 2758.3883056640625
Dev slot loss: 87577.0654296875
Intent accuracy (dev): 0.88
Slot F1 (dev): 0.9872
Epoch 238 done.
Train Intent loss: 34.19673534213507
Train Slot loss: 50.61428414285183
Dev Intent loss: 2744.3645935058594
Dev slot loss: 87569.7529296875
Intent accuracy (dev): 0.896
Slot F1 (dev): 0.9884
Epoch 239 done.
Train Intent loss: 19.57340924761229
Train Slot loss: 56.492026343010366
Dev Intent loss: 2796.4886474609375
Dev slot loss: 86641.1044921875
Intent accuracy (dev): 0.894
Slot F1 (dev): 0.988
Epoch 240 done.
Train Intent loss: 33.146339703987906
Train Slot loss: 70.39751872420311
Dev Intent loss: 2611.2301025390625
Dev slot loss: 87018.13818359375
Intent accuracy (dev): 0.88
Slot F1 (dev): 0.9877
Epoch 241 done.
Train Intent loss: 12.596266669039323
Train Slot loss: 125.48493869043887
Dev Intent loss: 2774.981903076172
Dev slot loss: 86733.4638671875
Intent accuracy (dev): 0.902
Slot F1 (dev): 0.9874
Epoch 242 done.
Train Intent loss: 1.1027659955288982
Train Slot loss: 56.896174657158554
Dev Intent loss: 2797.652618408203
Dev slot loss: 87718.025390625
Intent accuracy (dev): 0.902
Slot F1 (dev): 0.9869
Epoch 243 done.
Train Intent loss: 0.6030451508850092
Train Slot loss: 82.43533416558057
Dev Intent loss: 2791.4903564453125
Dev slot loss: 88015.95166015625
Intent accuracy (dev): 0.908
Slot F1 (dev): 0.9864
Epoch 244 done.
Train Intent loss: 24.942230109390948
Train Slot loss: 86.73842040356249
Dev Intent loss: 2948.248580932617
Dev slot loss: 88470.2001953125
Intent accuracy (dev): 0.902
Slot F1 (dev): 0.9875
Epoch 245 done.
Train Intent loss: 15.970977771165053
Train Slot loss: 134.1742825745605
Dev Intent loss: 2943.853759765625
Dev slot loss: 88360.794921875
Intent accuracy (dev): 0.894
Slot F1 (dev): 0.9871
Epoch 246 done.
Train Intent loss: 14.588224431150593
Train Slot loss: 83.77170687634498
Dev Intent loss: 2825.362045288086
Dev slot loss: 87909.19140625
Intent accuracy (dev): 0.902
Slot F1 (dev): 0.987
Epoch 247 done.
Train Intent loss: 14.734856279850646
Train Slot loss: 121.203390665818
Dev Intent loss: 2752.4620971679688
Dev slot loss: 86888.8505859375
Intent accuracy (dev): 0.868
Slot F1 (dev): 0.9879
Epoch 248 done.
Train Intent loss: 153.60643728796276
Train Slot loss: 110.54110821988434
Dev Intent loss: 2777.1983642578125
Dev slot loss: 89306.8642578125
Intent accuracy (dev): 0.892
Slot F1 (dev): 0.9871
Epoch 249 done.
Train Intent loss: 102.65609591671091
Train Slot loss: 46.97848579380661
Dev Intent loss: 2773.1260681152344
Dev slot loss: 87705.2587890625
Intent accuracy (dev): 0.884
Slot F1 (dev): 0.9887
Epoch 250 done.
Train Intent loss: 60.25353545953112
Train Slot loss: 101.04480030911509
Dev Intent loss: 2795.816421508789
Dev slot loss: 88441.412109375
Intent accuracy (dev): 0.904
Slot F1 (dev): 0.9891
Epoch 251 done.
Train Intent loss: 49.24512970581418
Train Slot loss: 90.30946147069335
Dev Intent loss: 2667.1090545654297
Dev slot loss: 88932.240234375
Intent accuracy (dev): 0.904
Slot F1 (dev): 0.9882
Epoch 252 done.
Train Intent loss: 32.43412750009156
Train Slot loss: 81.52620536694303
Dev Intent loss: 2577.9479217529297
Dev slot loss: 88609.822265625
Intent accuracy (dev): 0.886
Slot F1 (dev): 0.9894
Epoch 253 done.
Train Intent loss: 31.76617480603454
Train Slot loss: 49.980362232774496
Dev Intent loss: 2727.6338806152344
Dev slot loss: 89266.6484375
Intent accuracy (dev): 0.886
Slot F1 (dev): 0.9895
Epoch 254 done.
Train Intent loss: 32.479678821822745
Train Slot loss: 104.57588357757777
Dev Intent loss: 2413.6306762695312
Dev slot loss: 88578.33984375
Intent accuracy (dev): 0.89
Slot F1 (dev): 0.9886
Epoch 255 done.
Train Intent loss: 20.47520636000263
Train Slot loss: 58.227806996554136
Dev Intent loss: 2654.6082458496094
Dev slot loss: 88696.150390625
Intent accuracy (dev): 0.892
Slot F1 (dev): 0.989
Epoch 256 done.
Train Intent loss: 54.412298417104466
Train Slot loss: 57.754633793607354
Dev Intent loss: 2649.7933044433594
Dev slot loss: 89986.4013671875
Intent accuracy (dev): 0.888
Slot F1 (dev): 0.9892
Epoch 257 done.
Train Intent loss: 20.132511317686294
Train Slot loss: 95.98414993286133
Dev Intent loss: 2592.757843017578
Dev slot loss: 87535.1796875
Intent accuracy (dev): 0.9
Slot F1 (dev): 0.9883
Epoch 258 done.
Train Intent loss: 14.218415963703592
Train Slot loss: 51.201684766449034
Dev Intent loss: 2603.0437622070312
Dev slot loss: 88787.984375
Intent accuracy (dev): 0.898
Slot F1 (dev): 0.9886
Epoch 259 done.
Train Intent loss: 15.514132531487121
Train Slot loss: 76.84275898290798
Dev Intent loss: 2754.4453735351562
Dev slot loss: 89434.4033203125
Intent accuracy (dev): 0.906
Slot F1 (dev): 0.989
Epoch 260 done.
Train Intent loss: 43.763997294487126
Train Slot loss: 59.369969529565424
Dev Intent loss: 2789.001998901367
Dev slot loss: 89990.7568359375
Intent accuracy (dev): 0.898
Slot F1 (dev): 0.9889
Epoch 261 done.
Train Intent loss: 21.107918842477375
Train Slot loss: 70.3134047021158
Dev Intent loss: 2727.494873046875
Dev slot loss: 90467.2060546875
Intent accuracy (dev): 0.89
Slot F1 (dev): 0.9885
Epoch 262 done.
Train Intent loss: 16.123611894108762
Train Slot loss: 39.977290839422494
Dev Intent loss: 2790.9080810546875
Dev slot loss: 89558.521484375
Intent accuracy (dev): 0.906
Slot F1 (dev): 0.9877
Epoch 263 done.
Train Intent loss: 0.7391259725627606
Train Slot loss: 131.48368783458136
Dev Intent loss: 2970.270782470703
Dev slot loss: 90000.2490234375
Intent accuracy (dev): 0.904
Slot F1 (dev): 0.988
Epoch 264 done.
Train Intent loss: 8.544335734535707
Train Slot loss: 86.58076944388449
Dev Intent loss: 2785.2333984375
Dev slot loss: 90781.33203125
Intent accuracy (dev): 0.9
Slot F1 (dev): 0.9882
Epoch 265 done.
Train Intent loss: 6.879041185085953
Train Slot loss: 86.8362997060176
Dev Intent loss: 2838.0406341552734
Dev slot loss: 90465.888671875
Intent accuracy (dev): 0.902
Slot F1 (dev): 0.9881
Epoch 266 done.
Train Intent loss: 28.330462755237022
Train Slot loss: 80.95896304305643
Dev Intent loss: 2758.158477783203
Dev slot loss: 89951.712890625
Intent accuracy (dev): 0.894
Slot F1 (dev): 0.9886
Epoch 267 done.
Train Intent loss: 38.32601917257489
Train Slot loss: 91.12129005463794
Dev Intent loss: 2744.889907836914
Dev slot loss: 88961.60546875
Intent accuracy (dev): 0.908
Slot F1 (dev): 0.989
Epoch 268 done.
Train Intent loss: 92.68387255384732
Train Slot loss: 92.34069413226098
Dev Intent loss: 2542.078369140625
Dev slot loss: 90200.56640625
Intent accuracy (dev): 0.902
Slot F1 (dev): 0.9879
Epoch 269 done.
Train Intent loss: 34.462482195100165
Train Slot loss: 85.0204987609759
Dev Intent loss: 2705.630889892578
Dev slot loss: 90477.419921875
Intent accuracy (dev): 0.892
Slot F1 (dev): 0.9877
Epoch 270 done.
Train Intent loss: 8.036996667022322
Train Slot loss: 93.67984692333266
Dev Intent loss: 2945.0428771972656
Dev slot loss: 91838.4716796875
Intent accuracy (dev): 0.902
Slot F1 (dev): 0.9886
Epoch 271 done.
Train Intent loss: 62.40288009405049
Train Slot loss: 112.73695236165076
Dev Intent loss: 2724.0174255371094
Dev slot loss: 90855.7353515625
Intent accuracy (dev): 0.912
Slot F1 (dev): 0.9887
Epoch 272 done.
Train Intent loss: 25.221855566458544
Train Slot loss: 44.15199017710984
Dev Intent loss: 2644.3592376708984
Dev slot loss: 91991.8779296875
Intent accuracy (dev): 0.892
Slot F1 (dev): 0.9885
Epoch 273 done.
Train Intent loss: 94.75232816462812
Train Slot loss: 47.534483041847125
Dev Intent loss: 2570.9505310058594
Dev slot loss: 92751.6328125
Intent accuracy (dev): 0.906
Slot F1 (dev): 0.9881
Epoch 274 done.
Train Intent loss: 67.06536337679427
Train Slot loss: 80.62663814146072
Dev Intent loss: 2302.4954376220703
Dev slot loss: 91682.1240234375
Intent accuracy (dev): 0.912
Slot F1 (dev): 0.9877
Epoch 275 done.
Train Intent loss: 115.62294924430898
Train Slot loss: 48.316472929669544
Dev Intent loss: 2274.5986328125
Dev slot loss: 93619.88671875
Intent accuracy (dev): 0.898
Slot F1 (dev): 0.9877
Epoch 276 done.
Train Intent loss: 111.58336932632665
Train Slot loss: 42.96519958158024
Dev Intent loss: 2461.7498168945312
Dev slot loss: 94091.603515625
Intent accuracy (dev): 0.884
Slot F1 (dev): 0.9881
Epoch 277 done.
Train Intent loss: 64.80102645867737
Train Slot loss: 58.71820962801576
Dev Intent loss: 2372.269332885742
Dev slot loss: 95294.298828125
Intent accuracy (dev): 0.896
Slot F1 (dev): 0.9878
Epoch 278 done.
Train Intent loss: 44.77856110691209
Train Slot loss: 71.74285453371704
Dev Intent loss: 2439.1354217529297
Dev slot loss: 94192.291015625
Intent accuracy (dev): 0.9
Slot F1 (dev): 0.9874
Epoch 279 done.
Train Intent loss: 87.74651178345084
Train Slot loss: 29.803629766684026
Dev Intent loss: 2281.182113647461
Dev slot loss: 94120.3154296875
Intent accuracy (dev): 0.906
Slot F1 (dev): 0.9867
Epoch 280 done.
Train Intent loss: 126.71627749822801
Train Slot loss: 56.41392225353047
Dev Intent loss: 2240.352340698242
Dev slot loss: 94239.7568359375
Intent accuracy (dev): 0.906
Slot F1 (dev): 0.9865
Epoch 281 done.
Train Intent loss: 71.5108878914034
Train Slot loss: 46.98557732370682
Dev Intent loss: 2305.9927673339844
Dev slot loss: 93988.970703125
Intent accuracy (dev): 0.892
Slot F1 (dev): 0.988
Epoch 282 done.
Train Intent loss: 59.743785291793756
Train Slot loss: 40.73612450668588
Dev Intent loss: 2287.533157348633
Dev slot loss: 94587.0693359375
Intent accuracy (dev): 0.88
Slot F1 (dev): 0.9871
Epoch 283 done.
Train Intent loss: 142.97964413865702
Train Slot loss: 38.393439412117004
Dev Intent loss: 2202.374053955078
Dev slot loss: 94435.7158203125
Intent accuracy (dev): 0.864
Slot F1 (dev): 0.9868
Epoch 284 done.
Train Intent loss: 71.67868689555326
Train Slot loss: 43.697779477457516
Dev Intent loss: 2501.1289978027344
Dev slot loss: 94725.5625
Intent accuracy (dev): 0.886
Slot F1 (dev): 0.9879
Epoch 285 done.
Train Intent loss: 82.04006540188857
Train Slot loss: 53.06766911712475
Dev Intent loss: 2415.075927734375
Dev slot loss: 93706.9150390625
Intent accuracy (dev): 0.884
Slot F1 (dev): 0.9877
Epoch 286 done.
Train Intent loss: 38.19801739678951
Train Slot loss: 52.314600605517626
Dev Intent loss: 2493.941421508789
Dev slot loss: 95286.6865234375
Intent accuracy (dev): 0.884
Slot F1 (dev): 0.9874
Epoch 287 done.
Train Intent loss: 44.78241260664072
Train Slot loss: 66.30212702148128
Dev Intent loss: 2486.6277923583984
Dev slot loss: 94479.4560546875
Intent accuracy (dev): 0.878
Slot F1 (dev): 0.9867
Epoch 288 done.
Train Intent loss: 72.36094200304797
Train Slot loss: 40.574519243557006
Dev Intent loss: 2598.4987182617188
Dev slot loss: 93672.216796875
Intent accuracy (dev): 0.868
Slot F1 (dev): 0.9877
Epoch 289 done.
Train Intent loss: 75.12972127686953
Train Slot loss: 62.84916905872524
Dev Intent loss: 2415.6498413085938
Dev slot loss: 94806.71875
Intent accuracy (dev): 0.882
Slot F1 (dev): 0.9873
Epoch 290 done.
Train Intent loss: 45.81735355046112
Train Slot loss: 49.984998527448624
Dev Intent loss: 2420.008346557617
Dev slot loss: 93940.2578125
Intent accuracy (dev): 0.878
Slot F1 (dev): 0.9879
Epoch 291 done.
Train Intent loss: 18.373441565490793
Train Slot loss: 100.96492240671068
Dev Intent loss: 2491.4675903320312
Dev slot loss: 95097.470703125
Intent accuracy (dev): 0.882
Slot F1 (dev): 0.9887
Epoch 292 done.
Train Intent loss: 7.343010304204654
Train Slot loss: 56.533597643021494
Dev Intent loss: 2449.096481323242
Dev slot loss: 95026.29296875
Intent accuracy (dev): 0.882
Slot F1 (dev): 0.9873
Epoch 293 done.
Train Intent loss: 31.5758283893083
Train Slot loss: 93.54012426896952
Dev Intent loss: 2443.6200408935547
Dev slot loss: 95267.9306640625
Intent accuracy (dev): 0.87
Slot F1 (dev): 0.9881
Epoch 294 done.
Train Intent loss: 42.07166889545624
Train Slot loss: 64.8202321070712
Dev Intent loss: 2257.548599243164
Dev slot loss: 96202.78125
Intent accuracy (dev): 0.878
Slot F1 (dev): 0.9879
Epoch 295 done.
Train Intent loss: 15.651617351802997
Train Slot loss: 55.49788240576163
Dev Intent loss: 2545.4434204101562
Dev slot loss: 97014.5693359375
Intent accuracy (dev): 0.882
Slot F1 (dev): 0.9874
Epoch 296 done.
Train Intent loss: 26.599422549566953
Train Slot loss: 72.15617868304253
Dev Intent loss: 2606.861297607422
Dev slot loss: 94737.3310546875
Intent accuracy (dev): 0.898
Slot F1 (dev): 0.9886
Epoch 297 done.
Train Intent loss: 7.152989871494356
Train Slot loss: 67.04783647262957
Dev Intent loss: 2530.619583129883
Dev slot loss: 93243.8779296875
Intent accuracy (dev): 0.896
Slot F1 (dev): 0.9876
Epoch 298 done.
Train Intent loss: 4.370135258752271
Train Slot loss: 77.61258588102646
Dev Intent loss: 2719.5936126708984
Dev slot loss: 96487.1796875
Intent accuracy (dev): 0.9
Slot F1 (dev): 0.9884
Epoch 299 done.
Train Intent loss: 2.6012645326554775
Train Slot loss: 108.94696486927569
Dev Intent loss: 2855.5643005371094
Dev slot loss: 95059.87109375
Intent accuracy (dev): 0.9
Slot F1 (dev): 0.9883
Evaluating on test set...
Intent report
                     precision    recall  f1-score   support

  atis_abbreviation       0.00      0.00      0.00        33
      atis_aircraft       0.45      0.56      0.50         9
       atis_airfare       0.98      0.98      0.98        49
       atis_airline       0.68      0.34      0.46        38
       atis_airport       1.00      0.06      0.11        18
      atis_capacity       0.80      0.19      0.31        21
          atis_city       0.60      1.00      0.75         6
      atis_day_name       0.00      0.00      0.00         2
      atis_distance       1.00      0.80      0.89        10
        atis_flight       0.96      0.98      0.97       645
     atis_flight_no       0.36      0.44      0.40         9
   atis_flight_time       0.50      1.00      0.67         1
   atis_ground_fare       0.00      0.00      0.00         7
atis_ground_service       0.41      1.00      0.59        36
          atis_meal       0.83      0.83      0.83         6
      atis_quantity       0.00      0.00      0.00         3

           accuracy                           0.86       893
          macro avg       0.54      0.51      0.47       893
       weighted avg       0.86      0.86      0.84       893

Slot filling:
                              precision    recall  f1-score   support

             B-aircraft_code       0.88      0.70      0.78        33
              B-airline_code       0.91      0.91      0.91        34
              B-airline_name       1.00      1.00      1.00       101
              B-airport_code       0.40      0.44      0.42         9
              B-airport_name       0.86      0.29      0.43        21
 B-arrive_date.date_relative       1.00      0.50      0.67         2
      B-arrive_date.day_name       0.77      0.91      0.83        11
    B-arrive_date.day_number       0.71      0.83      0.77         6
    B-arrive_date.month_name       0.71      0.83      0.77         6
      B-arrive_time.end_time       1.00      0.75      0.86         8
 B-arrive_time.period_of_day       0.67      1.00      0.80         6
    B-arrive_time.start_time       1.00      0.88      0.93         8
          B-arrive_time.time       0.91      0.91      0.91        34
 B-arrive_time.time_relative       0.91      0.94      0.92        31
             B-booking_class       0.00      0.00      0.00         1
                 B-city_name       0.86      0.53      0.65        57
                B-class_type       0.89      1.00      0.94        24
               B-compartment       0.00      0.00      0.00         1
                   B-connect       1.00      1.00      1.00         6
             B-cost_relative       1.00      0.97      0.99        37
                  B-day_name       0.00      0.00      0.00         2
                 B-days_code       0.00      0.00      0.00         1
 B-depart_date.date_relative       0.89      1.00      0.94        17
      B-depart_date.day_name       0.98      0.99      0.98       212
    B-depart_date.day_number       0.98      0.96      0.97        55
    B-depart_date.month_name       0.98      0.96      0.97        56
B-depart_date.today_relative       1.00      0.89      0.94         9
          B-depart_date.year       1.00      0.33      0.50         3
      B-depart_time.end_time       1.00      0.67      0.80         3
    B-depart_time.period_mod       1.00      1.00      1.00         5
 B-depart_time.period_of_day       0.98      0.92      0.95       130
    B-depart_time.start_time       0.50      1.00      0.67         3
          B-depart_time.time       0.88      1.00      0.93        57
 B-depart_time.time_relative       0.98      0.97      0.98        65
                   B-economy       0.86      1.00      0.92         6
               B-fare_amount       1.00      1.00      1.00         2
           B-fare_basis_code       0.74      1.00      0.85        17
                    B-flight       0.00      0.00      0.00         1
               B-flight_days       1.00      1.00      1.00        10
                B-flight_mod       1.00      0.92      0.96        24
             B-flight_number       0.61      1.00      0.76        11
               B-flight_stop       1.00      1.00      1.00        21
               B-flight_time       1.00      1.00      1.00         1
      B-fromloc.airport_code       1.00      1.00      1.00         5
      B-fromloc.airport_name       0.44      1.00      0.62        12
         B-fromloc.city_name       0.98      1.00      0.99       704
        B-fromloc.state_code       1.00      1.00      1.00        23
        B-fromloc.state_name       1.00      1.00      1.00        17
                      B-meal       1.00      1.00      1.00        16
                 B-meal_code       0.00      0.00      0.00         1
          B-meal_description       0.90      0.90      0.90        10
                       B-mod       0.50      0.50      0.50         2
                        B-or       0.43      1.00      0.60         3
             B-period_of_day       1.00      0.25      0.40         4
          B-restriction_code       1.00      0.50      0.67         4
 B-return_date.date_relative       0.50      0.33      0.40         3
      B-return_date.day_name       0.00      0.00      0.00         2
                B-round_trip       1.00      0.97      0.99        73
                B-state_code       0.50      1.00      0.67         1
                B-state_name       0.00      0.00      0.00         9
      B-stoploc.airport_code       0.00      0.00      0.00         1
      B-stoploc.airport_name       0.00      0.00      0.00         0
         B-stoploc.city_name       1.00      0.95      0.97        20
        B-toloc.airport_code       1.00      0.75      0.86         4
        B-toloc.airport_name       0.60      1.00      0.75         3
           B-toloc.city_name       0.97      0.99      0.98       716
        B-toloc.country_name       1.00      1.00      1.00         1
          B-toloc.state_code       1.00      1.00      1.00        18
          B-toloc.state_name       0.96      0.89      0.93        28
            B-transport_type       1.00      1.00      1.00        10
              I-airline_name       0.98      1.00      0.99        65
              I-airport_name       0.92      0.38      0.54        29
    I-arrive_date.day_number       0.00      0.00      0.00         0
      I-arrive_time.end_time       1.00      0.50      0.67         8
    I-arrive_time.start_time       1.00      1.00      1.00         1
          I-arrive_time.time       0.89      0.97      0.93        35
 I-arrive_time.time_relative       1.00      0.50      0.67         4
                 I-city_name       1.00      0.47      0.64        30
                I-class_type       1.00      1.00      1.00        17
             I-cost_relative       0.67      0.67      0.67         3
    I-depart_date.day_number       0.82      0.93      0.87        15
      I-depart_time.end_time       0.50      0.67      0.57         3
 I-depart_time.period_of_day       1.00      1.00      1.00         1
    I-depart_time.start_time       1.00      1.00      1.00         1
          I-depart_time.time       0.96      1.00      0.98        52
 I-depart_time.time_relative       0.00      0.00      0.00         1
               I-fare_amount       1.00      1.00      1.00         2
                I-flight_mod       1.00      0.17      0.29         6
             I-flight_number       0.00      0.00      0.00         1
               I-flight_time       1.00      1.00      1.00         1
      I-fromloc.airport_name       0.43      1.00      0.60        15
         I-fromloc.city_name       0.96      1.00      0.98       177
        I-fromloc.state_name       1.00      1.00      1.00         1
          I-restriction_code       1.00      1.00      1.00         3
 I-return_date.date_relative       0.67      0.67      0.67         3
                I-round_trip       0.99      1.00      0.99        71
                I-state_name       0.00      0.00      0.00         1
         I-stoploc.city_name       1.00      1.00      1.00        10
        I-toloc.airport_name       1.00      1.00      1.00         3
           I-toloc.city_name       0.96      0.98      0.97       265
          I-toloc.state_name       1.00      1.00      1.00         1
            I-transport_type       0.00      0.00      0.00         1
                           O       1.00      1.00      1.00      5501

                    accuracy                           0.98      9164
                   macro avg       0.76      0.74      0.73      9164
                weighted avg       0.98      0.98      0.97      9164

Intent accuracy (test): 0.8555
Slot F1 (test): 0.974
