Logging to ./experiments/exp1/2enc.1dec.0.4dropout.100epochs.log
Chosen device not a CPU! Setting CUDA tensors as default...
Epoch 0 done.
Train Intent loss: 5389.42741394043
Train Slot loss: 80256.31051635742
Dev Intent loss: 593.0884666442871
Dev slot loss: 13665.851684570312
Intent accuracy (dev): 0.718
Slot F1 (dev): 0.7537
Epoch 1 done.
Train Intent loss: 3687.1270027160645
Train Slot loss: 28277.318405151367
Dev Intent loss: 650.070484161377
Dev slot loss: 18040.04296875
Intent accuracy (dev): 0.722
Slot F1 (dev): 0.8856
Epoch 2 done.
Train Intent loss: 2537.7529649734497
Train Slot loss: 14101.428611755371
Dev Intent loss: 757.296558380127
Dev slot loss: 20330.036987304688
Intent accuracy (dev): 0.78
Slot F1 (dev): 0.9302
Epoch 3 done.
Train Intent loss: 2127.4836387634277
Train Slot loss: 7858.393486022949
Dev Intent loss: 987.4328765869141
Dev slot loss: 22235.66748046875
Intent accuracy (dev): 0.806
Slot F1 (dev): 0.9591
Epoch 4 done.
Train Intent loss: 1857.8382024765015
Train Slot loss: 4645.099555969238
Dev Intent loss: 899.1775131225586
Dev slot loss: 24265.759765625
Intent accuracy (dev): 0.826
Slot F1 (dev): 0.973
Epoch 5 done.
Train Intent loss: 1534.7630076408386
Train Slot loss: 2823.7444438934326
Dev Intent loss: 984.9752044677734
Dev slot loss: 25386.900390625
Intent accuracy (dev): 0.824
Slot F1 (dev): 0.9782
Epoch 6 done.
Train Intent loss: 1237.1710200309753
Train Slot loss: 1925.549593925476
Dev Intent loss: 1076.323143005371
Dev slot loss: 26818.630859375
Intent accuracy (dev): 0.83
Slot F1 (dev): 0.9818
Epoch 7 done.
Train Intent loss: 1084.1011304855347
Train Slot loss: 1256.5067129135132
Dev Intent loss: 1235.577392578125
Dev slot loss: 27763.018310546875
Intent accuracy (dev): 0.836
Slot F1 (dev): 0.9822
Epoch 8 done.
Train Intent loss: 902.7149541378021
Train Slot loss: 956.5411100387573
Dev Intent loss: 1463.4705657958984
Dev slot loss: 28398.503173828125
Intent accuracy (dev): 0.834
Slot F1 (dev): 0.9831
Epoch 9 done.
Train Intent loss: 793.3042578697205
Train Slot loss: 652.6335699558258
Dev Intent loss: 1408.0035705566406
Dev slot loss: 29601.7138671875
Intent accuracy (dev): 0.854
Slot F1 (dev): 0.9833
Epoch 10 done.
Train Intent loss: 721.02323782444
Train Slot loss: 509.1004761457443
Dev Intent loss: 1446.2428970336914
Dev slot loss: 30825.311767578125
Intent accuracy (dev): 0.852
Slot F1 (dev): 0.9839
Epoch 11 done.
Train Intent loss: 639.5705713033676
Train Slot loss: 424.01109635829926
Dev Intent loss: 1385.616096496582
Dev slot loss: 31015.387451171875
Intent accuracy (dev): 0.882
Slot F1 (dev): 0.986
Epoch 12 done.
Train Intent loss: 466.5874622762203
Train Slot loss: 283.0691131949425
Dev Intent loss: 1477.6937103271484
Dev slot loss: 31547.98583984375
Intent accuracy (dev): 0.892
Slot F1 (dev): 0.986
Epoch 13 done.
Train Intent loss: 398.10335126519203
Train Slot loss: 280.9976210594177
Dev Intent loss: 1573.2427673339844
Dev slot loss: 32497.99072265625
Intent accuracy (dev): 0.924
Slot F1 (dev): 0.9846
Epoch 14 done.
Train Intent loss: 325.1889972090721
Train Slot loss: 231.74266183376312
Dev Intent loss: 1603.069564819336
Dev slot loss: 32828.1875
Intent accuracy (dev): 0.902
Slot F1 (dev): 0.9872
Epoch 15 done.
Train Intent loss: 301.5657085478306
Train Slot loss: 218.4821034669876
Dev Intent loss: 1702.7159881591797
Dev slot loss: 33343.076416015625
Intent accuracy (dev): 0.918
Slot F1 (dev): 0.9871
Epoch 16 done.
Train Intent loss: 276.6223742812872
Train Slot loss: 203.2938181757927
Dev Intent loss: 1715.4661254882812
Dev slot loss: 34622.768798828125
Intent accuracy (dev): 0.904
Slot F1 (dev): 0.9873
Epoch 17 done.
Train Intent loss: 274.5599959567189
Train Slot loss: 163.19892746210098
Dev Intent loss: 1603.2991790771484
Dev slot loss: 34025.472412109375
Intent accuracy (dev): 0.916
Slot F1 (dev): 0.9856
Epoch 18 done.
Train Intent loss: 156.73630106449127
Train Slot loss: 161.08274167776108
Dev Intent loss: 1707.8333435058594
Dev slot loss: 35444.97021484375
Intent accuracy (dev): 0.892
Slot F1 (dev): 0.9865
Epoch 19 done.
Train Intent loss: 177.10994362086058
Train Slot loss: 163.37191113829613
Dev Intent loss: 1782.642074584961
Dev slot loss: 36200.185302734375
Intent accuracy (dev): 0.93
Slot F1 (dev): 0.9868
Epoch 20 done.
Train Intent loss: 142.45261718332767
Train Slot loss: 166.12863677740097
Dev Intent loss: 1890.42724609375
Dev slot loss: 37241.134033203125
Intent accuracy (dev): 0.916
Slot F1 (dev): 0.9872
Epoch 21 done.
Train Intent loss: 140.2903165370226
Train Slot loss: 108.21862576901913
Dev Intent loss: 1995.5758819580078
Dev slot loss: 38372.4599609375
Intent accuracy (dev): 0.906
Slot F1 (dev): 0.9874
Epoch 22 done.
Train Intent loss: 106.30092539265752
Train Slot loss: 138.71579653024673
Dev Intent loss: 1815.8131561279297
Dev slot loss: 38649.44580078125
Intent accuracy (dev): 0.914
Slot F1 (dev): 0.9867
Epoch 23 done.
Train Intent loss: 99.93765029497445
Train Slot loss: 147.405607894063
Dev Intent loss: 1958.0800476074219
Dev slot loss: 39065.3076171875
Intent accuracy (dev): 0.922
Slot F1 (dev): 0.9869
Epoch 24 done.
Train Intent loss: 78.06570548098534
Train Slot loss: 136.26789045333862
Dev Intent loss: 2078.1099853515625
Dev slot loss: 38621.22265625
Intent accuracy (dev): 0.918
Slot F1 (dev): 0.9865
Epoch 25 done.
Train Intent loss: 83.00941937416792
Train Slot loss: 104.77912618219852
Dev Intent loss: 1955.2485656738281
Dev slot loss: 39937.703857421875
Intent accuracy (dev): 0.914
Slot F1 (dev): 0.9878
Epoch 26 done.
Train Intent loss: 79.965800171718
Train Slot loss: 98.1969380825758
Dev Intent loss: 2058.8798828125
Dev slot loss: 41730.408203125
Intent accuracy (dev): 0.908
Slot F1 (dev): 0.9878
Epoch 27 done.
Train Intent loss: 63.733517445623875
Train Slot loss: 86.37406855076551
Dev Intent loss: 1983.6708984375
Dev slot loss: 41091.9453125
Intent accuracy (dev): 0.91
Slot F1 (dev): 0.9868
Epoch 28 done.
Train Intent loss: 83.57777500152588
Train Slot loss: 98.81018395721912
Dev Intent loss: 2124.5501708984375
Dev slot loss: 40429.3203125
Intent accuracy (dev): 0.934
Slot F1 (dev): 0.9868
Epoch 29 done.
Train Intent loss: 85.73795559629798
Train Slot loss: 109.59687967598438
Dev Intent loss: 2036.1214904785156
Dev slot loss: 41211.18701171875
Intent accuracy (dev): 0.912
Slot F1 (dev): 0.9871
Epoch 30 done.
Train Intent loss: 64.32263270951807
Train Slot loss: 118.32243237644434
Dev Intent loss: 1971.210952758789
Dev slot loss: 41467.7509765625
Intent accuracy (dev): 0.918
Slot F1 (dev): 0.9888
Epoch 31 done.
Train Intent loss: 71.85539041785523
Train Slot loss: 107.92658642679453
Dev Intent loss: 1922.0747375488281
Dev slot loss: 42727.7060546875
Intent accuracy (dev): 0.924
Slot F1 (dev): 0.9889
Epoch 32 done.
Train Intent loss: 109.00152452243492
Train Slot loss: 84.19820985943079
Dev Intent loss: 1947.140380859375
Dev slot loss: 41448.57275390625
Intent accuracy (dev): 0.914
Slot F1 (dev): 0.9884
Epoch 33 done.
Train Intent loss: 105.61359498556703
Train Slot loss: 72.10785532742739
Dev Intent loss: 1971.2593994140625
Dev slot loss: 41991.489990234375
Intent accuracy (dev): 0.946
Slot F1 (dev): 0.9877
Epoch 34 done.
Train Intent loss: 65.32631411263719
Train Slot loss: 78.4427499845624
Dev Intent loss: 2071.022216796875
Dev slot loss: 42691.4423828125
Intent accuracy (dev): 0.92
Slot F1 (dev): 0.9879
Epoch 35 done.
Train Intent loss: 94.03058834467083
Train Slot loss: 137.9985658377409
Dev Intent loss: 2108.1014862060547
Dev slot loss: 43003.41357421875
Intent accuracy (dev): 0.934
Slot F1 (dev): 0.9879
Epoch 36 done.
Train Intent loss: 52.91503386711702
Train Slot loss: 113.81993803754449
Dev Intent loss: 2011.8642272949219
Dev slot loss: 42863.1630859375
Intent accuracy (dev): 0.932
Slot F1 (dev): 0.987
Epoch 37 done.
Train Intent loss: 65.18781455187127
Train Slot loss: 134.0797353424132
Dev Intent loss: 2083.1118927001953
Dev slot loss: 43386.8193359375
Intent accuracy (dev): 0.948
Slot F1 (dev): 0.9883
Epoch 38 done.
Train Intent loss: 46.516827687388286
Train Slot loss: 124.7235264480114
Dev Intent loss: 2358.3268280029297
Dev slot loss: 44796.123046875
Intent accuracy (dev): 0.944
Slot F1 (dev): 0.9873
Epoch 39 done.
Train Intent loss: 64.63461846648715
Train Slot loss: 92.98551530018449
Dev Intent loss: 2039.7580108642578
Dev slot loss: 46263.29736328125
Intent accuracy (dev): 0.95
Slot F1 (dev): 0.9881
Epoch 40 done.
Train Intent loss: 62.18875269731507
Train Slot loss: 92.19644922018051
Dev Intent loss: 2326.9141235351562
Dev slot loss: 44750.43115234375
Intent accuracy (dev): 0.924
Slot F1 (dev): 0.9879
Epoch 41 done.
Train Intent loss: 53.207410358125344
Train Slot loss: 89.28887060284615
Dev Intent loss: 2292.837432861328
Dev slot loss: 45068.34716796875
Intent accuracy (dev): 0.938
Slot F1 (dev): 0.9885
Epoch 42 done.
Train Intent loss: 59.268428028328344
Train Slot loss: 67.64228984154761
Dev Intent loss: 2473.8064727783203
Dev slot loss: 44654.044921875
Intent accuracy (dev): 0.954
Slot F1 (dev): 0.9871
Epoch 43 done.
Train Intent loss: 84.38716986170039
Train Slot loss: 89.16789134964347
Dev Intent loss: 2320.862533569336
Dev slot loss: 45243.73388671875
Intent accuracy (dev): 0.932
Slot F1 (dev): 0.9891
Epoch 44 done.
Train Intent loss: 34.39564763032831
Train Slot loss: 89.26683607697487
Dev Intent loss: 2270.3756256103516
Dev slot loss: 45829.64404296875
Intent accuracy (dev): 0.954
Slot F1 (dev): 0.9873
Epoch 45 done.
Train Intent loss: 21.28129590698518
Train Slot loss: 118.61064884439111
Dev Intent loss: 2387.970230102539
Dev slot loss: 46571.8251953125
Intent accuracy (dev): 0.952
Slot F1 (dev): 0.9875
Epoch 46 done.
Train Intent loss: 31.307063277694397
Train Slot loss: 72.31564866751432
Dev Intent loss: 2378.8950805664062
Dev slot loss: 47001.38671875
Intent accuracy (dev): 0.936
Slot F1 (dev): 0.9871
Epoch 47 done.
Train Intent loss: 25.221075350651518
Train Slot loss: 136.18616097047925
Dev Intent loss: 2540.7906188964844
Dev slot loss: 48366.23193359375
Intent accuracy (dev): 0.94
Slot F1 (dev): 0.9868
Epoch 48 done.
Train Intent loss: 42.75304124853574
Train Slot loss: 61.65186464972794
Dev Intent loss: 2129.862335205078
Dev slot loss: 47592.43115234375
Intent accuracy (dev): 0.85
Slot F1 (dev): 0.9865
Epoch 49 done.
Train Intent loss: 38.15314773726277
Train Slot loss: 60.3437104485929
Dev Intent loss: 2078.596176147461
Dev slot loss: 49040.70068359375
Intent accuracy (dev): 0.94
Slot F1 (dev): 0.9888
Epoch 50 done.
Train Intent loss: 48.583906683372334
Train Slot loss: 78.75096288509667
Dev Intent loss: 2022.4109802246094
Dev slot loss: 47262.111328125
Intent accuracy (dev): 0.952
Slot F1 (dev): 0.9885
Epoch 51 done.
Train Intent loss: 66.12994977342896
Train Slot loss: 57.206197421997786
Dev Intent loss: 1986.9111633300781
Dev slot loss: 46469.416015625
Intent accuracy (dev): 0.952
Slot F1 (dev): 0.9887
Epoch 52 done.
Train Intent loss: 35.206167192198336
Train Slot loss: 57.82403954677284
Dev Intent loss: 2255.9720153808594
Dev slot loss: 46983.30810546875
Intent accuracy (dev): 0.946
Slot F1 (dev): 0.9882
Epoch 53 done.
Train Intent loss: 31.403535123507027
Train Slot loss: 101.37038486637175
Dev Intent loss: 2443.4593200683594
Dev slot loss: 48044.9072265625
Intent accuracy (dev): 0.954
Slot F1 (dev): 0.9877
Epoch 54 done.
Train Intent loss: 57.691619619959965
Train Slot loss: 42.62246421352029
Dev Intent loss: 2271.707275390625
Dev slot loss: 47687.77490234375
Intent accuracy (dev): 0.936
Slot F1 (dev): 0.9868
Epoch 55 done.
Train Intent loss: 64.26437108917162
Train Slot loss: 46.894639876671135
Dev Intent loss: 2221.1101684570312
Dev slot loss: 48694.47119140625
Intent accuracy (dev): 0.946
Slot F1 (dev): 0.9877
Epoch 56 done.
Train Intent loss: 58.41841287759598
Train Slot loss: 68.60206756275147
Dev Intent loss: 2205.1227264404297
Dev slot loss: 49771.1328125
Intent accuracy (dev): 0.938
Slot F1 (dev): 0.9886
Epoch 57 done.
Train Intent loss: 30.37428561388515
Train Slot loss: 37.10299288202077
Dev Intent loss: 2366.4478759765625
Dev slot loss: 49160.63037109375
Intent accuracy (dev): 0.936
Slot F1 (dev): 0.9874
Epoch 58 done.
Train Intent loss: 26.288796188076958
Train Slot loss: 94.47468560934067
Dev Intent loss: 2455.8779296875
Dev slot loss: 49143.771484375
Intent accuracy (dev): 0.936
Slot F1 (dev): 0.9877
Epoch 59 done.
Train Intent loss: 31.89832385093905
Train Slot loss: 57.26356187276542
Dev Intent loss: 2458.2327575683594
Dev slot loss: 48745.28955078125
Intent accuracy (dev): 0.932
Slot F1 (dev): 0.9877
Epoch 60 done.
Train Intent loss: 46.237686866894364
Train Slot loss: 71.19819780439138
Dev Intent loss: 2457.8104400634766
Dev slot loss: 49017.05712890625
Intent accuracy (dev): 0.93
Slot F1 (dev): 0.9891
Epoch 61 done.
Train Intent loss: 37.90039158810396
Train Slot loss: 35.85020416043699
Dev Intent loss: 2518.772171020508
Dev slot loss: 50253.314453125
Intent accuracy (dev): 0.922
Slot F1 (dev): 0.9882
Epoch 62 done.
Train Intent loss: 66.92052876134403
Train Slot loss: 33.188481621444225
Dev Intent loss: 2464.483596801758
Dev slot loss: 52317.57666015625
Intent accuracy (dev): 0.94
Slot F1 (dev): 0.9889
Epoch 63 done.
Train Intent loss: 52.82622689346317
Train Slot loss: 28.453169625252485
Dev Intent loss: 2434.705810546875
Dev slot loss: 49899.8037109375
Intent accuracy (dev): 0.966
Slot F1 (dev): 0.9869
Epoch 64 done.
Train Intent loss: 28.762539486400783
Train Slot loss: 38.97865673713386
Dev Intent loss: 2448.2815856933594
Dev slot loss: 52030.951171875
Intent accuracy (dev): 0.944
Slot F1 (dev): 0.9882
Epoch 65 done.
Train Intent loss: 28.581979324342683
Train Slot loss: 46.17612677812576
Dev Intent loss: 2386.272933959961
Dev slot loss: 51560.33056640625
Intent accuracy (dev): 0.954
Slot F1 (dev): 0.9891
Epoch 66 done.
Train Intent loss: 98.64436237560585
Train Slot loss: 34.57020907383412
Dev Intent loss: 2062.393020629883
Dev slot loss: 51780.54736328125
Intent accuracy (dev): 0.954
Slot F1 (dev): 0.9883
Epoch 67 done.
Train Intent loss: 86.00907467165962
Train Slot loss: 32.80885087419301
Dev Intent loss: 2185.9762420654297
Dev slot loss: 51134.0810546875
Intent accuracy (dev): 0.942
Slot F1 (dev): 0.9888
Epoch 68 done.
Train Intent loss: 56.70320521877147
Train Slot loss: 39.006904758512974
Dev Intent loss: 2244.008575439453
Dev slot loss: 51838.27294921875
Intent accuracy (dev): 0.964
Slot F1 (dev): 0.9906
Epoch 69 done.
Train Intent loss: 90.60957702342421
Train Slot loss: 15.765367236919701
Dev Intent loss: 2033.9052734375
Dev slot loss: 51826.66748046875
Intent accuracy (dev): 0.964
Slot F1 (dev): 0.9903
Epoch 70 done.
Train Intent loss: 44.744780352921225
Train Slot loss: 51.27052224893123
Dev Intent loss: 2039.3014831542969
Dev slot loss: 51720.8154296875
Intent accuracy (dev): 0.964
Slot F1 (dev): 0.9901
Epoch 71 done.
Train Intent loss: 20.983114003320225
Train Slot loss: 46.49306746572256
Dev Intent loss: 2114.5214080810547
Dev slot loss: 52712.7890625
Intent accuracy (dev): 0.968
Slot F1 (dev): 0.9901
Epoch 72 done.
Train Intent loss: 36.75332370051183
Train Slot loss: 39.58788843173534
Dev Intent loss: 2002.6537322998047
Dev slot loss: 53305.78125
Intent accuracy (dev): 0.942
Slot F1 (dev): 0.9898
Epoch 73 done.
Train Intent loss: 7.458002388477325
Train Slot loss: 69.83861311990768
Dev Intent loss: 2271.4168243408203
Dev slot loss: 52165.2587890625
Intent accuracy (dev): 0.964
Slot F1 (dev): 0.9904
Epoch 74 done.
Train Intent loss: 1.564157803019043
Train Slot loss: 75.395711440593
Dev Intent loss: 2301.9983520507812
Dev slot loss: 52372.48046875
Intent accuracy (dev): 0.966
Slot F1 (dev): 0.9904
Epoch 75 done.
Train Intent loss: 23.123585809604265
Train Slot loss: 70.0992455240339
Dev Intent loss: 2315.124526977539
Dev slot loss: 51568.6982421875
Intent accuracy (dev): 0.964
Slot F1 (dev): 0.9889
Epoch 76 done.
Train Intent loss: 29.886422926851083
Train Slot loss: 52.22532809432596
Dev Intent loss: 2301.178939819336
Dev slot loss: 51459.7470703125
Intent accuracy (dev): 0.944
Slot F1 (dev): 0.9892
Epoch 77 done.
Train Intent loss: 8.939977643603925
Train Slot loss: 45.021609688177705
Dev Intent loss: 2318.08056640625
Dev slot loss: 52127.421875
Intent accuracy (dev): 0.952
Slot F1 (dev): 0.99
Epoch 78 done.
Train Intent loss: 126.95603482052684
Train Slot loss: 138.98436809238046
Dev Intent loss: 2204.3135986328125
Dev slot loss: 51781.00439453125
Intent accuracy (dev): 0.934
Slot F1 (dev): 0.9901
Epoch 79 done.
Train Intent loss: 62.04876328003593
Train Slot loss: 57.57829080987722
Dev Intent loss: 2202.756103515625
Dev slot loss: 50345.75927734375
Intent accuracy (dev): 0.964
Slot F1 (dev): 0.9894
Epoch 80 done.
Train Intent loss: 60.47669561766088
Train Slot loss: 54.90565168764442
Dev Intent loss: 2238.1621856689453
Dev slot loss: 53157.99853515625
Intent accuracy (dev): 0.968
Slot F1 (dev): 0.9901
Epoch 81 done.
Train Intent loss: 43.480028121965006
Train Slot loss: 28.758275748696178
Dev Intent loss: 2197.8124084472656
Dev slot loss: 52852.18798828125
Intent accuracy (dev): 0.97
Slot F1 (dev): 0.9899
Epoch 82 done.
Train Intent loss: 36.569295163382776
Train Slot loss: 28.436484719626606
Dev Intent loss: 2223.5326766967773
Dev slot loss: 53113.9814453125
Intent accuracy (dev): 0.966
Slot F1 (dev): 0.9898
Epoch 83 done.
Train Intent loss: 13.768386607873254
Train Slot loss: 68.96954780817032
Dev Intent loss: 2530.5397033691406
Dev slot loss: 52121.89892578125
Intent accuracy (dev): 0.966
Slot F1 (dev): 0.9902
Epoch 84 done.
Train Intent loss: 11.009898088348564
Train Slot loss: 39.91730824671686
Dev Intent loss: 2438.965576171875
Dev slot loss: 54909.57666015625
Intent accuracy (dev): 0.972
Slot F1 (dev): 0.9886
Epoch 85 done.
Train Intent loss: 0.9508835448941682
Train Slot loss: 40.540625266730785
Dev Intent loss: 2476.1822204589844
Dev slot loss: 55341.9326171875
Intent accuracy (dev): 0.966
Slot F1 (dev): 0.9891
Epoch 86 done.
Train Intent loss: 1.1677432410069741
Train Slot loss: 72.93220939254388
Dev Intent loss: 2474.2754974365234
Dev slot loss: 53592.51123046875
Intent accuracy (dev): 0.962
Slot F1 (dev): 0.989
Epoch 87 done.
Train Intent loss: 3.4080024604918435
Train Slot loss: 70.6824745638296
Dev Intent loss: 2590.6981353759766
Dev slot loss: 53950.1435546875
Intent accuracy (dev): 0.962
Slot F1 (dev): 0.9889
Epoch 88 done.
Train Intent loss: 15.171892884507542
Train Slot loss: 92.72490296885371
Dev Intent loss: 2531.367706298828
Dev slot loss: 54041.419921875
Intent accuracy (dev): 0.968
Slot F1 (dev): 0.9897
Epoch 89 done.
Train Intent loss: 39.67349443878629
Train Slot loss: 57.277648522518575
Dev Intent loss: 2418.2511291503906
Dev slot loss: 55938.5234375
Intent accuracy (dev): 0.956
Slot F1 (dev): 0.9895
Epoch 90 done.
Train Intent loss: 71.89525384875014
Train Slot loss: 41.1081319861114
Dev Intent loss: 2653.429473876953
Dev slot loss: 55372.29736328125
Intent accuracy (dev): 0.956
Slot F1 (dev): 0.9875
Epoch 91 done.
Train Intent loss: 15.182299711508676
Train Slot loss: 31.830952442251146
Dev Intent loss: 2549.408157348633
Dev slot loss: 55970.10009765625
Intent accuracy (dev): 0.958
Slot F1 (dev): 0.9878
Epoch 92 done.
Train Intent loss: 18.473473835445475
Train Slot loss: 21.874727920163423
Dev Intent loss: 2471.3201446533203
Dev slot loss: 55883.48583984375
Intent accuracy (dev): 0.962
Slot F1 (dev): 0.9875
Epoch 93 done.
Train Intent loss: 67.88323722826317
Train Slot loss: 33.965109437704086
Dev Intent loss: 2533.8441772460938
Dev slot loss: 56785.0048828125
Intent accuracy (dev): 0.962
Slot F1 (dev): 0.9874
Epoch 94 done.
Train Intent loss: 26.600342893856578
Train Slot loss: 77.04487934382632
Dev Intent loss: 2320.0938873291016
Dev slot loss: 57338.78369140625
Intent accuracy (dev): 0.972
Slot F1 (dev): 0.9873
Epoch 95 done.
Train Intent loss: 8.848953722103033
Train Slot loss: 58.071284485049546
Dev Intent loss: 2632.3253631591797
Dev slot loss: 56887.75927734375
Intent accuracy (dev): 0.956
Slot F1 (dev): 0.9879
Epoch 96 done.
Train Intent loss: 16.697885103785666
Train Slot loss: 44.05849109310657
Dev Intent loss: 2767.1878356933594
Dev slot loss: 56610.900390625
Intent accuracy (dev): 0.968
Slot F1 (dev): 0.9882
Epoch 97 done.
Train Intent loss: 3.499326696866774
Train Slot loss: 34.01911663264036
Dev Intent loss: 2667.972427368164
Dev slot loss: 56930.34375
Intent accuracy (dev): 0.966
Slot F1 (dev): 0.9893
Epoch 98 done.
Train Intent loss: 37.3356684538594
Train Slot loss: 36.3617160404101
Dev Intent loss: 2504.491897583008
Dev slot loss: 57622.234375
Intent accuracy (dev): 0.952
Slot F1 (dev): 0.9886
Epoch 99 done.
Train Intent loss: 18.796299768291647
Train Slot loss: 29.02471194975078
Dev Intent loss: 2605.905990600586
Dev slot loss: 56989.04931640625
Intent accuracy (dev): 0.968
Slot F1 (dev): 0.9879
Evaluating on test set...
Intent report
                     precision    recall  f1-score   support

  atis_abbreviation       0.83      0.73      0.77        33
      atis_aircraft       1.00      0.89      0.94         9
       atis_airfare       0.94      0.98      0.96        49
       atis_airline       0.88      1.00      0.94        38
       atis_airport       1.00      0.11      0.20        18
      atis_capacity       1.00      0.90      0.95        21
          atis_city       0.67      0.33      0.44         6
      atis_day_name       0.00      0.00      0.00         2
      atis_distance       0.00      0.00      0.00        10
        atis_flight       0.98      0.99      0.99       645
     atis_flight_no       0.40      0.67      0.50         9
   atis_flight_time       0.17      1.00      0.29         1
   atis_ground_fare       1.00      0.86      0.92         7
atis_ground_service       1.00      1.00      1.00        36
          atis_meal       0.75      0.50      0.60         6
      atis_quantity       0.23      1.00      0.38         3
   atis_restriction       0.00      0.00      0.00         0

           accuracy                           0.94       893
          macro avg       0.64      0.64      0.58       893
       weighted avg       0.95      0.94      0.93       893

Slot filling:
                              precision    recall  f1-score   support

             B-aircraft_code       0.92      0.70      0.79        33
              B-airline_code       0.91      0.88      0.90        34
              B-airline_name       0.98      0.99      0.99       101
              B-airport_code       1.00      0.56      0.71         9
              B-airport_name       0.89      0.38      0.53        21
 B-arrive_date.date_relative       1.00      1.00      1.00         2
      B-arrive_date.day_name       0.73      1.00      0.85        11
    B-arrive_date.day_number       0.71      0.83      0.77         6
    B-arrive_date.month_name       0.71      0.83      0.77         6
      B-arrive_time.end_time       1.00      0.75      0.86         8
 B-arrive_time.period_of_day       0.86      1.00      0.92         6
    B-arrive_time.start_time       1.00      1.00      1.00         8
          B-arrive_time.time       0.92      0.97      0.94        34
 B-arrive_time.time_relative       0.97      0.94      0.95        31
             B-booking_class       0.00      0.00      0.00         1
                 B-city_name       0.94      0.58      0.72        57
                B-class_type       0.96      1.00      0.98        24
               B-compartment       0.00      0.00      0.00         1
                   B-connect       1.00      1.00      1.00         6
             B-cost_relative       1.00      0.97      0.99        37
                  B-day_name       1.00      0.50      0.67         2
                 B-days_code       0.00      0.00      0.00         1
 B-depart_date.date_relative       0.89      1.00      0.94        17
      B-depart_date.day_name       1.00      0.99      0.99       212
    B-depart_date.day_number       0.98      0.96      0.97        55
    B-depart_date.month_name       0.98      0.96      0.97        56
B-depart_date.today_relative       1.00      0.89      0.94         9
          B-depart_date.year       1.00      0.33      0.50         3
      B-depart_time.end_time       0.75      1.00      0.86         3
    B-depart_time.period_mod       0.71      1.00      0.83         5
 B-depart_time.period_of_day       1.00      0.91      0.95       130
    B-depart_time.start_time       1.00      1.00      1.00         3
          B-depart_time.time       0.86      1.00      0.93        57
 B-depart_time.time_relative       0.97      0.97      0.97        65
                   B-economy       1.00      1.00      1.00         6
               B-fare_amount       1.00      1.00      1.00         2
           B-fare_basis_code       0.94      1.00      0.97        17
                    B-flight       0.00      0.00      0.00         1
               B-flight_days       1.00      1.00      1.00        10
                B-flight_mod       1.00      1.00      1.00        24
             B-flight_number       0.69      1.00      0.81        11
               B-flight_stop       0.95      1.00      0.98        21
               B-flight_time       0.33      1.00      0.50         1
      B-fromloc.airport_code       0.71      1.00      0.83         5
      B-fromloc.airport_name       0.48      1.00      0.65        12
         B-fromloc.city_name       0.99      1.00      0.99       704
        B-fromloc.state_code       1.00      1.00      1.00        23
        B-fromloc.state_name       1.00      1.00      1.00        17
                      B-meal       0.89      1.00      0.94        16
                 B-meal_code       0.00      0.00      0.00         1
          B-meal_description       1.00      0.80      0.89        10
                       B-mod       0.25      0.50      0.33         2
                        B-or       0.43      1.00      0.60         3
             B-period_of_day       1.00      0.75      0.86         4
          B-restriction_code       1.00      1.00      1.00         4
 B-return_date.date_relative       0.67      0.67      0.67         3
      B-return_date.day_name       0.00      0.00      0.00         2
                B-round_trip       0.99      0.99      0.99        73
                B-state_code       0.50      1.00      0.67         1
                B-state_name       0.00      0.00      0.00         9
      B-stoploc.airport_code       0.00      0.00      0.00         1
         B-stoploc.city_name       0.87      1.00      0.93        20
        B-toloc.airport_code       1.00      0.50      0.67         4
        B-toloc.airport_name       0.60      1.00      0.75         3
           B-toloc.city_name       0.97      1.00      0.98       716
        B-toloc.country_name       1.00      1.00      1.00         1
          B-toloc.state_code       1.00      1.00      1.00        18
          B-toloc.state_name       0.81      0.93      0.87        28
            B-transport_type       1.00      1.00      1.00        10
              I-airline_name       0.98      0.98      0.98        65
              I-airport_name       1.00      0.38      0.55        29
    I-arrive_date.day_number       0.00      0.00      0.00         0
      I-arrive_time.end_time       1.00      0.75      0.86         8
    I-arrive_time.start_time       1.00      1.00      1.00         1
          I-arrive_time.time       0.97      0.97      0.97        35
 I-arrive_time.time_relative       1.00      1.00      1.00         4
                 I-city_name       0.95      0.60      0.73        30
                I-class_type       1.00      1.00      1.00        17
             I-cost_relative       1.00      0.67      0.80         3
    I-depart_date.day_number       1.00      0.93      0.97        15
I-depart_date.today_relative       0.00      0.00      0.00         0
      I-depart_time.end_time       0.75      1.00      0.86         3
 I-depart_time.period_of_day       1.00      1.00      1.00         1
    I-depart_time.start_time       1.00      1.00      1.00         1
          I-depart_time.time       0.96      1.00      0.98        52
 I-depart_time.time_relative       0.00      0.00      0.00         1
               I-fare_amount       1.00      1.00      1.00         2
                I-flight_mod       1.00      0.17      0.29         6
             I-flight_number       0.00      0.00      0.00         1
               I-flight_time       1.00      1.00      1.00         1
      I-fromloc.airport_name       0.44      1.00      0.61        15
         I-fromloc.city_name       0.97      1.00      0.99       177
        I-fromloc.state_name       1.00      1.00      1.00         1
                 I-meal_code       0.00      0.00      0.00         0
          I-restriction_code       1.00      0.67      0.80         3
 I-return_date.date_relative       1.00      0.67      0.80         3
                I-round_trip       0.99      1.00      0.99        71
                I-state_name       0.00      0.00      0.00         1
         I-stoploc.city_name       1.00      1.00      1.00        10
        I-toloc.airport_name       0.50      1.00      0.67         3
           I-toloc.city_name       0.98      1.00      0.99       265
          I-toloc.state_name       1.00      1.00      1.00         1
            I-transport_type       0.00      0.00      0.00         1
                           O       1.00      1.00      1.00      5501

                    accuracy                           0.98      9164
                   macro avg       0.77      0.77      0.75      9164
                weighted avg       0.98      0.98      0.98      9164

Intent accuracy (test): 0.9351
Slot F1 (test): 0.978
