Logging to ./experiments/exp2/2enc.1dec.0.4dropout.300epochs.log
Chosen device not a CPU! Setting CUDA tensors as default...
Epoch 0 done.
Train Intent loss: 5444.407482147217
Train Slot loss: 80053.56616210938
Dev Intent loss: 613.3243293762207
Dev slot loss: 13598.3623046875
Intent accuracy (dev): 0.718
Slot F1 (dev): 0.7557
Epoch 1 done.
Train Intent loss: 4467.0722007751465
Train Slot loss: 28314.694946289062
Dev Intent loss: 538.9613304138184
Dev slot loss: 17544.605834960938
Intent accuracy (dev): 0.718
Slot F1 (dev): 0.8955
Epoch 2 done.
Train Intent loss: 3004.4041290283203
Train Slot loss: 14050.856437683105
Dev Intent loss: 699.1442108154297
Dev slot loss: 19728.866943359375
Intent accuracy (dev): 0.81
Slot F1 (dev): 0.9344
Epoch 3 done.
Train Intent loss: 2335.8677225112915
Train Slot loss: 7925.649711608887
Dev Intent loss: 782.7622528076172
Dev slot loss: 21832.802734375
Intent accuracy (dev): 0.798
Slot F1 (dev): 0.9572
Epoch 4 done.
Train Intent loss: 1838.977490901947
Train Slot loss: 4582.264278411865
Dev Intent loss: 1042.9833221435547
Dev slot loss: 23089.42529296875
Intent accuracy (dev): 0.808
Slot F1 (dev): 0.9752
Epoch 5 done.
Train Intent loss: 1551.80228805542
Train Slot loss: 2797.5398054122925
Dev Intent loss: 1044.4993362426758
Dev slot loss: 24150.164794921875
Intent accuracy (dev): 0.828
Slot F1 (dev): 0.9766
Epoch 6 done.
Train Intent loss: 1241.8094804286957
Train Slot loss: 1815.9304685592651
Dev Intent loss: 1009.45703125
Dev slot loss: 25320.618408203125
Intent accuracy (dev): 0.864
Slot F1 (dev): 0.9818
Epoch 7 done.
Train Intent loss: 1098.1761231422424
Train Slot loss: 1161.3939299583435
Dev Intent loss: 1170.5213775634766
Dev slot loss: 25916.88916015625
Intent accuracy (dev): 0.882
Slot F1 (dev): 0.9839
Epoch 8 done.
Train Intent loss: 921.0795834064484
Train Slot loss: 901.6575212478638
Dev Intent loss: 1304.8875885009766
Dev slot loss: 26467.587158203125
Intent accuracy (dev): 0.89
Slot F1 (dev): 0.9846
Epoch 9 done.
Train Intent loss: 794.4291181564331
Train Slot loss: 701.1241090297699
Dev Intent loss: 1361.3710403442383
Dev slot loss: 27798.40966796875
Intent accuracy (dev): 0.836
Slot F1 (dev): 0.9857
Epoch 10 done.
Train Intent loss: 760.1093664169312
Train Slot loss: 481.6181948184967
Dev Intent loss: 1524.3271484375
Dev slot loss: 28980.841552734375
Intent accuracy (dev): 0.884
Slot F1 (dev): 0.9857
Epoch 11 done.
Train Intent loss: 627.5654039382935
Train Slot loss: 418.04054832458496
Dev Intent loss: 1450.9944763183594
Dev slot loss: 29279.407470703125
Intent accuracy (dev): 0.88
Slot F1 (dev): 0.9862
Epoch 12 done.
Train Intent loss: 591.12099224329
Train Slot loss: 338.565428853035
Dev Intent loss: 1719.7456817626953
Dev slot loss: 30545.558349609375
Intent accuracy (dev): 0.894
Slot F1 (dev): 0.9855
Epoch 13 done.
Train Intent loss: 528.3119671344757
Train Slot loss: 274.5027858018875
Dev Intent loss: 1529.345947265625
Dev slot loss: 31213.7802734375
Intent accuracy (dev): 0.89
Slot F1 (dev): 0.9882
Epoch 14 done.
Train Intent loss: 345.8606559932232
Train Slot loss: 222.61250126361847
Dev Intent loss: 1649.7069091796875
Dev slot loss: 31663.14599609375
Intent accuracy (dev): 0.904
Slot F1 (dev): 0.9883
Epoch 15 done.
Train Intent loss: 250.8242754638195
Train Slot loss: 178.06575924158096
Dev Intent loss: 1569.0364074707031
Dev slot loss: 32447.830322265625
Intent accuracy (dev): 0.906
Slot F1 (dev): 0.9885
Epoch 16 done.
Train Intent loss: 242.455769687891
Train Slot loss: 164.97753083705902
Dev Intent loss: 1740.5404205322266
Dev slot loss: 32474.06982421875
Intent accuracy (dev): 0.914
Slot F1 (dev): 0.9852
Epoch 17 done.
Train Intent loss: 196.75034058839083
Train Slot loss: 139.4075340628624
Dev Intent loss: 1600.9230117797852
Dev slot loss: 33527.745361328125
Intent accuracy (dev): 0.942
Slot F1 (dev): 0.9877
Epoch 18 done.
Train Intent loss: 188.58925414830446
Train Slot loss: 111.69382220506668
Dev Intent loss: 1677.4383850097656
Dev slot loss: 34512.14404296875
Intent accuracy (dev): 0.924
Slot F1 (dev): 0.9878
Epoch 19 done.
Train Intent loss: 164.86317043751478
Train Slot loss: 173.45682287216187
Dev Intent loss: 1786.1204528808594
Dev slot loss: 34078.093994140625
Intent accuracy (dev): 0.952
Slot F1 (dev): 0.9868
Epoch 20 done.
Train Intent loss: 125.34331217780709
Train Slot loss: 160.54535168409348
Dev Intent loss: 1545.1194458007812
Dev slot loss: 35016.93310546875
Intent accuracy (dev): 0.952
Slot F1 (dev): 0.9866
Epoch 21 done.
Train Intent loss: 91.15687213093042
Train Slot loss: 142.8544060587883
Dev Intent loss: 1786.4600372314453
Dev slot loss: 36035.910888671875
Intent accuracy (dev): 0.95
Slot F1 (dev): 0.9868
Epoch 22 done.
Train Intent loss: 109.74445737339556
Train Slot loss: 113.5485670864582
Dev Intent loss: 1672.119888305664
Dev slot loss: 36895.9541015625
Intent accuracy (dev): 0.946
Slot F1 (dev): 0.9871
Epoch 23 done.
Train Intent loss: 99.61317107640207
Train Slot loss: 184.91616408526897
Dev Intent loss: 1750.328857421875
Dev slot loss: 35283.8486328125
Intent accuracy (dev): 0.96
Slot F1 (dev): 0.9863
Epoch 24 done.
Train Intent loss: 51.00772259756923
Train Slot loss: 166.0998915284872
Dev Intent loss: 1718.5100936889648
Dev slot loss: 36613.170166015625
Intent accuracy (dev): 0.942
Slot F1 (dev): 0.9858
Epoch 25 done.
Train Intent loss: 52.95433708187193
Train Slot loss: 159.885054692626
Dev Intent loss: 1847.3102111816406
Dev slot loss: 36884.99560546875
Intent accuracy (dev): 0.958
Slot F1 (dev): 0.9869
Epoch 26 done.
Train Intent loss: 38.71242503449321
Train Slot loss: 115.57547947764397
Dev Intent loss: 1971.8554382324219
Dev slot loss: 37339.54541015625
Intent accuracy (dev): 0.966
Slot F1 (dev): 0.988
Epoch 27 done.
Train Intent loss: 42.24657422211021
Train Slot loss: 79.24901953339577
Dev Intent loss: 2007.5351867675781
Dev slot loss: 38308.48681640625
Intent accuracy (dev): 0.96
Slot F1 (dev): 0.9879
Epoch 28 done.
Train Intent loss: 75.9778532651253
Train Slot loss: 96.82238499075174
Dev Intent loss: 1890.632583618164
Dev slot loss: 39200.609375
Intent accuracy (dev): 0.964
Slot F1 (dev): 0.9891
Epoch 29 done.
Train Intent loss: 86.87089915852994
Train Slot loss: 103.83112543076277
Dev Intent loss: 1996.7567901611328
Dev slot loss: 38685.306640625
Intent accuracy (dev): 0.952
Slot F1 (dev): 0.9892
Epoch 30 done.
Train Intent loss: 43.911545464769006
Train Slot loss: 74.00119842588902
Dev Intent loss: 2094.241973876953
Dev slot loss: 39529.41650390625
Intent accuracy (dev): 0.958
Slot F1 (dev): 0.9902
Epoch 31 done.
Train Intent loss: 67.94960130774416
Train Slot loss: 107.9211206883192
Dev Intent loss: 2038.109390258789
Dev slot loss: 40346.38232421875
Intent accuracy (dev): 0.952
Slot F1 (dev): 0.9879
Epoch 32 done.
Train Intent loss: 33.482003257609904
Train Slot loss: 143.81660301238298
Dev Intent loss: 2203.4566040039062
Dev slot loss: 40427.60595703125
Intent accuracy (dev): 0.956
Slot F1 (dev): 0.9877
Epoch 33 done.
Train Intent loss: 33.975335055496544
Train Slot loss: 130.2463804334402
Dev Intent loss: 2185.238250732422
Dev slot loss: 39631.229736328125
Intent accuracy (dev): 0.96
Slot F1 (dev): 0.9883
Epoch 34 done.
Train Intent loss: 42.986393169499934
Train Slot loss: 137.55851813405752
Dev Intent loss: 2179.7824096679688
Dev slot loss: 41374.22705078125
Intent accuracy (dev): 0.958
Slot F1 (dev): 0.9879
Epoch 35 done.
Train Intent loss: 25.34806479141116
Train Slot loss: 65.49982234463096
Dev Intent loss: 2122.434356689453
Dev slot loss: 41131.334716796875
Intent accuracy (dev): 0.96
Slot F1 (dev): 0.9882
Epoch 36 done.
Train Intent loss: 30.9246760411188
Train Slot loss: 109.04733821749687
Dev Intent loss: 2088.6480712890625
Dev slot loss: 42450.772705078125
Intent accuracy (dev): 0.946
Slot F1 (dev): 0.9899
Epoch 37 done.
Train Intent loss: 110.92521800554823
Train Slot loss: 50.40499972179532
Dev Intent loss: 2062.3687896728516
Dev slot loss: 43265.885009765625
Intent accuracy (dev): 0.946
Slot F1 (dev): 0.9887
Epoch 38 done.
Train Intent loss: 96.70233340607956
Train Slot loss: 81.23429973609746
Dev Intent loss: 1917.5933990478516
Dev slot loss: 43098.49755859375
Intent accuracy (dev): 0.958
Slot F1 (dev): 0.9887
Epoch 39 done.
Train Intent loss: 124.35993634536862
Train Slot loss: 31.9794725459069
Dev Intent loss: 2028.3208618164062
Dev slot loss: 44166.9052734375
Intent accuracy (dev): 0.968
Slot F1 (dev): 0.9899
Epoch 40 done.
Train Intent loss: 67.40880599431694
Train Slot loss: 50.67538879439235
Dev Intent loss: 2138.9584350585938
Dev slot loss: 43886.41943359375
Intent accuracy (dev): 0.954
Slot F1 (dev): 0.99
Epoch 41 done.
Train Intent loss: 90.38717460422777
Train Slot loss: 37.94502627849579
Dev Intent loss: 1975.2379302978516
Dev slot loss: 43720.11865234375
Intent accuracy (dev): 0.96
Slot F1 (dev): 0.9897
Epoch 42 done.
Train Intent loss: 67.51458665309474
Train Slot loss: 37.04021950252354
Dev Intent loss: 2050.4475708007812
Dev slot loss: 44196.607421875
Intent accuracy (dev): 0.964
Slot F1 (dev): 0.9896
Epoch 43 done.
Train Intent loss: 99.89752202201635
Train Slot loss: 73.87994821742177
Dev Intent loss: 1924.3743743896484
Dev slot loss: 43582.00146484375
Intent accuracy (dev): 0.96
Slot F1 (dev): 0.99
Epoch 44 done.
Train Intent loss: 34.63471685675904
Train Slot loss: 51.88264048844576
Dev Intent loss: 2086.186569213867
Dev slot loss: 44765.4658203125
Intent accuracy (dev): 0.962
Slot F1 (dev): 0.989
Epoch 45 done.
Train Intent loss: 36.61687189806253
Train Slot loss: 65.12880794331431
Dev Intent loss: 2163.9385681152344
Dev slot loss: 44943.0517578125
Intent accuracy (dev): 0.964
Slot F1 (dev): 0.988
Epoch 46 done.
Train Intent loss: 30.525981228332967
Train Slot loss: 101.44041478261352
Dev Intent loss: 2114.831512451172
Dev slot loss: 45020.02783203125
Intent accuracy (dev): 0.966
Slot F1 (dev): 0.9888
Epoch 47 done.
Train Intent loss: 12.468797689303756
Train Slot loss: 110.37374361790717
Dev Intent loss: 2174.482681274414
Dev slot loss: 45752.66650390625
Intent accuracy (dev): 0.97
Slot F1 (dev): 0.9886
Epoch 48 done.
Train Intent loss: 12.70504261367023
Train Slot loss: 131.48580845072865
Dev Intent loss: 2159.317855834961
Dev slot loss: 45638.939453125
Intent accuracy (dev): 0.968
Slot F1 (dev): 0.9886
Epoch 49 done.
Train Intent loss: 12.951655504934024
Train Slot loss: 157.4461218584329
Dev Intent loss: 2267.325164794922
Dev slot loss: 45470.68505859375
Intent accuracy (dev): 0.968
Slot F1 (dev): 0.9888
Epoch 50 done.
Train Intent loss: 2.427560841490049
Train Slot loss: 97.03153275884688
Dev Intent loss: 2303.713150024414
Dev slot loss: 46005.86865234375
Intent accuracy (dev): 0.96
Slot F1 (dev): 0.9887
Epoch 51 done.
Train Intent loss: 8.32195876291371
Train Slot loss: 93.71680921316147
Dev Intent loss: 2479.3328247070312
Dev slot loss: 45478.14453125
Intent accuracy (dev): 0.962
Slot F1 (dev): 0.989
Epoch 52 done.
Train Intent loss: 0.6874835614580661
Train Slot loss: 69.60600113496184
Dev Intent loss: 2535.493606567383
Dev slot loss: 45108.5634765625
Intent accuracy (dev): 0.964
Slot F1 (dev): 0.9881
Epoch 53 done.
Train Intent loss: 4.633730522007681
Train Slot loss: 83.3442536778748
Dev Intent loss: 2407.721435546875
Dev slot loss: 45411.08740234375
Intent accuracy (dev): 0.96
Slot F1 (dev): 0.9878
Epoch 54 done.
Train Intent loss: 8.388067318184767
Train Slot loss: 97.21079622581601
Dev Intent loss: 2412.195358276367
Dev slot loss: 45249.0107421875
Intent accuracy (dev): 0.968
Slot F1 (dev): 0.9889
Epoch 55 done.
Train Intent loss: 26.507904927711934
Train Slot loss: 67.15739727765322
Dev Intent loss: 2452.3604431152344
Dev slot loss: 44818.1220703125
Intent accuracy (dev): 0.96
Slot F1 (dev): 0.9897
Epoch 56 done.
Train Intent loss: 35.248175994318444
Train Slot loss: 95.07870707660913
Dev Intent loss: 2368.751937866211
Dev slot loss: 45570.75927734375
Intent accuracy (dev): 0.952
Slot F1 (dev): 0.9894
Epoch 57 done.
Train Intent loss: 81.19264713837765
Train Slot loss: 41.39322538673878
Dev Intent loss: 1998.7398681640625
Dev slot loss: 48301.36376953125
Intent accuracy (dev): 0.962
Slot F1 (dev): 0.99
Epoch 58 done.
Train Intent loss: 26.06873151892796
Train Slot loss: 52.81151330843568
Dev Intent loss: 2350.540267944336
Dev slot loss: 47001.23681640625
Intent accuracy (dev): 0.956
Slot F1 (dev): 0.9916
Epoch 59 done.
Train Intent loss: 76.4012310084654
Train Slot loss: 55.73323277942836
Dev Intent loss: 2282.6183471679688
Dev slot loss: 48210.99853515625
Intent accuracy (dev): 0.972
Slot F1 (dev): 0.99
Epoch 60 done.
Train Intent loss: 83.41579500446096
Train Slot loss: 44.34135467465967
Dev Intent loss: 2034.1078338623047
Dev slot loss: 48915.59326171875
Intent accuracy (dev): 0.97
Slot F1 (dev): 0.9896
Epoch 61 done.
Train Intent loss: 16.12103965948336
Train Slot loss: 49.87183054443449
Dev Intent loss: 2234.221420288086
Dev slot loss: 49221.75927734375
Intent accuracy (dev): 0.97
Slot F1 (dev): 0.9888
Epoch 62 done.
Train Intent loss: 33.130973506718874
Train Slot loss: 92.65718861855567
Dev Intent loss: 2198.8731689453125
Dev slot loss: 50055.1025390625
Intent accuracy (dev): 0.958
Slot F1 (dev): 0.9899
Epoch 63 done.
Train Intent loss: 27.71474022907205
Train Slot loss: 58.46442046109587
Dev Intent loss: 2236.639694213867
Dev slot loss: 48812.54248046875
Intent accuracy (dev): 0.97
Slot F1 (dev): 0.9891
Epoch 64 done.
Train Intent loss: 32.29350382182747
Train Slot loss: 56.42220660485327
Dev Intent loss: 2106.5066528320312
Dev slot loss: 49374.8671875
Intent accuracy (dev): 0.964
Slot F1 (dev): 0.9898
Epoch 65 done.
Train Intent loss: 16.04240697377827
Train Slot loss: 42.9519351311028
Dev Intent loss: 2186.4278411865234
Dev slot loss: 48979.41943359375
Intent accuracy (dev): 0.972
Slot F1 (dev): 0.9887
Epoch 66 done.
Train Intent loss: 0.8284081522724591
Train Slot loss: 97.53089821711183
Dev Intent loss: 2352.8596954345703
Dev slot loss: 49733.91015625
Intent accuracy (dev): 0.968
Slot F1 (dev): 0.9883
Epoch 67 done.
Train Intent loss: 27.354068218788598
Train Slot loss: 85.21807824634016
Dev Intent loss: 2175.0313873291016
Dev slot loss: 48872.765625
Intent accuracy (dev): 0.974
Slot F1 (dev): 0.9894
Epoch 68 done.
Train Intent loss: 153.4759414891596
Train Slot loss: 51.41096951253712
Dev Intent loss: 2172.3523864746094
Dev slot loss: 49553.87255859375
Intent accuracy (dev): 0.972
Slot F1 (dev): 0.9892
Epoch 69 done.
Train Intent loss: 112.19290424877545
Train Slot loss: 15.054894327186048
Dev Intent loss: 1912.4175872802734
Dev slot loss: 50092.88330078125
Intent accuracy (dev): 0.966
Slot F1 (dev): 0.9891
Epoch 70 done.
Train Intent loss: 80.79852218634915
Train Slot loss: 42.230897025205195
Dev Intent loss: 2171.4749908447266
Dev slot loss: 50803.62939453125
Intent accuracy (dev): 0.964
Slot F1 (dev): 0.9892
Epoch 71 done.
Train Intent loss: 42.58213726361282
Train Slot loss: 35.194425011985004
Dev Intent loss: 2402.2982482910156
Dev slot loss: 50000.298828125
Intent accuracy (dev): 0.964
Slot F1 (dev): 0.9893
Epoch 72 done.
Train Intent loss: 23.891743521671742
Train Slot loss: 55.237090116366744
Dev Intent loss: 2111.133102416992
Dev slot loss: 50488.73046875
Intent accuracy (dev): 0.968
Slot F1 (dev): 0.9891
Epoch 73 done.
Train Intent loss: 38.46158324275166
Train Slot loss: 30.080973961390555
Dev Intent loss: 2064.941162109375
Dev slot loss: 50711.90869140625
Intent accuracy (dev): 0.966
Slot F1 (dev): 0.9894
Epoch 74 done.
Train Intent loss: 55.14867059816606
Train Slot loss: 53.419971600174904
Dev Intent loss: 2115.9239196777344
Dev slot loss: 50127.7607421875
Intent accuracy (dev): 0.966
Slot F1 (dev): 0.9884
Epoch 75 done.
Train Intent loss: 3.661297370796092
Train Slot loss: 46.194117152132094
Dev Intent loss: 2202.663055419922
Dev slot loss: 52265.84033203125
Intent accuracy (dev): 0.972
Slot F1 (dev): 0.9895
Epoch 76 done.
Train Intent loss: 31.074921516526956
Train Slot loss: 37.78795390948653
Dev Intent loss: 2224.7061767578125
Dev slot loss: 51413.4619140625
Intent accuracy (dev): 0.968
Slot F1 (dev): 0.9898
Epoch 77 done.
Train Intent loss: 16.458379413583316
Train Slot loss: 50.96906097698957
Dev Intent loss: 2280.4325408935547
Dev slot loss: 53369.919921875
Intent accuracy (dev): 0.976
Slot F1 (dev): 0.9885
Epoch 78 done.
Train Intent loss: 26.951280360575765
Train Slot loss: 69.84808643441647
Dev Intent loss: 2094.959259033203
Dev slot loss: 52141.41845703125
Intent accuracy (dev): 0.972
Slot F1 (dev): 0.99
Epoch 79 done.
Train Intent loss: 17.450938662455883
Train Slot loss: 65.01339298672974
Dev Intent loss: 2176.3165435791016
Dev slot loss: 52328.57763671875
Intent accuracy (dev): 0.976
Slot F1 (dev): 0.9896
Epoch 80 done.
Train Intent loss: 17.407219115411863
Train Slot loss: 56.902478624135256
Dev Intent loss: 2035.467758178711
Dev slot loss: 52732.037109375
Intent accuracy (dev): 0.97
Slot F1 (dev): 0.9896
Epoch 81 done.
Train Intent loss: 3.925148189882748
Train Slot loss: 24.465422575362027
Dev Intent loss: 2177.9523162841797
Dev slot loss: 52937.71826171875
Intent accuracy (dev): 0.974
Slot F1 (dev): 0.9887
Epoch 82 done.
Train Intent loss: 11.841797238157596
Train Slot loss: 37.42268678639084
Dev Intent loss: 2134.100555419922
Dev slot loss: 53090.455078125
Intent accuracy (dev): 0.974
Slot F1 (dev): 0.9882
Epoch 83 done.
Train Intent loss: 20.996242666151375
Train Slot loss: 23.60590627649799
Dev Intent loss: 2013.1679077148438
Dev slot loss: 55667.96240234375
Intent accuracy (dev): 0.972
Slot F1 (dev): 0.9898
Epoch 84 done.
Train Intent loss: 65.77165985835018
Train Slot loss: 71.73574124183506
Dev Intent loss: 2152.9779510498047
Dev slot loss: 55046.84521484375
Intent accuracy (dev): 0.972
Slot F1 (dev): 0.9899
Epoch 85 done.
Train Intent loss: 24.111963516043033
Train Slot loss: 57.43000844027847
Dev Intent loss: 2236.8004150390625
Dev slot loss: 54295.45947265625
Intent accuracy (dev): 0.98
Slot F1 (dev): 0.9888
Epoch 86 done.
Train Intent loss: 24.28569063101895
Train Slot loss: 57.692176225595176
Dev Intent loss: 2204.719451904297
Dev slot loss: 54181.84716796875
Intent accuracy (dev): 0.976
Slot F1 (dev): 0.9904
Epoch 87 done.
Train Intent loss: 24.299734623840777
Train Slot loss: 64.49820550065488
Dev Intent loss: 2292.664764404297
Dev slot loss: 54289.95654296875
Intent accuracy (dev): 0.978
Slot F1 (dev): 0.9891
Epoch 88 done.
Train Intent loss: 4.608382558042649
Train Slot loss: 112.66551895067096
Dev Intent loss: 2407.2742919921875
Dev slot loss: 55475.8935546875
Intent accuracy (dev): 0.97
Slot F1 (dev): 0.9885
Epoch 89 done.
Train Intent loss: 0.437583711638581
Train Slot loss: 56.67860976047814
Dev Intent loss: 2348.4693145751953
Dev slot loss: 54710.31982421875
Intent accuracy (dev): 0.97
Slot F1 (dev): 0.9896
Epoch 90 done.
Train Intent loss: 5.522860194789246
Train Slot loss: 28.607951724901795
Dev Intent loss: 2452.294219970703
Dev slot loss: 54003.15771484375
Intent accuracy (dev): 0.972
Slot F1 (dev): 0.9892
Epoch 91 done.
Train Intent loss: 30.807243990857387
Train Slot loss: 35.48301422409713
Dev Intent loss: 2428.010299682617
Dev slot loss: 54420.19384765625
Intent accuracy (dev): 0.968
Slot F1 (dev): 0.9893
Epoch 92 done.
Train Intent loss: 34.63533671802725
Train Slot loss: 75.58810387272388
Dev Intent loss: 2185.3576049804688
Dev slot loss: 54801.85400390625
Intent accuracy (dev): 0.97
Slot F1 (dev): 0.9898
Epoch 93 done.
Train Intent loss: 39.815371927586966
Train Slot loss: 44.77054955530912
Dev Intent loss: 2259.094467163086
Dev slot loss: 54712.5146484375
Intent accuracy (dev): 0.97
Slot F1 (dev): 0.9887
Epoch 94 done.
Train Intent loss: 35.934568766882876
Train Slot loss: 17.941248819464818
Dev Intent loss: 2532.926315307617
Dev slot loss: 55191.4560546875
Intent accuracy (dev): 0.968
Slot F1 (dev): 0.9887
Epoch 95 done.
Train Intent loss: 58.142839453939814
Train Slot loss: 34.05268428521231
Dev Intent loss: 2544.6114959716797
Dev slot loss: 54130.421875
Intent accuracy (dev): 0.968
Slot F1 (dev): 0.9888
Epoch 96 done.
Train Intent loss: 30.977566905829008
Train Slot loss: 27.056367825716734
Dev Intent loss: 2600.926986694336
Dev slot loss: 55244.38818359375
Intent accuracy (dev): 0.972
Slot F1 (dev): 0.9887
Epoch 97 done.
Train Intent loss: 66.85924484711722
Train Slot loss: 33.958562781102955
Dev Intent loss: 2563.4951782226562
Dev slot loss: 54393.87744140625
Intent accuracy (dev): 0.972
Slot F1 (dev): 0.9891
Epoch 98 done.
Train Intent loss: 28.477851346862735
Train Slot loss: 25.32214998314157
Dev Intent loss: 2484.1464233398438
Dev slot loss: 53687.0166015625
Intent accuracy (dev): 0.974
Slot F1 (dev): 0.9866
Epoch 99 done.
Train Intent loss: 17.4646566031588
Train Slot loss: 44.365455739200115
Dev Intent loss: 2514.084014892578
Dev slot loss: 54899.39111328125
Intent accuracy (dev): 0.976
Slot F1 (dev): 0.9877
Epoch 100 done.
Train Intent loss: 2.3813333490106743
Train Slot loss: 56.85428598290309
Dev Intent loss: 2630.026809692383
Dev slot loss: 56296.83203125
Intent accuracy (dev): 0.968
Slot F1 (dev): 0.9882
Epoch 101 done.
Train Intent loss: 1.825329217936087
Train Slot loss: 48.04247812228277
Dev Intent loss: 2766.8485107421875
Dev slot loss: 55400.4482421875
Intent accuracy (dev): 0.974
Slot F1 (dev): 0.9891
Epoch 102 done.
Train Intent loss: 48.18084520820412
Train Slot loss: 38.01323016220704
Dev Intent loss: 2788.8809661865234
Dev slot loss: 56989.63671875
Intent accuracy (dev): 0.966
Slot F1 (dev): 0.9884
Epoch 103 done.
Train Intent loss: 31.579030937165953
Train Slot loss: 44.20063096564263
Dev Intent loss: 2474.4732055664062
Dev slot loss: 56092.18994140625
Intent accuracy (dev): 0.97
Slot F1 (dev): 0.9875
Epoch 104 done.
Train Intent loss: 60.70948869335916
Train Slot loss: 28.196824780199677
Dev Intent loss: 2657.6151275634766
Dev slot loss: 56197.89697265625
Intent accuracy (dev): 0.976
Slot F1 (dev): 0.9882
Epoch 105 done.
Train Intent loss: 24.64146967700799
Train Slot loss: 41.25327461655252
Dev Intent loss: 2549.2308349609375
Dev slot loss: 56450.7158203125
Intent accuracy (dev): 0.978
Slot F1 (dev): 0.9888
Epoch 106 done.
Train Intent loss: 23.106892383511877
Train Slot loss: 98.92766323499382
Dev Intent loss: 2474.5408782958984
Dev slot loss: 56643.08349609375
Intent accuracy (dev): 0.974
Slot F1 (dev): 0.989
Epoch 107 done.
Train Intent loss: 85.39318502675451
Train Slot loss: 64.89409041777253
Dev Intent loss: 2204.6788330078125
Dev slot loss: 57123.5419921875
Intent accuracy (dev): 0.974
Slot F1 (dev): 0.9898
Epoch 108 done.
Train Intent loss: 25.48340450663818
Train Slot loss: 54.68266035337001
Dev Intent loss: 2323.239776611328
Dev slot loss: 57351.3740234375
Intent accuracy (dev): 0.972
Slot F1 (dev): 0.989
Epoch 109 done.
Train Intent loss: 3.839365805295529
Train Slot loss: 78.47009660024196
Dev Intent loss: 2367.914825439453
Dev slot loss: 57498.93212890625
Intent accuracy (dev): 0.966
Slot F1 (dev): 0.9894
Epoch 110 done.
Train Intent loss: 24.5848758254142
Train Slot loss: 49.50441738078371
Dev Intent loss: 2278.963409423828
Dev slot loss: 57784.951171875
Intent accuracy (dev): 0.962
Slot F1 (dev): 0.9888
Epoch 111 done.
Train Intent loss: 16.15864318376407
Train Slot loss: 30.35843535559252
Dev Intent loss: 2243.144256591797
Dev slot loss: 58901.9296875
Intent accuracy (dev): 0.964
Slot F1 (dev): 0.9893
Epoch 112 done.
Train Intent loss: 5.29757343759411
Train Slot loss: 41.81093749124557
Dev Intent loss: 2559.787551879883
Dev slot loss: 59888.41552734375
Intent accuracy (dev): 0.968
Slot F1 (dev): 0.9872
Epoch 113 done.
Train Intent loss: 31.79138613793475
Train Slot loss: 50.0866645348724
Dev Intent loss: 2296.1692810058594
Dev slot loss: 58647.412109375
Intent accuracy (dev): 0.966
Slot F1 (dev): 0.9884
Epoch 114 done.
Train Intent loss: 17.185067650134442
Train Slot loss: 34.56992560112849
Dev Intent loss: 2406.3590393066406
Dev slot loss: 57006.041015625
Intent accuracy (dev): 0.966
Slot F1 (dev): 0.9885
Epoch 115 done.
Train Intent loss: 30.256330642980174
Train Slot loss: 69.16305548604578
Dev Intent loss: 2390.319854736328
Dev slot loss: 57121.49755859375
Intent accuracy (dev): 0.962
Slot F1 (dev): 0.9883
Epoch 116 done.
Train Intent loss: 22.205769593419973
Train Slot loss: 44.14660468092188
Dev Intent loss: 2418.194320678711
Dev slot loss: 56999.84228515625
Intent accuracy (dev): 0.968
Slot F1 (dev): 0.9881
Epoch 117 done.
Train Intent loss: 4.12938425259199
Train Slot loss: 68.85254400549456
Dev Intent loss: 2507.938735961914
Dev slot loss: 58019.7685546875
Intent accuracy (dev): 0.966
Slot F1 (dev): 0.9898
Epoch 118 done.
Train Intent loss: 5.08734831752372
Train Slot loss: 57.25338242063299
Dev Intent loss: 2572.6548919677734
Dev slot loss: 57918.7080078125
Intent accuracy (dev): 0.962
Slot F1 (dev): 0.9881
Epoch 119 done.
Train Intent loss: 3.2446861787320813
Train Slot loss: 47.04516633274034
Dev Intent loss: 2670.787094116211
Dev slot loss: 57530.62548828125
Intent accuracy (dev): 0.966
Slot F1 (dev): 0.9872
Epoch 120 done.
Train Intent loss: 0.6545135552805732
Train Slot loss: 39.85271043749526
Dev Intent loss: 2873.387451171875
Dev slot loss: 58550.810546875
Intent accuracy (dev): 0.968
Slot F1 (dev): 0.9879
Epoch 121 done.
Train Intent loss: 1.8796032031641516
Train Slot loss: 37.44869384355843
Dev Intent loss: 2877.313247680664
Dev slot loss: 59266.552734375
Intent accuracy (dev): 0.968
Slot F1 (dev): 0.9887
Epoch 122 done.
Train Intent loss: 20.041009262211446
Train Slot loss: 36.981151391752064
Dev Intent loss: 2482.090377807617
Dev slot loss: 59986.3916015625
Intent accuracy (dev): 0.964
Slot F1 (dev): 0.9901
Epoch 123 done.
Train Intent loss: 23.850432482082397
Train Slot loss: 26.862733733840287
Dev Intent loss: 2477.518753051758
Dev slot loss: 59445.40185546875
Intent accuracy (dev): 0.968
Slot F1 (dev): 0.9878
Epoch 124 done.
Train Intent loss: 31.4767437998089
Train Slot loss: 28.87326119840145
Dev Intent loss: 2269.450393676758
Dev slot loss: 60988.25537109375
Intent accuracy (dev): 0.968
Slot F1 (dev): 0.9893
Epoch 125 done.
Train Intent loss: 27.951014813879738
Train Slot loss: 34.873564169043675
Dev Intent loss: 2169.262985229492
Dev slot loss: 60255.458984375
Intent accuracy (dev): 0.97
Slot F1 (dev): 0.9885
Epoch 126 done.
Train Intent loss: 19.186419878533343
Train Slot loss: 48.5306452952791
Dev Intent loss: 2294.4051818847656
Dev slot loss: 60160.78564453125
Intent accuracy (dev): 0.966
Slot F1 (dev): 0.9875
Epoch 127 done.
Train Intent loss: 17.00371671123139
Train Slot loss: 86.12977134203538
Dev Intent loss: 2312.468978881836
Dev slot loss: 59599.38232421875
Intent accuracy (dev): 0.966
Slot F1 (dev): 0.9876
Epoch 128 done.
Train Intent loss: 1.6086363612994319
Train Slot loss: 53.73886853805743
Dev Intent loss: 2592.9591369628906
Dev slot loss: 59401.37646484375
Intent accuracy (dev): 0.972
Slot F1 (dev): 0.9889
Epoch 129 done.
Train Intent loss: 8.43857314791967
Train Slot loss: 27.974423906765878
Dev Intent loss: 2508.6292724609375
Dev slot loss: 59764.57470703125
Intent accuracy (dev): 0.966
Slot F1 (dev): 0.9879
Epoch 130 done.
Train Intent loss: 35.44723682956828
Train Slot loss: 44.89199607842602
Dev Intent loss: 2115.564697265625
Dev slot loss: 60413.74169921875
Intent accuracy (dev): 0.964
Slot F1 (dev): 0.989
Epoch 131 done.
Train Intent loss: 22.070109976193635
Train Slot loss: 63.48608052893542
Dev Intent loss: 2353.606918334961
Dev slot loss: 60835.06298828125
Intent accuracy (dev): 0.968
Slot F1 (dev): 0.988
Epoch 132 done.
Train Intent loss: 27.88143924647011
Train Slot loss: 36.792356019606814
Dev Intent loss: 2256.0586547851562
Dev slot loss: 59928.68212890625
Intent accuracy (dev): 0.966
Slot F1 (dev): 0.9892
Epoch 133 done.
Train Intent loss: 7.795859074220061
Train Slot loss: 50.88722095056437
Dev Intent loss: 2506.218963623047
Dev slot loss: 60616.42822265625
Intent accuracy (dev): 0.964
Slot F1 (dev): 0.9876
Epoch 134 done.
Train Intent loss: 1.8691409989332897
Train Slot loss: 69.40580640139524
Dev Intent loss: 2513.1604766845703
Dev slot loss: 59799.2998046875
Intent accuracy (dev): 0.968
Slot F1 (dev): 0.9885
Epoch 135 done.
Train Intent loss: 9.528749081167916
Train Slot loss: 57.98213097406551
Dev Intent loss: 2392.745834350586
Dev slot loss: 59727.40185546875
Intent accuracy (dev): 0.964
Slot F1 (dev): 0.9885
Epoch 136 done.
Train Intent loss: 52.839263412490254
Train Slot loss: 66.26556010288186
Dev Intent loss: 2183.4154510498047
Dev slot loss: 59960.73583984375
Intent accuracy (dev): 0.964
Slot F1 (dev): 0.9883
Epoch 137 done.
Train Intent loss: 42.084626586933155
Train Slot loss: 14.85744274687022
Dev Intent loss: 2273.4722595214844
Dev slot loss: 61570.46142578125
Intent accuracy (dev): 0.968
Slot F1 (dev): 0.9875
Epoch 138 done.
Train Intent loss: 39.51460870428127
Train Slot loss: 30.42701594834216
Dev Intent loss: 2371.795700073242
Dev slot loss: 62365.74169921875
Intent accuracy (dev): 0.972
Slot F1 (dev): 0.9881
Epoch 139 done.
Train Intent loss: 7.037495082273381
Train Slot loss: 41.05763970501721
Dev Intent loss: 2240.4291381835938
Dev slot loss: 61623.41943359375
Intent accuracy (dev): 0.972
Slot F1 (dev): 0.9875
Epoch 140 done.
Train Intent loss: 68.24078462496982
Train Slot loss: 17.744921018835157
Dev Intent loss: 2401.745162963867
Dev slot loss: 61489.3935546875
Intent accuracy (dev): 0.97
Slot F1 (dev): 0.9877
Epoch 141 done.
Train Intent loss: 57.07879691499693
Train Slot loss: 38.33770288224332
Dev Intent loss: 2359.0360717773438
Dev slot loss: 62393.92822265625
Intent accuracy (dev): 0.976
Slot F1 (dev): 0.9888
Epoch 142 done.
Train Intent loss: 3.18704433523817
Train Slot loss: 24.485590825323015
Dev Intent loss: 2586.944122314453
Dev slot loss: 62612.15673828125
Intent accuracy (dev): 0.972
Slot F1 (dev): 0.9867
Epoch 143 done.
Train Intent loss: 46.68884004965366
Train Slot loss: 62.06415946641937
Dev Intent loss: 2608.211700439453
Dev slot loss: 62437.8837890625
Intent accuracy (dev): 0.972
Slot F1 (dev): 0.9883
Epoch 144 done.
Train Intent loss: 35.906697667887784
Train Slot loss: 19.131952924653888
Dev Intent loss: 2596.615447998047
Dev slot loss: 63416.08154296875
Intent accuracy (dev): 0.966
Slot F1 (dev): 0.9897
Epoch 145 done.
Train Intent loss: 60.2909115520597
Train Slot loss: 25.153370363172144
Dev Intent loss: 2729.6061248779297
Dev slot loss: 62531.5224609375
Intent accuracy (dev): 0.972
Slot F1 (dev): 0.9892
Epoch 146 done.
Train Intent loss: 31.98684917828359
Train Slot loss: 31.749236622592434
Dev Intent loss: 2770.6473083496094
Dev slot loss: 62993.8974609375
Intent accuracy (dev): 0.976
Slot F1 (dev): 0.988
Epoch 147 done.
Train Intent loss: 33.49048842690536
Train Slot loss: 34.36092482495587
Dev Intent loss: 2745.5550231933594
Dev slot loss: 62819.34423828125
Intent accuracy (dev): 0.97
Slot F1 (dev): 0.9886
Epoch 148 done.
Train Intent loss: 11.156254469882697
Train Slot loss: 23.241304237861186
Dev Intent loss: 2630.3318939208984
Dev slot loss: 62623.00537109375
Intent accuracy (dev): 0.972
Slot F1 (dev): 0.988
Epoch 149 done.
Train Intent loss: 14.976453294468229
Train Slot loss: 22.40340046584606
Dev Intent loss: 2588.647415161133
Dev slot loss: 63467.67236328125
Intent accuracy (dev): 0.974
Slot F1 (dev): 0.9882
Epoch 150 done.
Train Intent loss: 10.53932782067568
Train Slot loss: 57.32340192236006
Dev Intent loss: 2812.1593322753906
Dev slot loss: 63777.6083984375
Intent accuracy (dev): 0.966
Slot F1 (dev): 0.9883
Epoch 151 done.
Train Intent loss: 5.174630403722404
Train Slot loss: 32.290893741184846
Dev Intent loss: 2660.2255249023438
Dev slot loss: 64299.65673828125
Intent accuracy (dev): 0.966
Slot F1 (dev): 0.9888
Epoch 152 done.
Train Intent loss: 11.685792510979809
Train Slot loss: 30.607826067134738
Dev Intent loss: 2715.4500732421875
Dev slot loss: 64428.50341796875
Intent accuracy (dev): 0.972
Slot F1 (dev): 0.9891
Epoch 153 done.
Train Intent loss: 4.058125877207203
Train Slot loss: 78.7581501515815
Dev Intent loss: 2755.883560180664
Dev slot loss: 64643.98876953125
Intent accuracy (dev): 0.972
Slot F1 (dev): 0.9879
Epoch 154 done.
Train Intent loss: 0.6967141897730471
Train Slot loss: 23.6068222085014
Dev Intent loss: 2780.071014404297
Dev slot loss: 63968.1962890625
Intent accuracy (dev): 0.97
Slot F1 (dev): 0.9888
Epoch 155 done.
Train Intent loss: 5.489382606720028
Train Slot loss: 30.306395433377475
Dev Intent loss: 2750.7889709472656
Dev slot loss: 64232.146484375
Intent accuracy (dev): 0.974
Slot F1 (dev): 0.989
Epoch 156 done.
Train Intent loss: 35.915808462159475
Train Slot loss: 66.41083543049172
Dev Intent loss: 2658.7987670898438
Dev slot loss: 65166.1611328125
Intent accuracy (dev): 0.974
Slot F1 (dev): 0.9889
Epoch 157 done.
Train Intent loss: 13.789738989027683
Train Slot loss: 31.07905629137531
Dev Intent loss: 2619.14892578125
Dev slot loss: 64715.11572265625
Intent accuracy (dev): 0.97
Slot F1 (dev): 0.9895
Epoch 158 done.
Train Intent loss: 14.875752903280954
Train Slot loss: 32.49708387046121
Dev Intent loss: 2783.9120483398438
Dev slot loss: 64483.07666015625
Intent accuracy (dev): 0.972
Slot F1 (dev): 0.9881
Epoch 159 done.
Train Intent loss: 0.24097736693147453
Train Slot loss: 64.40294791315682
Dev Intent loss: 2751.831756591797
Dev slot loss: 65772.10595703125
Intent accuracy (dev): 0.968
Slot F1 (dev): 0.9887
Epoch 160 done.
Train Intent loss: 2.6226638841762906
Train Slot loss: 58.20681387139484
Dev Intent loss: 2840.505584716797
Dev slot loss: 64631.1240234375
Intent accuracy (dev): 0.966
Slot F1 (dev): 0.9883
Epoch 161 done.
Train Intent loss: 0.6398451460590877
Train Slot loss: 25.399644443532452
Dev Intent loss: 2752.0667724609375
Dev slot loss: 66028.84423828125
Intent accuracy (dev): 0.96
Slot F1 (dev): 0.9886
Epoch 162 done.
Train Intent loss: 24.275493013101368
Train Slot loss: 17.47240856080316
Dev Intent loss: 2816.0509033203125
Dev slot loss: 66964.154296875
Intent accuracy (dev): 0.966
Slot F1 (dev): 0.9881
Epoch 163 done.
Train Intent loss: 1.571702435689076
Train Slot loss: 64.30762804904953
Dev Intent loss: 2948.0401916503906
Dev slot loss: 67373.98974609375
Intent accuracy (dev): 0.972
Slot F1 (dev): 0.9889
Epoch 164 done.
Train Intent loss: 6.755798022273666
Train Slot loss: 30.08209909708239
Dev Intent loss: 3028.1013793945312
Dev slot loss: 66432.6962890625
Intent accuracy (dev): 0.974
Slot F1 (dev): 0.9885
Epoch 165 done.
Train Intent loss: 26.092818626813823
Train Slot loss: 36.08307305187918
Dev Intent loss: 2737.931610107422
Dev slot loss: 66460.013671875
Intent accuracy (dev): 0.97
Slot F1 (dev): 0.9887
Epoch 166 done.
Train Intent loss: 15.856414185247559
Train Slot loss: 84.72943447693251
Dev Intent loss: 2501.1788177490234
Dev slot loss: 66451.4091796875
Intent accuracy (dev): 0.97
Slot F1 (dev): 0.9874
Epoch 167 done.
Train Intent loss: 37.63613206851733
Train Slot loss: 63.046490828623064
Dev Intent loss: 2635.472122192383
Dev slot loss: 67723.60302734375
Intent accuracy (dev): 0.978
Slot F1 (dev): 0.9877
Epoch 168 done.
Train Intent loss: 30.0677853078123
Train Slot loss: 21.910755205433816
Dev Intent loss: 2359.3873138427734
Dev slot loss: 69302.544921875
Intent accuracy (dev): 0.974
Slot F1 (dev): 0.9887
Epoch 169 done.
Train Intent loss: 92.26203920516127
Train Slot loss: 41.2212497331202
Dev Intent loss: 2511.828872680664
Dev slot loss: 69575.759765625
Intent accuracy (dev): 0.98
Slot F1 (dev): 0.988
Epoch 170 done.
Train Intent loss: 59.61757320215111
Train Slot loss: 19.748434050823562
Dev Intent loss: 2402.8172302246094
Dev slot loss: 68106.7353515625
Intent accuracy (dev): 0.978
Slot F1 (dev): 0.9882
Epoch 171 done.
Train Intent loss: 62.261214276491955
Train Slot loss: 30.510399320628494
Dev Intent loss: 2542.2689361572266
Dev slot loss: 67576.53857421875
Intent accuracy (dev): 0.976
Slot F1 (dev): 0.9883
Epoch 172 done.
Train Intent loss: 30.626931801358296
Train Slot loss: 22.32793639600277
Dev Intent loss: 2486.553665161133
Dev slot loss: 67754.064453125
Intent accuracy (dev): 0.974
Slot F1 (dev): 0.9895
Epoch 173 done.
Train Intent loss: 5.475306886815815
Train Slot loss: 37.10656419210136
Dev Intent loss: 2757.147750854492
Dev slot loss: 69878.04541015625
Intent accuracy (dev): 0.962
Slot F1 (dev): 0.99
Epoch 174 done.
Train Intent loss: 0.7156280407616578
Train Slot loss: 42.06459916761378
Dev Intent loss: 2845.3504333496094
Dev slot loss: 68785.78662109375
Intent accuracy (dev): 0.968
Slot F1 (dev): 0.9903
Epoch 175 done.
Train Intent loss: 15.667970088317816
Train Slot loss: 36.40992274321616
Dev Intent loss: 2779.817840576172
Dev slot loss: 67931.82080078125
Intent accuracy (dev): 0.972
Slot F1 (dev): 0.9892
Epoch 176 done.
Train Intent loss: 5.384555672193528
Train Slot loss: 102.51267327414826
Dev Intent loss: 2772.318145751953
Dev slot loss: 67191.265625
Intent accuracy (dev): 0.968
Slot F1 (dev): 0.9895
Epoch 177 done.
Train Intent loss: 1.282909256315179
Train Slot loss: 44.37409990141168
Dev Intent loss: 2729.962158203125
Dev slot loss: 69278.306640625
Intent accuracy (dev): 0.97
Slot F1 (dev): 0.9892
Epoch 178 done.
Train Intent loss: 3.3266526320003322
Train Slot loss: 64.00883946777321
Dev Intent loss: 2685.6888122558594
Dev slot loss: 69605.20458984375
Intent accuracy (dev): 0.97
Slot F1 (dev): 0.9894
Epoch 179 done.
Train Intent loss: 2.164099176410673
Train Slot loss: 28.233335732948035
Dev Intent loss: 2688.776901245117
Dev slot loss: 69053.81298828125
Intent accuracy (dev): 0.964
Slot F1 (dev): 0.9891
Epoch 180 done.
Train Intent loss: 0.12346381570023368
Train Slot loss: 49.668273875373416
Dev Intent loss: 2720.329299926758
Dev slot loss: 69451.6064453125
Intent accuracy (dev): 0.968
Slot F1 (dev): 0.9887
Epoch 181 done.
Train Intent loss: 13.89852942984362
Train Slot loss: 24.197011151816696
Dev Intent loss: 2792.3980712890625
Dev slot loss: 68824.46533203125
Intent accuracy (dev): 0.958
Slot F1 (dev): 0.9891
Epoch 182 done.
Train Intent loss: 20.81583330133799
Train Slot loss: 28.511322498787194
Dev Intent loss: 2632.594223022461
Dev slot loss: 68741.44677734375
Intent accuracy (dev): 0.962
Slot F1 (dev): 0.9883
Epoch 183 done.
Train Intent loss: 10.551310872622707
Train Slot loss: 30.83316110598389
Dev Intent loss: 2607.4427185058594
Dev slot loss: 69123.78857421875
Intent accuracy (dev): 0.962
Slot F1 (dev): 0.9899
Epoch 184 done.
Train Intent loss: 0.0866924689107691
Train Slot loss: 32.15000663336832
Dev Intent loss: 2636.8272094726562
Dev slot loss: 67960.52099609375
Intent accuracy (dev): 0.964
Slot F1 (dev): 0.9885
Epoch 185 done.
Train Intent loss: 15.671241679785453
Train Slot loss: 30.757462901528925
Dev Intent loss: 2623.8604125976562
Dev slot loss: 68918.3203125
Intent accuracy (dev): 0.966
Slot F1 (dev): 0.9887
Epoch 186 done.
Train Intent loss: 35.79535323326854
Train Slot loss: 56.94946755829733
Dev Intent loss: 2623.2567749023438
Dev slot loss: 68456.6142578125
Intent accuracy (dev): 0.964
Slot F1 (dev): 0.9901
Epoch 187 done.
Train Intent loss: 47.43230218989629
Train Slot loss: 20.808416972402483
Dev Intent loss: 2345.9244079589844
Dev slot loss: 69509.65380859375
Intent accuracy (dev): 0.962
Slot F1 (dev): 0.9885
Epoch 188 done.
Train Intent loss: 20.38092205087014
Train Slot loss: 27.12574956472963
Dev Intent loss: 2521.166778564453
Dev slot loss: 69342.07568359375
Intent accuracy (dev): 0.962
Slot F1 (dev): 0.9892
Epoch 189 done.
Train Intent loss: 34.56712270574644
Train Slot loss: 11.926201881142333
Dev Intent loss: 2553.6517944335938
Dev slot loss: 70764.7587890625
Intent accuracy (dev): 0.958
Slot F1 (dev): 0.9885
Epoch 190 done.
Train Intent loss: 31.36894959946585
Train Slot loss: 31.08987077116035
Dev Intent loss: 2490.4444274902344
Dev slot loss: 70651.6982421875
Intent accuracy (dev): 0.964
Slot F1 (dev): 0.9888
Epoch 191 done.
Train Intent loss: 21.80554693099475
Train Slot loss: 81.34226550610038
Dev Intent loss: 2638.917739868164
Dev slot loss: 70113.89990234375
Intent accuracy (dev): 0.968
Slot F1 (dev): 0.9883
Epoch 192 done.
Train Intent loss: 5.988701368722104
Train Slot loss: 46.14672322245315
Dev Intent loss: 2597.0809936523438
Dev slot loss: 70778.40576171875
Intent accuracy (dev): 0.964
Slot F1 (dev): 0.9884
Epoch 193 done.
Train Intent loss: 42.85859424091541
Train Slot loss: 18.585683083860204
Dev Intent loss: 2418.5511322021484
Dev slot loss: 70535.77685546875
Intent accuracy (dev): 0.958
Slot F1 (dev): 0.9875
Epoch 194 done.
Train Intent loss: 30.874489016539883
Train Slot loss: 50.607667116681114
Dev Intent loss: 2706.2029418945312
Dev slot loss: 69230.50830078125
Intent accuracy (dev): 0.962
Slot F1 (dev): 0.9875
Epoch 195 done.
Train Intent loss: 9.78568567559887
Train Slot loss: 52.5804839914199
Dev Intent loss: 2746.7914123535156
Dev slot loss: 69044.68896484375
Intent accuracy (dev): 0.96
Slot F1 (dev): 0.9886
Epoch 196 done.
Train Intent loss: 12.059346019876102
Train Slot loss: 18.66114653815748
Dev Intent loss: 2763.1663818359375
Dev slot loss: 68354.4501953125
Intent accuracy (dev): 0.962
Slot F1 (dev): 0.9881
Epoch 197 done.
Train Intent loss: 6.143607580364915
Train Slot loss: 39.4156490387395
Dev Intent loss: 2839.821243286133
Dev slot loss: 70329.13330078125
Intent accuracy (dev): 0.96
Slot F1 (dev): 0.9889
Epoch 198 done.
Train Intent loss: 24.629816135045985
Train Slot loss: 34.91594634531066
Dev Intent loss: 2857.5076904296875
Dev slot loss: 69230.64990234375
Intent accuracy (dev): 0.962
Slot F1 (dev): 0.9885
Epoch 199 done.
Train Intent loss: 25.851175378560583
Train Slot loss: 53.97056718613021
Dev Intent loss: 2846.2614135742188
Dev slot loss: 70379.619140625
Intent accuracy (dev): 0.964
Slot F1 (dev): 0.9876
Epoch 200 done.
Train Intent loss: 42.6639822177458
Train Slot loss: 64.84594035241753
Dev Intent loss: 2658.2452392578125
Dev slot loss: 70000.1044921875
Intent accuracy (dev): 0.958
Slot F1 (dev): 0.9884
Epoch 201 done.
Train Intent loss: 9.21228699486528
Train Slot loss: 28.209504709928297
Dev Intent loss: 2721.016845703125
Dev slot loss: 69519.3359375
Intent accuracy (dev): 0.962
Slot F1 (dev): 0.9877
Epoch 202 done.
Train Intent loss: 13.436209657855215
Train Slot loss: 81.16991718206555
Dev Intent loss: 2936.2240600585938
Dev slot loss: 69142.4228515625
Intent accuracy (dev): 0.964
Slot F1 (dev): 0.988
Epoch 203 done.
Train Intent loss: 29.422924240996508
Train Slot loss: 16.016782928723842
Dev Intent loss: 2918.5714416503906
Dev slot loss: 69995.37939453125
Intent accuracy (dev): 0.966
Slot F1 (dev): 0.9885
Epoch 204 done.
Train Intent loss: 47.85434412473842
Train Slot loss: 10.3904545007681
Dev Intent loss: 2770.9825134277344
Dev slot loss: 71100.6630859375
Intent accuracy (dev): 0.962
Slot F1 (dev): 0.9884
Epoch 205 done.
Train Intent loss: 31.334804036054265
Train Slot loss: 13.286524215654936
Dev Intent loss: 2614.3260192871094
Dev slot loss: 69496.05859375
Intent accuracy (dev): 0.96
Slot F1 (dev): 0.9895
Epoch 206 done.
Train Intent loss: 9.999686251409003
Train Slot loss: 33.26869840850122
Dev Intent loss: 2753.8795471191406
Dev slot loss: 70558.7412109375
Intent accuracy (dev): 0.968
Slot F1 (dev): 0.9891
Epoch 207 done.
Train Intent loss: 17.920820592378732
Train Slot loss: 17.09433485637419
Dev Intent loss: 2715.4317016601562
Dev slot loss: 70072.1494140625
Intent accuracy (dev): 0.966
Slot F1 (dev): 0.9896
Epoch 208 done.
Train Intent loss: 11.2879801045965
Train Slot loss: 40.126535065006465
Dev Intent loss: 2776.7803802490234
Dev slot loss: 70419.10498046875
Intent accuracy (dev): 0.964
Slot F1 (dev): 0.9889
Epoch 209 done.
Train Intent loss: 15.096529577909678
Train Slot loss: 24.906132836884353
Dev Intent loss: 2827.9611206054688
Dev slot loss: 70232.15087890625
Intent accuracy (dev): 0.964
Slot F1 (dev): 0.9888
Epoch 210 done.
Train Intent loss: 4.9839988140620335
Train Slot loss: 42.28152551664971
Dev Intent loss: 3005.1622314453125
Dev slot loss: 71149.52587890625
Intent accuracy (dev): 0.966
Slot F1 (dev): 0.9889
Epoch 211 done.
Train Intent loss: 23.33267987540239
Train Slot loss: 32.37108249543235
Dev Intent loss: 3027.966796875
Dev slot loss: 71835.82421875
Intent accuracy (dev): 0.962
Slot F1 (dev): 0.9885
Epoch 212 done.
Train Intent loss: 1.3844723822658125
Train Slot loss: 46.06448942923453
Dev Intent loss: 3149.0563049316406
Dev slot loss: 69354.14111328125
Intent accuracy (dev): 0.956
Slot F1 (dev): 0.9887
Epoch 213 done.
Train Intent loss: 40.46551602735235
Train Slot loss: 36.646788120269775
Dev Intent loss: 3157.4313049316406
Dev slot loss: 70233.8427734375
Intent accuracy (dev): 0.962
Slot F1 (dev): 0.9892
Epoch 214 done.
Train Intent loss: 1.221001172592878
Train Slot loss: 45.173748368630186
Dev Intent loss: 3086.065948486328
Dev slot loss: 70608.7451171875
Intent accuracy (dev): 0.962
Slot F1 (dev): 0.9893
Epoch 215 done.
Train Intent loss: 9.15666547410001
Train Slot loss: 68.2255538860918
Dev Intent loss: 2987.8191528320312
Dev slot loss: 71770.2548828125
Intent accuracy (dev): 0.958
Slot F1 (dev): 0.9899
Epoch 216 done.
Train Intent loss: 17.057858031061187
Train Slot loss: 23.51763679506257
Dev Intent loss: 3152.720733642578
Dev slot loss: 71711.53857421875
Intent accuracy (dev): 0.96
Slot F1 (dev): 0.9891
Epoch 217 done.
Train Intent loss: 2.8987101968550633
Train Slot loss: 33.858931956696324
Dev Intent loss: 3236.9796752929688
Dev slot loss: 70501.16064453125
Intent accuracy (dev): 0.964
Slot F1 (dev): 0.9894
Epoch 218 done.
Train Intent loss: 26.767771686443666
Train Slot loss: 35.59247373184189
Dev Intent loss: 2960.0336303710938
Dev slot loss: 70522.34375
Intent accuracy (dev): 0.958
Slot F1 (dev): 0.9899
Epoch 219 done.
Train Intent loss: 14.855186025642979
Train Slot loss: 10.235109333996661
Dev Intent loss: 3102.43359375
Dev slot loss: 71159.32958984375
Intent accuracy (dev): 0.964
Slot F1 (dev): 0.9904
Epoch 220 done.
Train Intent loss: 46.121538695619165
Train Slot loss: 24.929662868496962
Dev Intent loss: 2995.5232849121094
Dev slot loss: 72291.9287109375
Intent accuracy (dev): 0.962
Slot F1 (dev): 0.9893
Epoch 221 done.
Train Intent loss: 28.70707537726048
Train Slot loss: 59.90903851814801
Dev Intent loss: 3074.8355712890625
Dev slot loss: 73048.4443359375
Intent accuracy (dev): 0.966
Slot F1 (dev): 0.9902
Epoch 222 done.
Train Intent loss: 3.7939143420226173
Train Slot loss: 57.01341973335366
Dev Intent loss: 3032.4901123046875
Dev slot loss: 72044.587890625
Intent accuracy (dev): 0.964
Slot F1 (dev): 0.9902
Epoch 223 done.
Train Intent loss: 1.3354052221948223
Train Slot loss: 37.821020213887095
Dev Intent loss: 3068.936553955078
Dev slot loss: 71827.603515625
Intent accuracy (dev): 0.96
Slot F1 (dev): 0.9891
Epoch 224 done.
Train Intent loss: 6.4622147468780895
Train Slot loss: 21.718902833992615
Dev Intent loss: 3265.1871032714844
Dev slot loss: 72066.5478515625
Intent accuracy (dev): 0.966
Slot F1 (dev): 0.9889
Epoch 225 done.
Train Intent loss: 20.99458300939932
Train Slot loss: 34.179220477701165
Dev Intent loss: 3331.5575561523438
Dev slot loss: 72270.75146484375
Intent accuracy (dev): 0.966
Slot F1 (dev): 0.9878
Epoch 226 done.
Train Intent loss: 13.658428849461416
Train Slot loss: 34.484697698033415
Dev Intent loss: 3160.3637084960938
Dev slot loss: 71705.30078125
Intent accuracy (dev): 0.964
Slot F1 (dev): 0.9883
Epoch 227 done.
Train Intent loss: 6.916854974107082
Train Slot loss: 32.00964606611524
Dev Intent loss: 3175.2188415527344
Dev slot loss: 72390.2978515625
Intent accuracy (dev): 0.97
Slot F1 (dev): 0.9884
Epoch 228 done.
Train Intent loss: 12.138015608528804
Train Slot loss: 51.79348059708718
Dev Intent loss: 3178.734130859375
Dev slot loss: 72092.04931640625
Intent accuracy (dev): 0.97
Slot F1 (dev): 0.9891
Epoch 229 done.
Train Intent loss: 81.06695734010827
Train Slot loss: 59.76945318293292
Dev Intent loss: 3343.1036987304688
Dev slot loss: 71205.85498046875
Intent accuracy (dev): 0.97
Slot F1 (dev): 0.9882
Epoch 230 done.
Train Intent loss: 17.245466322077846
Train Slot loss: 58.369554910226725
Dev Intent loss: 3244.049774169922
Dev slot loss: 72168.4951171875
Intent accuracy (dev): 0.974
Slot F1 (dev): 0.987
Epoch 231 done.
Train Intent loss: 18.80192369026645
Train Slot loss: 28.242026448715478
Dev Intent loss: 3186.9669799804688
Dev slot loss: 72602.8916015625
Intent accuracy (dev): 0.97
Slot F1 (dev): 0.988
Epoch 232 done.
Train Intent loss: 16.19185560077767
Train Slot loss: 55.04711723595392
Dev Intent loss: 3115.2037963867188
Dev slot loss: 71860.7021484375
Intent accuracy (dev): 0.964
Slot F1 (dev): 0.9877
Epoch 233 done.
Train Intent loss: 9.578786816924548
Train Slot loss: 34.24728504475206
Dev Intent loss: 3091.427276611328
Dev slot loss: 72174.1787109375
Intent accuracy (dev): 0.964
Slot F1 (dev): 0.9898
Epoch 234 done.
Train Intent loss: 51.06208502409345
Train Slot loss: 26.18051675951574
Dev Intent loss: 3409.88525390625
Dev slot loss: 73311.66162109375
Intent accuracy (dev): 0.962
Slot F1 (dev): 0.9886
Epoch 235 done.
Train Intent loss: 6.194271158527499
Train Slot loss: 46.073893155902624
Dev Intent loss: 3363.9649047851562
Dev slot loss: 72933.45703125
Intent accuracy (dev): 0.966
Slot F1 (dev): 0.9892
Epoch 236 done.
Train Intent loss: 0.5102749787665743
Train Slot loss: 46.24770367803285
Dev Intent loss: 3396.2098693847656
Dev slot loss: 72623.74267578125
Intent accuracy (dev): 0.962
Slot F1 (dev): 0.9897
Epoch 237 done.
Train Intent loss: 2.030671619255145
Train Slot loss: 53.069605323835276
Dev Intent loss: 3344.390350341797
Dev slot loss: 71625.71923828125
Intent accuracy (dev): 0.966
Slot F1 (dev): 0.9884
Epoch 238 done.
Train Intent loss: 4.329130927442179
Train Slot loss: 25.55170142778661
Dev Intent loss: 3347.4392700195312
Dev slot loss: 73593.63818359375
Intent accuracy (dev): 0.97
Slot F1 (dev): 0.9893
Epoch 239 done.
Train Intent loss: 5.055248248937005
Train Slot loss: 36.27536500710994
Dev Intent loss: 3446.034652709961
Dev slot loss: 72818.89453125
Intent accuracy (dev): 0.966
Slot F1 (dev): 0.9891
Epoch 240 done.
Train Intent loss: 38.85578358073144
Train Slot loss: 73.8069146637572
Dev Intent loss: 3158.60546875
Dev slot loss: 73043.67041015625
Intent accuracy (dev): 0.968
Slot F1 (dev): 0.9899
Epoch 241 done.
Train Intent loss: 14.040315802040823
Train Slot loss: 33.18855010694824
Dev Intent loss: 3371.4998474121094
Dev slot loss: 73376.306640625
Intent accuracy (dev): 0.968
Slot F1 (dev): 0.9889
Epoch 242 done.
Train Intent loss: 34.57967097828714
Train Slot loss: 42.93273976672208
Dev Intent loss: 3175.5805053710938
Dev slot loss: 73926.87109375
Intent accuracy (dev): 0.972
Slot F1 (dev): 0.9885
Epoch 243 done.
Train Intent loss: 79.8594699834739
Train Slot loss: 9.943845028057694
Dev Intent loss: 2524.9100494384766
Dev slot loss: 73947.3583984375
Intent accuracy (dev): 0.966
Slot F1 (dev): 0.9885
Epoch 244 done.
Train Intent loss: 39.060431808731664
Train Slot loss: 24.663911336334422
Dev Intent loss: 2770.5712280273438
Dev slot loss: 73551.419921875
Intent accuracy (dev): 0.972
Slot F1 (dev): 0.989
Epoch 245 done.
Train Intent loss: 10.592291505821777
Train Slot loss: 21.802955017308705
Dev Intent loss: 2784.2272033691406
Dev slot loss: 73283.07470703125
Intent accuracy (dev): 0.97
Slot F1 (dev): 0.9886
Epoch 246 done.
Train Intent loss: 24.682678101635247
Train Slot loss: 27.90170592616778
Dev Intent loss: 2792.0750732421875
Dev slot loss: 73516.50439453125
Intent accuracy (dev): 0.968
Slot F1 (dev): 0.9899
Epoch 247 done.
Train Intent loss: 25.764520055621688
Train Slot loss: 16.058631000691094
Dev Intent loss: 3042.209991455078
Dev slot loss: 73122.07861328125
Intent accuracy (dev): 0.972
Slot F1 (dev): 0.989
Epoch 248 done.
Train Intent loss: 65.41156833199602
Train Slot loss: 45.61199096782366
Dev Intent loss: 2992.4230346679688
Dev slot loss: 73265.66162109375
Intent accuracy (dev): 0.972
Slot F1 (dev): 0.9894
Epoch 249 done.
Train Intent loss: 15.192472264843673
Train Slot loss: 14.979882790124975
Dev Intent loss: 2974.056915283203
Dev slot loss: 73888.5537109375
Intent accuracy (dev): 0.968
Slot F1 (dev): 0.989
Epoch 250 done.
Train Intent loss: 39.37544713035095
Train Slot loss: 35.962913003284484
Dev Intent loss: 2934.2341918945312
Dev slot loss: 74294.7255859375
Intent accuracy (dev): 0.968
Slot F1 (dev): 0.9904
Epoch 251 done.
Train Intent loss: 9.336450338885697
Train Slot loss: 25.225950824591564
Dev Intent loss: 2903.8701782226562
Dev slot loss: 76271.25537109375
Intent accuracy (dev): 0.97
Slot F1 (dev): 0.9894
Epoch 252 done.
Train Intent loss: 18.009573275649018
Train Slot loss: 35.860028619121294
Dev Intent loss: 2795.1148071289062
Dev slot loss: 74545.845703125
Intent accuracy (dev): 0.97
Slot F1 (dev): 0.9887
Epoch 253 done.
Train Intent loss: 33.57960156107583
Train Slot loss: 19.753110980207566
Dev Intent loss: 3113.9771728515625
Dev slot loss: 76139.5439453125
Intent accuracy (dev): 0.966
Slot F1 (dev): 0.9895
Epoch 254 done.
Train Intent loss: 34.31074863302092
Train Slot loss: 28.35128964710748
Dev Intent loss: 2807.505096435547
Dev slot loss: 76632.76025390625
Intent accuracy (dev): 0.968
Slot F1 (dev): 0.9888
Epoch 255 done.
Train Intent loss: 7.660707718579943
Train Slot loss: 35.9980462489184
Dev Intent loss: 2830.250228881836
Dev slot loss: 74973.51806640625
Intent accuracy (dev): 0.966
Slot F1 (dev): 0.988
Epoch 256 done.
Train Intent loss: 17.885659052364645
Train Slot loss: 37.68157197133405
Dev Intent loss: 2858.882781982422
Dev slot loss: 76798.658203125
Intent accuracy (dev): 0.97
Slot F1 (dev): 0.9886
Epoch 257 done.
Train Intent loss: 10.647209658178326
Train Slot loss: 33.010004679264966
Dev Intent loss: 2922.7374725341797
Dev slot loss: 75763.759765625
Intent accuracy (dev): 0.962
Slot F1 (dev): 0.9877
Epoch 258 done.
Train Intent loss: 7.590893050621162
Train Slot loss: 29.306967679411173
Dev Intent loss: 2856.3331604003906
Dev slot loss: 75876.76708984375
Intent accuracy (dev): 0.96
Slot F1 (dev): 0.9882
Epoch 259 done.
Train Intent loss: 9.941180229869133
Train Slot loss: 34.616582401882624
Dev Intent loss: 3042.0764770507812
Dev slot loss: 75759.54248046875
Intent accuracy (dev): 0.964
Slot F1 (dev): 0.988
Epoch 260 done.
Train Intent loss: 12.347204925907135
Train Slot loss: 28.88062467169948
Dev Intent loss: 3037.5563049316406
Dev slot loss: 75339.279296875
Intent accuracy (dev): 0.96
Slot F1 (dev): 0.9896
Epoch 261 done.
Train Intent loss: 49.73710923392355
Train Slot loss: 46.44915700471029
Dev Intent loss: 2989.992950439453
Dev slot loss: 74862.09326171875
Intent accuracy (dev): 0.964
Slot F1 (dev): 0.9889
Epoch 262 done.
Train Intent loss: 46.82035426125367
Train Slot loss: 27.11714612628566
Dev Intent loss: 2789.5438690185547
Dev slot loss: 75068.951171875
Intent accuracy (dev): 0.962
Slot F1 (dev): 0.9889
Epoch 263 done.
Train Intent loss: 16.719422030269925
Train Slot loss: 46.82248886686284
Dev Intent loss: 2828.787139892578
Dev slot loss: 75963.19384765625
Intent accuracy (dev): 0.966
Slot F1 (dev): 0.9892
Epoch 264 done.
Train Intent loss: 1.1774771911732387
Train Slot loss: 22.18966171744978
Dev Intent loss: 2986.073486328125
Dev slot loss: 75591.3056640625
Intent accuracy (dev): 0.96
Slot F1 (dev): 0.99
Epoch 265 done.
Train Intent loss: 4.157038112702139
Train Slot loss: 37.554191986098886
Dev Intent loss: 3035.556121826172
Dev slot loss: 75832.2822265625
Intent accuracy (dev): 0.96
Slot F1 (dev): 0.9886
Epoch 266 done.
Train Intent loss: 0.18478558065544348
Train Slot loss: 27.208101959899068
Dev Intent loss: 3083.062255859375
Dev slot loss: 75140.3203125
Intent accuracy (dev): 0.964
Slot F1 (dev): 0.9894
Epoch 267 done.
Train Intent loss: 0.11583582530192871
Train Slot loss: 38.629302621935494
Dev Intent loss: 3070.879852294922
Dev slot loss: 75695.3359375
Intent accuracy (dev): 0.968
Slot F1 (dev): 0.9903
Epoch 268 done.
Train Intent loss: 4.040078501724565
Train Slot loss: 82.29664197482634
Dev Intent loss: 3108.1705322265625
Dev slot loss: 74812.75146484375
Intent accuracy (dev): 0.966
Slot F1 (dev): 0.9884
Epoch 269 done.
Train Intent loss: 0.056353583284362685
Train Slot loss: 77.00168273819145
Dev Intent loss: 3108.1494750976562
Dev slot loss: 75481.19189453125
Intent accuracy (dev): 0.97
Slot F1 (dev): 0.9894
Epoch 270 done.
Train Intent loss: 3.5381482158400104
Train Slot loss: 26.178901621955447
Dev Intent loss: 3149.640350341797
Dev slot loss: 73623.27978515625
Intent accuracy (dev): 0.97
Slot F1 (dev): 0.9896
Epoch 271 done.
Train Intent loss: 11.468996768759098
Train Slot loss: 69.83256249385886
Dev Intent loss: 3029.504440307617
Dev slot loss: 74961.9228515625
Intent accuracy (dev): 0.964
Slot F1 (dev): 0.9907
Epoch 272 done.
Train Intent loss: 12.689578667001115
Train Slot loss: 30.27238808257971
Dev Intent loss: 3165.6729125976562
Dev slot loss: 74717.84130859375
Intent accuracy (dev): 0.968
Slot F1 (dev): 0.9903
Epoch 273 done.
Train Intent loss: 1.053368873479485
Train Slot loss: 34.031769390509
Dev Intent loss: 2907.044647216797
Dev slot loss: 76506.955078125
Intent accuracy (dev): 0.966
Slot F1 (dev): 0.9901
Epoch 274 done.
Train Intent loss: 0.5826254847597738
Train Slot loss: 38.969684040988795
Dev Intent loss: 2984.1753540039062
Dev slot loss: 76888.990234375
Intent accuracy (dev): 0.968
Slot F1 (dev): 0.9889
Epoch 275 done.
Train Intent loss: 0.1784602092611749
Train Slot loss: 47.595340714324266
Dev Intent loss: 3075.0155639648438
Dev slot loss: 75108.79443359375
Intent accuracy (dev): 0.968
Slot F1 (dev): 0.9893
Epoch 276 done.
Train Intent loss: 10.939832297059183
Train Slot loss: 65.24422760133166
Dev Intent loss: 3094.5952758789062
Dev slot loss: 77303.021484375
Intent accuracy (dev): 0.972
Slot F1 (dev): 0.989
Epoch 277 done.
Train Intent loss: 1.5184148297330466
Train Slot loss: 34.99916509992909
Dev Intent loss: 3074.6189575195312
Dev slot loss: 75944.4345703125
Intent accuracy (dev): 0.968
Slot F1 (dev): 0.9883
Epoch 278 done.
Train Intent loss: 50.857845851447564
Train Slot loss: 26.530206519528292
Dev Intent loss: 2965.912307739258
Dev slot loss: 76606.703125
Intent accuracy (dev): 0.97
Slot F1 (dev): 0.989
Epoch 279 done.
Train Intent loss: 82.39708135286492
Train Slot loss: 22.522256650030613
Dev Intent loss: 2695.598159790039
Dev slot loss: 77939.7548828125
Intent accuracy (dev): 0.968
Slot F1 (dev): 0.988
Epoch 280 done.
Train Intent loss: 14.499067021140945
Train Slot loss: 31.47808347863611
Dev Intent loss: 2749.5769653320312
Dev slot loss: 78439.7275390625
Intent accuracy (dev): 0.972
Slot F1 (dev): 0.9883
Epoch 281 done.
Train Intent loss: 13.183755684429343
Train Slot loss: 43.69483196380315
Dev Intent loss: 3028.7686767578125
Dev slot loss: 77512.580078125
Intent accuracy (dev): 0.972
Slot F1 (dev): 0.9886
Epoch 282 done.
Train Intent loss: 45.55310132424711
Train Slot loss: 107.77669375954429
Dev Intent loss: 2668.6199951171875
Dev slot loss: 77497.8818359375
Intent accuracy (dev): 0.972
Slot F1 (dev): 0.9886
Epoch 283 done.
Train Intent loss: 11.609296367467323
Train Slot loss: 59.0055493862601
Dev Intent loss: 2637.175537109375
Dev slot loss: 76430.9580078125
Intent accuracy (dev): 0.966
Slot F1 (dev): 0.9883
Epoch 284 done.
Train Intent loss: 17.661481146875303
Train Slot loss: 17.358803798881127
Dev Intent loss: 2656.8661193847656
Dev slot loss: 77203.81884765625
Intent accuracy (dev): 0.968
Slot F1 (dev): 0.9876
Epoch 285 done.
Train Intent loss: 19.02012134384131
Train Slot loss: 36.54041843969026
Dev Intent loss: 2808.817596435547
Dev slot loss: 78080.4482421875
Intent accuracy (dev): 0.966
Slot F1 (dev): 0.9872
Epoch 286 done.
Train Intent loss: 35.37090473047283
Train Slot loss: 20.128608313112636
Dev Intent loss: 2910.658233642578
Dev slot loss: 78463.14453125
Intent accuracy (dev): 0.972
Slot F1 (dev): 0.9876
Epoch 287 done.
Train Intent loss: 21.739001117661246
Train Slot loss: 16.400533702370012
Dev Intent loss: 2901.0349884033203
Dev slot loss: 78885.8779296875
Intent accuracy (dev): 0.972
Slot F1 (dev): 0.9874
Epoch 288 done.
Train Intent loss: 11.3221966205856
Train Slot loss: 31.363900551223196
Dev Intent loss: 2802.6134490966797
Dev slot loss: 78767.6005859375
Intent accuracy (dev): 0.968
Slot F1 (dev): 0.9884
Epoch 289 done.
Train Intent loss: 2.575496708981518
Train Slot loss: 32.91127582016634
Dev Intent loss: 2848.8509216308594
Dev slot loss: 78007.8232421875
Intent accuracy (dev): 0.968
Slot F1 (dev): 0.9885
Epoch 290 done.
Train Intent loss: 5.783699704450555
Train Slot loss: 41.37474470023881
Dev Intent loss: 2804.7717895507812
Dev slot loss: 77358.1328125
Intent accuracy (dev): 0.968
Slot F1 (dev): 0.9877
Epoch 291 done.
Train Intent loss: 16.366896024184825
Train Slot loss: 17.02191554379533
Dev Intent loss: 2847.2882080078125
Dev slot loss: 78271.580078125
Intent accuracy (dev): 0.968
Slot F1 (dev): 0.9875
Epoch 292 done.
Train Intent loss: 11.727405316967634
Train Slot loss: 45.54051843594061
Dev Intent loss: 2886.9198455810547
Dev slot loss: 78599.9775390625
Intent accuracy (dev): 0.968
Slot F1 (dev): 0.9879
Epoch 293 done.
Train Intent loss: 17.93432038316314
Train Slot loss: 38.19966033473611
Dev Intent loss: 2883.0747833251953
Dev slot loss: 78471.93359375
Intent accuracy (dev): 0.974
Slot F1 (dev): 0.9875
Epoch 294 done.
Train Intent loss: 31.852786637704412
Train Slot loss: 30.327860546618467
Dev Intent loss: 3051.7622985839844
Dev slot loss: 78017.6845703125
Intent accuracy (dev): 0.966
Slot F1 (dev): 0.9878
Epoch 295 done.
Train Intent loss: 85.61643998579166
Train Slot loss: 36.34259159251815
Dev Intent loss: 2824.032196044922
Dev slot loss: 78737.57666015625
Intent accuracy (dev): 0.972
Slot F1 (dev): 0.9879
Epoch 296 done.
Train Intent loss: 26.717652180959703
Train Slot loss: 34.16868611238897
Dev Intent loss: 2981.634033203125
Dev slot loss: 78963.5888671875
Intent accuracy (dev): 0.97
Slot F1 (dev): 0.9874
Epoch 297 done.
Train Intent loss: 17.782982735327096
Train Slot loss: 21.48569905917975
Dev Intent loss: 3035.3460083007812
Dev slot loss: 79280.3896484375
Intent accuracy (dev): 0.976
Slot F1 (dev): 0.9872
Epoch 298 done.
Train Intent loss: 51.21077682227042
Train Slot loss: 68.08757100527873
Dev Intent loss: 2655.088897705078
Dev slot loss: 77785.134765625
Intent accuracy (dev): 0.976
Slot F1 (dev): 0.9873
Epoch 299 done.
Train Intent loss: 21.139970983211242
Train Slot loss: 27.542722144105937
Dev Intent loss: 3034.8916625976562
Dev slot loss: 79144.01318359375
Intent accuracy (dev): 0.972
Slot F1 (dev): 0.9887
Evaluating on test set...
Intent report
                     precision    recall  f1-score   support

  atis_abbreviation       1.00      0.94      0.97        33
      atis_aircraft       0.43      1.00      0.60         9
       atis_airfare       0.86      0.98      0.91        49
       atis_airline       0.93      1.00      0.96        38
       atis_airport       1.00      0.50      0.67        18
      atis_capacity       1.00      0.33      0.50        21
          atis_city       0.57      0.67      0.62         6
      atis_day_name       0.00      0.00      0.00         2
      atis_distance       1.00      0.80      0.89        10
        atis_flight       0.99      0.99      0.99       645
     atis_flight_no       1.00      1.00      1.00         9
   atis_flight_time       0.50      1.00      0.67         1
   atis_ground_fare       1.00      0.57      0.73         7
atis_ground_service       0.95      1.00      0.97        36
          atis_meal       0.67      0.33      0.44         6
      atis_quantity       0.27      1.00      0.43         3

           accuracy                           0.95       893
          macro avg       0.76      0.76      0.71       893
       weighted avg       0.96      0.95      0.95       893

Slot filling:
                              precision    recall  f1-score   support

             B-aircraft_code       0.81      0.64      0.71        33
              B-airline_code       0.86      0.88      0.87        34
              B-airline_name       0.98      1.00      0.99       101
              B-airport_code       0.00      0.00      0.00         9
              B-airport_name       0.89      0.38      0.53        21
 B-arrive_date.date_relative       1.00      1.00      1.00         2
      B-arrive_date.day_name       0.79      1.00      0.88        11
    B-arrive_date.day_number       0.71      0.83      0.77         6
    B-arrive_date.month_name       0.71      0.83      0.77         6
      B-arrive_time.end_time       0.88      0.88      0.88         8
 B-arrive_time.period_of_day       0.67      1.00      0.80         6
    B-arrive_time.start_time       0.70      0.88      0.78         8
          B-arrive_time.time       0.92      1.00      0.96        34
 B-arrive_time.time_relative       0.97      0.94      0.95        31
             B-booking_class       0.00      0.00      0.00         1
                 B-city_name       0.96      0.47      0.64        57
                B-class_type       0.96      1.00      0.98        24
               B-compartment       0.00      0.00      0.00         1
                   B-connect       0.86      1.00      0.92         6
             B-cost_relative       1.00      0.97      0.99        37
                  B-day_name       0.00      0.00      0.00         2
                 B-days_code       0.00      0.00      0.00         1
 B-depart_date.date_relative       0.94      1.00      0.97        17
      B-depart_date.day_name       0.98      0.99      0.99       212
    B-depart_date.day_number       0.98      0.96      0.97        55
    B-depart_date.month_name       0.98      0.96      0.97        56
B-depart_date.today_relative       1.00      0.89      0.94         9
          B-depart_date.year       1.00      0.33      0.50         3
      B-depart_time.end_time       1.00      0.67      0.80         3
    B-depart_time.period_mod       0.71      1.00      0.83         5
 B-depart_time.period_of_day       1.00      0.90      0.95       130
    B-depart_time.start_time       1.00      0.67      0.80         3
          B-depart_time.time       0.85      1.00      0.92        57
 B-depart_time.time_relative       0.98      0.97      0.98        65
                   B-economy       1.00      1.00      1.00         6
               B-fare_amount       1.00      0.50      0.67         2
           B-fare_basis_code       0.89      1.00      0.94        17
                    B-flight       0.00      0.00      0.00         1
               B-flight_days       1.00      1.00      1.00        10
                B-flight_mod       1.00      1.00      1.00        24
             B-flight_number       0.85      1.00      0.92        11
               B-flight_stop       1.00      1.00      1.00        21
               B-flight_time       0.50      1.00      0.67         1
      B-fromloc.airport_code       0.71      1.00      0.83         5
      B-fromloc.airport_name       0.44      1.00      0.62        12
         B-fromloc.city_name       0.98      1.00      0.99       704
        B-fromloc.state_code       1.00      1.00      1.00        23
        B-fromloc.state_name       1.00      1.00      1.00        17
                      B-meal       0.94      1.00      0.97        16
                 B-meal_code       0.00      0.00      0.00         1
          B-meal_description       1.00      0.90      0.95        10
                       B-mod       0.50      0.50      0.50         2
                        B-or       0.43      1.00      0.60         3
             B-period_of_day       1.00      0.25      0.40         4
          B-restriction_code       1.00      1.00      1.00         4
 B-return_date.date_relative       0.50      0.33      0.40         3
      B-return_date.day_name       0.00      0.00      0.00         2
                B-round_trip       1.00      0.99      0.99        73
                B-state_code       0.50      1.00      0.67         1
                B-state_name       0.00      0.00      0.00         9
      B-stoploc.airport_code       0.00      0.00      0.00         1
         B-stoploc.city_name       1.00      1.00      1.00        20
        B-toloc.airport_code       0.50      0.50      0.50         4
        B-toloc.airport_name       0.50      0.33      0.40         3
           B-toloc.city_name       0.97      0.99      0.98       716
        B-toloc.country_name       1.00      1.00      1.00         1
          B-toloc.state_code       1.00      1.00      1.00        18
          B-toloc.state_name       0.96      0.93      0.95        28
            B-transport_type       0.91      1.00      0.95        10
              I-airline_name       1.00      1.00      1.00        65
              I-airport_name       0.85      0.38      0.52        29
    I-arrive_date.day_number       0.00      0.00      0.00         0
      I-arrive_time.end_time       0.88      0.88      0.88         8
    I-arrive_time.start_time       1.00      1.00      1.00         1
          I-arrive_time.time       0.97      0.97      0.97        35
 I-arrive_time.time_relative       1.00      1.00      1.00         4
                 I-city_name       1.00      0.37      0.54        30
                I-class_type       1.00      1.00      1.00        17
             I-cost_relative       1.00      0.67      0.80         3
    I-depart_date.day_number       1.00      0.93      0.97        15
      I-depart_time.end_time       1.00      0.67      0.80         3
 I-depart_time.period_of_day       1.00      1.00      1.00         1
    I-depart_time.start_time       1.00      1.00      1.00         1
          I-depart_time.time       0.96      1.00      0.98        52
 I-depart_time.time_relative       0.00      0.00      0.00         1
                   I-economy       0.00      0.00      0.00         0
               I-fare_amount       1.00      1.00      1.00         2
                I-flight_mod       1.00      0.17      0.29         6
             I-flight_number       0.00      0.00      0.00         1
               I-flight_time       1.00      1.00      1.00         1
      I-fromloc.airport_name       0.44      1.00      0.61        15
         I-fromloc.city_name       0.92      0.99      0.96       177
        I-fromloc.state_name       1.00      1.00      1.00         1
                 I-meal_code       0.00      0.00      0.00         0
          I-restriction_code       1.00      0.67      0.80         3
 I-return_date.date_relative       0.75      1.00      0.86         3
                I-round_trip       1.00      1.00      1.00        71
                I-state_name       0.00      0.00      0.00         1
         I-stoploc.city_name       1.00      1.00      1.00        10
        I-toloc.airport_name       0.75      1.00      0.86         3
           I-toloc.city_name       0.98      0.98      0.98       265
          I-toloc.state_name       1.00      1.00      1.00         1
            I-transport_type       0.00      0.00      0.00         1
                           O       0.99      1.00      1.00      5501

                    accuracy                           0.98      9164
                   macro avg       0.75      0.73      0.72      9164
                weighted avg       0.98      0.98      0.97      9164

Intent accuracy (test): 0.9485
Slot F1 (test): 0.9739
