Logging to ./experiments/exp2/2enc.2dec.0.6dropout.25epochs.log
Chosen device not a CPU! Setting CUDA tensors as default...
Epoch 0 done.
Train Intent loss: 5640.66149520874
Train Slot loss: 107415.18688964844
Dev Intent loss: 630.4354476928711
Dev slot loss: 10237.12744140625
Intent accuracy (dev): 0.718
Slot F1 (dev): 0.4892
Epoch 1 done.
Train Intent loss: 5038.537143707275
Train Slot loss: 68972.21838378906
Dev Intent loss: 613.2786750793457
Dev slot loss: 11881.074096679688
Intent accuracy (dev): 0.718
Slot F1 (dev): 0.7017
Epoch 2 done.
Train Intent loss: 5029.1146240234375
Train Slot loss: 48392.203857421875
Dev Intent loss: 611.1862716674805
Dev slot loss: 16434.443969726562
Intent accuracy (dev): 0.718
Slot F1 (dev): 0.7408
Epoch 3 done.
Train Intent loss: 5021.596103668213
Train Slot loss: 36386.330627441406
Dev Intent loss: 616.0046043395996
Dev slot loss: 20023.64013671875
Intent accuracy (dev): 0.718
Slot F1 (dev): 0.8003
Epoch 4 done.
Train Intent loss: 5018.747783660889
Train Slot loss: 30359.782104492188
Dev Intent loss: 608.6217346191406
Dev slot loss: 22269.652587890625
Intent accuracy (dev): 0.718
Slot F1 (dev): 0.8418
Epoch 5 done.
Train Intent loss: 4955.144187927246
Train Slot loss: 25352.59765625
Dev Intent loss: 616.5038757324219
Dev slot loss: 25051.469970703125
Intent accuracy (dev): 0.718
Slot F1 (dev): 0.8605
Epoch 6 done.
Train Intent loss: 4939.986431121826
Train Slot loss: 21714.775161743164
Dev Intent loss: 599.1633529663086
Dev slot loss: 27853.83203125
Intent accuracy (dev): 0.718
Slot F1 (dev): 0.8736
Epoch 7 done.
Train Intent loss: 4471.236389160156
Train Slot loss: 18810.528442382812
Dev Intent loss: 651.1862640380859
Dev slot loss: 28224.645751953125
Intent accuracy (dev): 0.722
Slot F1 (dev): 0.8924
Epoch 8 done.
Train Intent loss: 3909.345344543457
Train Slot loss: 16401.388626098633
Dev Intent loss: 603.4698600769043
Dev slot loss: 28975.95703125
Intent accuracy (dev): 0.758
Slot F1 (dev): 0.9027
Epoch 9 done.
Train Intent loss: 3891.456705093384
Train Slot loss: 14172.538009643555
Dev Intent loss: 529.6654777526855
Dev slot loss: 29876.831787109375
Intent accuracy (dev): 0.76
Slot F1 (dev): 0.9131
Epoch 10 done.
Train Intent loss: 3510.092752456665
Train Slot loss: 12183.084968566895
Dev Intent loss: 701.9971618652344
Dev slot loss: 31670.65771484375
Intent accuracy (dev): 0.758
Slot F1 (dev): 0.9217
Epoch 11 done.
Train Intent loss: 3025.9378414154053
Train Slot loss: 10517.598434448242
Dev Intent loss: 707.9293060302734
Dev slot loss: 31769.10498046875
Intent accuracy (dev): 0.798
Slot F1 (dev): 0.932
Epoch 12 done.
Train Intent loss: 2566.7320041656494
Train Slot loss: 9250.049034118652
Dev Intent loss: 939.032585144043
Dev slot loss: 32992.180419921875
Intent accuracy (dev): 0.814
Slot F1 (dev): 0.9388
Epoch 13 done.
Train Intent loss: 2304.6929454803467
Train Slot loss: 7971.551231384277
Dev Intent loss: 924.5323791503906
Dev slot loss: 33433.437744140625
Intent accuracy (dev): 0.832
Slot F1 (dev): 0.9494
Epoch 14 done.
Train Intent loss: 2038.2162046432495
Train Slot loss: 6939.684803009033
Dev Intent loss: 999.3787384033203
Dev slot loss: 33871.41748046875
Intent accuracy (dev): 0.824
Slot F1 (dev): 0.9536
Epoch 15 done.
Train Intent loss: 1923.836127281189
Train Slot loss: 5891.352565765381
Dev Intent loss: 941.3421173095703
Dev slot loss: 35044.644287109375
Intent accuracy (dev): 0.842
Slot F1 (dev): 0.9594
Epoch 16 done.
Train Intent loss: 1798.2234044075012
Train Slot loss: 4990.285160064697
Dev Intent loss: 914.9980850219727
Dev slot loss: 36360.392822265625
Intent accuracy (dev): 0.854
Slot F1 (dev): 0.9642
Epoch 17 done.
Train Intent loss: 1685.3630619049072
Train Slot loss: 4158.953176498413
Dev Intent loss: 1035.0284042358398
Dev slot loss: 36983.129150390625
Intent accuracy (dev): 0.866
Slot F1 (dev): 0.9722
Epoch 18 done.
Train Intent loss: 1503.2437663078308
Train Slot loss: 3557.289083480835
Dev Intent loss: 1010.2958984375
Dev slot loss: 38241.926513671875
Intent accuracy (dev): 0.842
Slot F1 (dev): 0.9704
Epoch 19 done.
Train Intent loss: 1365.499240398407
Train Slot loss: 3010.124237060547
Dev Intent loss: 1000.5990524291992
Dev slot loss: 38360.8232421875
Intent accuracy (dev): 0.848
Slot F1 (dev): 0.9772
Epoch 20 done.
Train Intent loss: 1162.2117071151733
Train Slot loss: 2594.5540084838867
Dev Intent loss: 1104.0112838745117
Dev slot loss: 39330.262451171875
Intent accuracy (dev): 0.866
Slot F1 (dev): 0.9797
Epoch 21 done.
Train Intent loss: 1197.1467554569244
Train Slot loss: 2152.759832382202
Dev Intent loss: 939.9658203125
Dev slot loss: 39564.274658203125
Intent accuracy (dev): 0.862
Slot F1 (dev): 0.9793
Epoch 22 done.
Train Intent loss: 1023.0669543743134
Train Slot loss: 1868.063714981079
Dev Intent loss: 1110.0459747314453
Dev slot loss: 40455.89404296875
Intent accuracy (dev): 0.89
Slot F1 (dev): 0.9803
Epoch 23 done.
Train Intent loss: 909.5871416330338
Train Slot loss: 1629.1761541366577
Dev Intent loss: 1235.7722930908203
Dev slot loss: 41608.28857421875
Intent accuracy (dev): 0.88
Slot F1 (dev): 0.9805
Epoch 24 done.
Train Intent loss: 881.3381118774414
Train Slot loss: 1439.1116466522217
Dev Intent loss: 1150.8596115112305
Dev slot loss: 42096.8759765625
Intent accuracy (dev): 0.886
Slot F1 (dev): 0.979
Evaluating on test set...
Intent report
                     precision    recall  f1-score   support

  atis_abbreviation       0.00      0.00      0.00        33
      atis_aircraft       0.25      0.78      0.38         9
       atis_airfare       0.98      0.98      0.98        49
       atis_airline       0.67      0.92      0.78        38
       atis_airport       0.00      0.00      0.00        18
      atis_capacity       0.00      0.00      0.00        21
          atis_city       1.00      0.17      0.29         6
      atis_day_name       0.00      0.00      0.00         2
      atis_distance       0.00      0.00      0.00        10
        atis_flight       0.98      0.98      0.98       645
     atis_flight_no       0.00      0.00      0.00         9
   atis_flight_time       0.00      0.00      0.00         1
   atis_ground_fare       0.00      0.00      0.00         7
atis_ground_service       0.38      0.94      0.54        36
          atis_meal       0.00      0.00      0.00         6
      atis_quantity       0.00      0.00      0.00         3

           accuracy                           0.85       893
          macro avg       0.27      0.30      0.25       893
       weighted avg       0.81      0.85      0.82       893

Slot filling:
                              precision    recall  f1-score   support

             B-aircraft_code       0.92      0.33      0.49        33
              B-airline_code       0.93      0.74      0.82        34
              B-airline_name       1.00      0.96      0.98       101
              B-airport_code       0.20      0.44      0.28         9
              B-airport_name       0.86      0.29      0.43        21
 B-arrive_date.date_relative       0.00      0.00      0.00         2
      B-arrive_date.day_name       0.79      1.00      0.88        11
    B-arrive_date.day_number       1.00      0.67      0.80         6
    B-arrive_date.month_name       0.40      0.67      0.50         6
      B-arrive_time.end_time       0.78      0.88      0.82         8
 B-arrive_time.period_of_day       0.83      0.83      0.83         6
    B-arrive_time.start_time       1.00      0.88      0.93         8
          B-arrive_time.time       0.92      1.00      0.96        34
 B-arrive_time.time_relative       0.97      0.97      0.97        31
             B-booking_class       0.00      0.00      0.00         1
                 B-city_name       0.71      0.51      0.59        57
                B-class_type       0.89      1.00      0.94        24
               B-compartment       0.00      0.00      0.00         1
                   B-connect       0.86      1.00      0.92         6
             B-cost_relative       1.00      0.97      0.99        37
                  B-day_name       0.00      0.00      0.00         2
                 B-days_code       0.00      0.00      0.00         1
 B-depart_date.date_relative       0.74      1.00      0.85        17
      B-depart_date.day_name       0.98      0.98      0.98       212
    B-depart_date.day_number       0.95      1.00      0.97        55
    B-depart_date.month_name       0.95      0.93      0.94        56
B-depart_date.today_relative       0.88      0.78      0.82         9
          B-depart_date.year       1.00      1.00      1.00         3
      B-depart_time.end_time       1.00      0.33      0.50         3
    B-depart_time.period_mod       0.75      0.60      0.67         5
 B-depart_time.period_of_day       0.97      0.90      0.94       130
    B-depart_time.start_time       1.00      1.00      1.00         3
          B-depart_time.time       0.85      0.98      0.91        57
 B-depart_time.time_relative       0.94      0.95      0.95        65
                   B-economy       0.50      0.17      0.25         6
               B-fare_amount       0.20      0.50      0.29         2
           B-fare_basis_code       0.64      0.82      0.72        17
                    B-flight       0.00      0.00      0.00         1
               B-flight_days       1.00      0.80      0.89        10
                B-flight_mod       0.92      0.96      0.94        24
             B-flight_number       0.52      1.00      0.69        11
               B-flight_stop       1.00      1.00      1.00        21
               B-flight_time       0.20      1.00      0.33         1
      B-fromloc.airport_code       0.50      0.80      0.62         5
      B-fromloc.airport_name       0.42      0.67      0.52        12
         B-fromloc.city_name       0.98      1.00      0.99       704
        B-fromloc.state_code       1.00      1.00      1.00        23
        B-fromloc.state_name       1.00      1.00      1.00        17
                      B-meal       0.90      0.56      0.69        16
                 B-meal_code       0.00      0.00      0.00         1
          B-meal_description       0.60      0.60      0.60        10
                       B-mod       0.00      0.00      0.00         2
                        B-or       0.50      1.00      0.67         3
             B-period_of_day       0.00      0.00      0.00         4
          B-restriction_code       1.00      1.00      1.00         4
 B-return_date.date_relative       0.50      0.33      0.40         3
      B-return_date.day_name       0.00      0.00      0.00         2
                B-round_trip       0.99      0.97      0.98        73
                B-state_code       0.50      1.00      0.67         1
                B-state_name       0.00      0.00      0.00         9
      B-stoploc.airport_code       0.00      0.00      0.00         1
         B-stoploc.city_name       1.00      0.95      0.97        20
        B-toloc.airport_code       0.40      0.50      0.44         4
        B-toloc.airport_name       0.33      0.33      0.33         3
           B-toloc.city_name       0.97      0.99      0.98       716
        B-toloc.country_name       0.00      0.00      0.00         1
          B-toloc.state_code       0.95      1.00      0.97        18
          B-toloc.state_name       0.83      0.89      0.86        28
            B-transport_type       0.91      1.00      0.95        10
              I-airline_name       0.95      0.97      0.96        65
              I-airport_name       0.89      0.28      0.42        29
      I-arrive_time.end_time       0.78      0.88      0.82         8
    I-arrive_time.start_time       1.00      1.00      1.00         1
          I-arrive_time.time       0.90      1.00      0.95        35
 I-arrive_time.time_relative       0.00      0.00      0.00         4
                 I-city_name       0.71      0.33      0.45        30
                I-class_type       0.94      1.00      0.97        17
             I-cost_relative       1.00      0.67      0.80         3
    I-depart_date.day_number       0.88      1.00      0.94        15
I-depart_date.today_relative       0.00      0.00      0.00         0
      I-depart_time.end_time       1.00      0.33      0.50         3
 I-depart_time.period_of_day       1.00      1.00      1.00         1
    I-depart_time.start_time       1.00      1.00      1.00         1
          I-depart_time.time       1.00      1.00      1.00        52
 I-depart_time.time_relative       0.00      0.00      0.00         1
               I-fare_amount       0.50      1.00      0.67         2
                I-flight_mod       0.00      0.00      0.00         6
             I-flight_number       0.00      0.00      0.00         1
               I-flight_stop       0.00      0.00      0.00         0
               I-flight_time       1.00      1.00      1.00         1
      I-fromloc.airport_name       0.39      0.87      0.54        15
         I-fromloc.city_name       0.91      1.00      0.95       177
        I-fromloc.state_name       1.00      1.00      1.00         1
                 I-meal_code       0.00      0.00      0.00         0
          I-restriction_code       0.75      1.00      0.86         3
 I-return_date.date_relative       1.00      0.33      0.50         3
                I-round_trip       0.99      1.00      0.99        71
                I-state_name       0.00      0.00      0.00         1
         I-stoploc.city_name       0.91      1.00      0.95        10
        I-toloc.airport_name       1.00      0.67      0.80         3
           I-toloc.city_name       0.98      0.98      0.98       265
          I-toloc.state_name       1.00      1.00      1.00         1
            I-transport_type       0.00      0.00      0.00         1
                           O       1.00      0.99      1.00      5501

                    accuracy                           0.97      9164
                   macro avg       0.65      0.65      0.63      9164
                weighted avg       0.97      0.97      0.97      9164

Intent accuracy (test): 0.8511
Slot F1 (test): 0.9653
