Logging to ./experiments/exp2/2enc.2dec.0.4dropout.100epochs.log
Chosen device not a CPU! Setting CUDA tensors as default...
Epoch 0 done.
Train Intent loss: 5507.717266082764
Train Slot loss: 106319.69067382812
Dev Intent loss: 617.7233390808105
Dev slot loss: 10102.460327148438
Intent accuracy (dev): 0.718
Slot F1 (dev): 0.4892
Epoch 1 done.
Train Intent loss: 4938.607177734375
Train Slot loss: 67280.81134033203
Dev Intent loss: 587.2191848754883
Dev slot loss: 11724.8564453125
Intent accuracy (dev): 0.718
Slot F1 (dev): 0.7049
Epoch 2 done.
Train Intent loss: 3961.6125564575195
Train Slot loss: 45374.14715576172
Dev Intent loss: 602.8191452026367
Dev slot loss: 16772.483764648438
Intent accuracy (dev): 0.718
Slot F1 (dev): 0.7697
Epoch 3 done.
Train Intent loss: 2832.9863052368164
Train Slot loss: 33742.21896362305
Dev Intent loss: 709.7751083374023
Dev slot loss: 20137.274536132812
Intent accuracy (dev): 0.774
Slot F1 (dev): 0.8147
Epoch 4 done.
Train Intent loss: 2279.5657596588135
Train Slot loss: 27466.588958740234
Dev Intent loss: 849.9080276489258
Dev slot loss: 23874.064453125
Intent accuracy (dev): 0.804
Slot F1 (dev): 0.8463
Epoch 5 done.
Train Intent loss: 2044.0066814422607
Train Slot loss: 22110.41815185547
Dev Intent loss: 921.0574340820312
Dev slot loss: 25415.19580078125
Intent accuracy (dev): 0.818
Slot F1 (dev): 0.8732
Epoch 6 done.
Train Intent loss: 1797.5019445419312
Train Slot loss: 17486.867462158203
Dev Intent loss: 950.83203125
Dev slot loss: 27592.126708984375
Intent accuracy (dev): 0.826
Slot F1 (dev): 0.8923
Epoch 7 done.
Train Intent loss: 1642.0289731025696
Train Slot loss: 13626.303367614746
Dev Intent loss: 1043.529037475586
Dev slot loss: 28598.94384765625
Intent accuracy (dev): 0.814
Slot F1 (dev): 0.9066
Epoch 8 done.
Train Intent loss: 1470.1282286643982
Train Slot loss: 10980.778396606445
Dev Intent loss: 887.6232299804688
Dev slot loss: 30526.825439453125
Intent accuracy (dev): 0.838
Slot F1 (dev): 0.9377
Epoch 9 done.
Train Intent loss: 1220.8474516868591
Train Slot loss: 8581.057075500488
Dev Intent loss: 960.0402450561523
Dev slot loss: 31965.459228515625
Intent accuracy (dev): 0.8
Slot F1 (dev): 0.9485
Epoch 10 done.
Train Intent loss: 1151.0795249938965
Train Slot loss: 6755.161121368408
Dev Intent loss: 1032.7578430175781
Dev slot loss: 33931.51904296875
Intent accuracy (dev): 0.842
Slot F1 (dev): 0.9542
Epoch 11 done.
Train Intent loss: 1044.8268699645996
Train Slot loss: 5380.292320251465
Dev Intent loss: 927.5970840454102
Dev slot loss: 33726.38330078125
Intent accuracy (dev): 0.848
Slot F1 (dev): 0.9624
Epoch 12 done.
Train Intent loss: 917.0547057390213
Train Slot loss: 4271.154216766357
Dev Intent loss: 1099.3389053344727
Dev slot loss: 34974.221435546875
Intent accuracy (dev): 0.86
Slot F1 (dev): 0.9694
Epoch 13 done.
Train Intent loss: 815.292804479599
Train Slot loss: 3441.737398147583
Dev Intent loss: 1206.1299667358398
Dev slot loss: 34918.67724609375
Intent accuracy (dev): 0.888
Slot F1 (dev): 0.9696
Epoch 14 done.
Train Intent loss: 733.5681644678116
Train Slot loss: 2752.4206504821777
Dev Intent loss: 1223.0233993530273
Dev slot loss: 36535.45166015625
Intent accuracy (dev): 0.846
Slot F1 (dev): 0.9733
Epoch 15 done.
Train Intent loss: 675.5917401313782
Train Slot loss: 2174.1639642715454
Dev Intent loss: 1251.526222229004
Dev slot loss: 37372.865966796875
Intent accuracy (dev): 0.874
Slot F1 (dev): 0.976
Epoch 16 done.
Train Intent loss: 630.6339467763901
Train Slot loss: 1851.0431451797485
Dev Intent loss: 1233.9568176269531
Dev slot loss: 38305.080078125
Intent accuracy (dev): 0.868
Slot F1 (dev): 0.9773
Epoch 17 done.
Train Intent loss: 517.0172027945518
Train Slot loss: 1404.8390588760376
Dev Intent loss: 1336.2263488769531
Dev slot loss: 38789.9580078125
Intent accuracy (dev): 0.908
Slot F1 (dev): 0.978
Epoch 18 done.
Train Intent loss: 488.195728123188
Train Slot loss: 1285.788106918335
Dev Intent loss: 1341.1915435791016
Dev slot loss: 39483.58642578125
Intent accuracy (dev): 0.922
Slot F1 (dev): 0.9791
Epoch 19 done.
Train Intent loss: 409.38120821118355
Train Slot loss: 1070.7671179771423
Dev Intent loss: 1257.4211196899414
Dev slot loss: 40653.55126953125
Intent accuracy (dev): 0.866
Slot F1 (dev): 0.9797
Epoch 20 done.
Train Intent loss: 371.28960813581944
Train Slot loss: 865.4097876548767
Dev Intent loss: 1366.2992324829102
Dev slot loss: 40933.55224609375
Intent accuracy (dev): 0.906
Slot F1 (dev): 0.9807
Epoch 21 done.
Train Intent loss: 361.9893502742052
Train Slot loss: 710.0736770629883
Dev Intent loss: 1473.4978637695312
Dev slot loss: 41102.57470703125
Intent accuracy (dev): 0.882
Slot F1 (dev): 0.9794
Epoch 22 done.
Train Intent loss: 398.15281139314175
Train Slot loss: 629.4224696159363
Dev Intent loss: 1362.9006271362305
Dev slot loss: 43197.91748046875
Intent accuracy (dev): 0.908
Slot F1 (dev): 0.9807
Epoch 23 done.
Train Intent loss: 360.4642784744501
Train Slot loss: 538.6820149421692
Dev Intent loss: 1440.837158203125
Dev slot loss: 42412.197265625
Intent accuracy (dev): 0.908
Slot F1 (dev): 0.9813
Epoch 24 done.
Train Intent loss: 306.89251767098904
Train Slot loss: 489.14281010627747
Dev Intent loss: 1377.3042526245117
Dev slot loss: 44115.75048828125
Intent accuracy (dev): 0.906
Slot F1 (dev): 0.9808
Epoch 25 done.
Train Intent loss: 315.2836047112942
Train Slot loss: 408.7877541780472
Dev Intent loss: 1367.1914901733398
Dev slot loss: 45430.78564453125
Intent accuracy (dev): 0.904
Slot F1 (dev): 0.9814
Epoch 26 done.
Train Intent loss: 292.0720181018114
Train Slot loss: 377.0338214635849
Dev Intent loss: 1496.6956939697266
Dev slot loss: 44601.44140625
Intent accuracy (dev): 0.928
Slot F1 (dev): 0.9818
Epoch 27 done.
Train Intent loss: 318.76415134221315
Train Slot loss: 306.5330002307892
Dev Intent loss: 1468.2583618164062
Dev slot loss: 45954.58837890625
Intent accuracy (dev): 0.92
Slot F1 (dev): 0.9849
Epoch 28 done.
Train Intent loss: 270.61218190193176
Train Slot loss: 244.9757850766182
Dev Intent loss: 1603.1942443847656
Dev slot loss: 46910.58935546875
Intent accuracy (dev): 0.902
Slot F1 (dev): 0.9831
Epoch 29 done.
Train Intent loss: 225.383982591331
Train Slot loss: 220.12015825510025
Dev Intent loss: 1569.5355377197266
Dev slot loss: 46370.169921875
Intent accuracy (dev): 0.934
Slot F1 (dev): 0.9832
Epoch 30 done.
Train Intent loss: 205.51099042594433
Train Slot loss: 239.45756477117538
Dev Intent loss: 1551.6275939941406
Dev slot loss: 47189.98681640625
Intent accuracy (dev): 0.928
Slot F1 (dev): 0.9831
Epoch 31 done.
Train Intent loss: 174.75115264952183
Train Slot loss: 219.91708999872208
Dev Intent loss: 1690.1565246582031
Dev slot loss: 48260.78173828125
Intent accuracy (dev): 0.912
Slot F1 (dev): 0.9846
Epoch 32 done.
Train Intent loss: 143.94940365478396
Train Slot loss: 269.2674729824066
Dev Intent loss: 1788.9840393066406
Dev slot loss: 47996.57177734375
Intent accuracy (dev): 0.948
Slot F1 (dev): 0.9811
Epoch 33 done.
Train Intent loss: 107.9710802193731
Train Slot loss: 280.19472593069077
Dev Intent loss: 1778.8048706054688
Dev slot loss: 48322.27880859375
Intent accuracy (dev): 0.928
Slot F1 (dev): 0.9854
Epoch 34 done.
Train Intent loss: 108.39827227592468
Train Slot loss: 204.57100480794907
Dev Intent loss: 1872.283432006836
Dev slot loss: 49790.4013671875
Intent accuracy (dev): 0.92
Slot F1 (dev): 0.9844
Epoch 35 done.
Train Intent loss: 136.25465857610106
Train Slot loss: 213.5224770307541
Dev Intent loss: 1880.0514373779297
Dev slot loss: 50240.00146484375
Intent accuracy (dev): 0.928
Slot F1 (dev): 0.9826
Epoch 36 done.
Train Intent loss: 122.7047933107242
Train Slot loss: 202.63867431879044
Dev Intent loss: 1923.977783203125
Dev slot loss: 51065.1318359375
Intent accuracy (dev): 0.932
Slot F1 (dev): 0.9853
Epoch 37 done.
Train Intent loss: 117.14087940007448
Train Slot loss: 193.91429609060287
Dev Intent loss: 2079.00439453125
Dev slot loss: 50598.89599609375
Intent accuracy (dev): 0.922
Slot F1 (dev): 0.9856
Epoch 38 done.
Train Intent loss: 114.96402641758323
Train Slot loss: 160.7722037434578
Dev Intent loss: 1990.472640991211
Dev slot loss: 51022.5576171875
Intent accuracy (dev): 0.938
Slot F1 (dev): 0.9829
Epoch 39 done.
Train Intent loss: 81.31713115423918
Train Slot loss: 150.52566862106323
Dev Intent loss: 1990.2267456054688
Dev slot loss: 52376.89013671875
Intent accuracy (dev): 0.91
Slot F1 (dev): 0.9856
Epoch 40 done.
Train Intent loss: 114.8755848519504
Train Slot loss: 136.6898937523365
Dev Intent loss: 1790.2563934326172
Dev slot loss: 52211.75390625
Intent accuracy (dev): 0.942
Slot F1 (dev): 0.9828
Epoch 41 done.
Train Intent loss: 164.22448362596333
Train Slot loss: 123.94470487535
Dev Intent loss: 1687.8954162597656
Dev slot loss: 52701.07666015625
Intent accuracy (dev): 0.94
Slot F1 (dev): 0.984
Epoch 42 done.
Train Intent loss: 95.29454647749662
Train Slot loss: 135.37503245472908
Dev Intent loss: 1867.4147491455078
Dev slot loss: 53867.7724609375
Intent accuracy (dev): 0.934
Slot F1 (dev): 0.983
Epoch 43 done.
Train Intent loss: 121.39622680004686
Train Slot loss: 166.4117349088192
Dev Intent loss: 1798.5286560058594
Dev slot loss: 53494.04541015625
Intent accuracy (dev): 0.934
Slot F1 (dev): 0.9824
Epoch 44 done.
Train Intent loss: 54.24488747958094
Train Slot loss: 177.24114987254143
Dev Intent loss: 1887.9494934082031
Dev slot loss: 55039.24169921875
Intent accuracy (dev): 0.928
Slot F1 (dev): 0.9845
Epoch 45 done.
Train Intent loss: 85.32704426907003
Train Slot loss: 164.02925464510918
Dev Intent loss: 1790.8426971435547
Dev slot loss: 55789.73828125
Intent accuracy (dev): 0.934
Slot F1 (dev): 0.984
Epoch 46 done.
Train Intent loss: 94.58485290408134
Train Slot loss: 135.60803972929716
Dev Intent loss: 1821.5419311523438
Dev slot loss: 55094.10205078125
Intent accuracy (dev): 0.928
Slot F1 (dev): 0.9844
Epoch 47 done.
Train Intent loss: 97.11449855472893
Train Slot loss: 164.5643101632595
Dev Intent loss: 1739.1532897949219
Dev slot loss: 55153.20458984375
Intent accuracy (dev): 0.928
Slot F1 (dev): 0.9846
Epoch 48 done.
Train Intent loss: 84.79863230977207
Train Slot loss: 155.7234749495983
Dev Intent loss: 1890.4138641357422
Dev slot loss: 55530.67822265625
Intent accuracy (dev): 0.934
Slot F1 (dev): 0.9829
Epoch 49 done.
Train Intent loss: 150.2286682073027
Train Slot loss: 103.13104635477066
Dev Intent loss: 1697.4806671142578
Dev slot loss: 54334.05419921875
Intent accuracy (dev): 0.922
Slot F1 (dev): 0.9851
Epoch 50 done.
Train Intent loss: 110.70519883558154
Train Slot loss: 88.41146720200777
Dev Intent loss: 1732.8872833251953
Dev slot loss: 56675.6630859375
Intent accuracy (dev): 0.92
Slot F1 (dev): 0.9849
Epoch 51 done.
Train Intent loss: 73.86599280592054
Train Slot loss: 95.45559125393629
Dev Intent loss: 1877.2328796386719
Dev slot loss: 56584.375
Intent accuracy (dev): 0.904
Slot F1 (dev): 0.9842
Epoch 52 done.
Train Intent loss: 56.121055353432894
Train Slot loss: 148.43213620781898
Dev Intent loss: 1879.3314361572266
Dev slot loss: 57573.59326171875
Intent accuracy (dev): 0.912
Slot F1 (dev): 0.9845
Epoch 53 done.
Train Intent loss: 39.80633283779025
Train Slot loss: 148.13773003965616
Dev Intent loss: 1900.3029479980469
Dev slot loss: 58072.32177734375
Intent accuracy (dev): 0.926
Slot F1 (dev): 0.9839
Epoch 54 done.
Train Intent loss: 65.88116438081488
Train Slot loss: 147.80749701708555
Dev Intent loss: 2011.2999877929688
Dev slot loss: 56701.66455078125
Intent accuracy (dev): 0.93
Slot F1 (dev): 0.9829
Epoch 55 done.
Train Intent loss: 71.33572336472571
Train Slot loss: 148.4585029259324
Dev Intent loss: 1986.9517364501953
Dev slot loss: 57260.66015625
Intent accuracy (dev): 0.926
Slot F1 (dev): 0.9845
Epoch 56 done.
Train Intent loss: 98.8452438316308
Train Slot loss: 100.51254563778639
Dev Intent loss: 2057.3182678222656
Dev slot loss: 57757.50537109375
Intent accuracy (dev): 0.938
Slot F1 (dev): 0.9845
Epoch 57 done.
Train Intent loss: 93.7460099356249
Train Slot loss: 94.57603375986218
Dev Intent loss: 2204.69140625
Dev slot loss: 57555.294921875
Intent accuracy (dev): 0.948
Slot F1 (dev): 0.9846
Epoch 58 done.
Train Intent loss: 87.47789608128369
Train Slot loss: 86.1738620698452
Dev Intent loss: 1946.2509078979492
Dev slot loss: 59516.35693359375
Intent accuracy (dev): 0.936
Slot F1 (dev): 0.9869
Epoch 59 done.
Train Intent loss: 119.59204951999709
Train Slot loss: 70.18035461008549
Dev Intent loss: 2065.2714233398438
Dev slot loss: 57477.05029296875
Intent accuracy (dev): 0.928
Slot F1 (dev): 0.9843
Epoch 60 done.
Train Intent loss: 89.85299501288682
Train Slot loss: 102.01677299290895
Dev Intent loss: 1767.1837921142578
Dev slot loss: 58094.1376953125
Intent accuracy (dev): 0.932
Slot F1 (dev): 0.984
Epoch 61 done.
Train Intent loss: 127.10642640758306
Train Slot loss: 59.71283933147788
Dev Intent loss: 1711.9972076416016
Dev slot loss: 57593.11279296875
Intent accuracy (dev): 0.92
Slot F1 (dev): 0.9841
Epoch 62 done.
Train Intent loss: 57.608452185988426
Train Slot loss: 89.2566027007997
Dev Intent loss: 1821.2718200683594
Dev slot loss: 59233.6787109375
Intent accuracy (dev): 0.934
Slot F1 (dev): 0.9849
Epoch 63 done.
Train Intent loss: 69.7142068054527
Train Slot loss: 102.03366716206074
Dev Intent loss: 1843.4703979492188
Dev slot loss: 59055.98095703125
Intent accuracy (dev): 0.94
Slot F1 (dev): 0.984
Epoch 64 done.
Train Intent loss: 49.63546860963106
Train Slot loss: 116.22943250089884
Dev Intent loss: 1880.6700592041016
Dev slot loss: 60471.1689453125
Intent accuracy (dev): 0.95
Slot F1 (dev): 0.9833
Epoch 65 done.
Train Intent loss: 66.75504120625556
Train Slot loss: 120.92977448925376
Dev Intent loss: 1863.823715209961
Dev slot loss: 59856.6865234375
Intent accuracy (dev): 0.938
Slot F1 (dev): 0.9845
Epoch 66 done.
Train Intent loss: 46.59687779005617
Train Slot loss: 144.24955420941114
Dev Intent loss: 1779.6850357055664
Dev slot loss: 59099.408203125
Intent accuracy (dev): 0.942
Slot F1 (dev): 0.9849
Epoch 67 done.
Train Intent loss: 44.872434810269624
Train Slot loss: 144.97329387813807
Dev Intent loss: 2176.753128051758
Dev slot loss: 60205.84375
Intent accuracy (dev): 0.916
Slot F1 (dev): 0.9847
Epoch 68 done.
Train Intent loss: 125.1379419490695
Train Slot loss: 106.79148373939097
Dev Intent loss: 1877.5561218261719
Dev slot loss: 61187.2568359375
Intent accuracy (dev): 0.924
Slot F1 (dev): 0.9852
Epoch 69 done.
Train Intent loss: 99.72559019876644
Train Slot loss: 64.71488568931818
Dev Intent loss: 1712.3806762695312
Dev slot loss: 60809.00390625
Intent accuracy (dev): 0.932
Slot F1 (dev): 0.9854
Epoch 70 done.
Train Intent loss: 149.6993177132681
Train Slot loss: 92.71469348296523
Dev Intent loss: 1912.8669738769531
Dev slot loss: 61830.12939453125
Intent accuracy (dev): 0.896
Slot F1 (dev): 0.9856
Epoch 71 done.
Train Intent loss: 55.27773583121598
Train Slot loss: 66.33789764717221
Dev Intent loss: 1977.0611267089844
Dev slot loss: 62045.23583984375
Intent accuracy (dev): 0.918
Slot F1 (dev): 0.9847
Epoch 72 done.
Train Intent loss: 56.19387706834823
Train Slot loss: 77.83544620126486
Dev Intent loss: 1861.1697235107422
Dev slot loss: 61976.91748046875
Intent accuracy (dev): 0.934
Slot F1 (dev): 0.9851
Epoch 73 done.
Train Intent loss: 44.37874763133004
Train Slot loss: 79.93278277292848
Dev Intent loss: 1866.1470947265625
Dev slot loss: 61901.728515625
Intent accuracy (dev): 0.936
Slot F1 (dev): 0.9856
Epoch 74 done.
Train Intent loss: 20.789021607488394
Train Slot loss: 146.61641985923052
Dev Intent loss: 1959.0426940917969
Dev slot loss: 62483.3212890625
Intent accuracy (dev): 0.92
Slot F1 (dev): 0.9841
Epoch 75 done.
Train Intent loss: 36.56890135910362
Train Slot loss: 125.16090309619904
Dev Intent loss: 2201.561813354492
Dev slot loss: 63927.5634765625
Intent accuracy (dev): 0.906
Slot F1 (dev): 0.9858
Epoch 76 done.
Train Intent loss: 18.012661521323025
Train Slot loss: 58.21406512334943
Dev Intent loss: 2184.416946411133
Dev slot loss: 64248.49462890625
Intent accuracy (dev): 0.908
Slot F1 (dev): 0.9853
Epoch 77 done.
Train Intent loss: 23.04448387818411
Train Slot loss: 190.97758795320988
Dev Intent loss: 2143.2698516845703
Dev slot loss: 63699.41357421875
Intent accuracy (dev): 0.918
Slot F1 (dev): 0.9847
Epoch 78 done.
Train Intent loss: 92.05925104487687
Train Slot loss: 62.6635156031698
Dev Intent loss: 2090.3155364990234
Dev slot loss: 63953.29345703125
Intent accuracy (dev): 0.898
Slot F1 (dev): 0.9848
Epoch 79 done.
Train Intent loss: 69.67491643014364
Train Slot loss: 82.74683402106166
Dev Intent loss: 1951.2863464355469
Dev slot loss: 63812.64208984375
Intent accuracy (dev): 0.902
Slot F1 (dev): 0.9837
Epoch 80 done.
Train Intent loss: 101.74606927204877
Train Slot loss: 89.01741566322744
Dev Intent loss: 2109.121109008789
Dev slot loss: 64615.90576171875
Intent accuracy (dev): 0.896
Slot F1 (dev): 0.9846
Epoch 81 done.
Train Intent loss: 53.41174027277157
Train Slot loss: 91.15824842639267
Dev Intent loss: 2075.986785888672
Dev slot loss: 64681.04052734375
Intent accuracy (dev): 0.878
Slot F1 (dev): 0.9848
Epoch 82 done.
Train Intent loss: 62.003872968722135
Train Slot loss: 91.91301298514009
Dev Intent loss: 1926.4595947265625
Dev slot loss: 65034.07177734375
Intent accuracy (dev): 0.934
Slot F1 (dev): 0.985
Epoch 83 done.
Train Intent loss: 42.11118204565719
Train Slot loss: 97.05942846275866
Dev Intent loss: 2162.4686737060547
Dev slot loss: 64271.484375
Intent accuracy (dev): 0.908
Slot F1 (dev): 0.9848
Epoch 84 done.
Train Intent loss: 41.045288966968656
Train Slot loss: 103.40239036642015
Dev Intent loss: 2077.122833251953
Dev slot loss: 63596.59130859375
Intent accuracy (dev): 0.918
Slot F1 (dev): 0.9861
Epoch 85 done.
Train Intent loss: 53.68543362850323
Train Slot loss: 107.09600437432528
Dev Intent loss: 2023.4358215332031
Dev slot loss: 63172.56787109375
Intent accuracy (dev): 0.904
Slot F1 (dev): 0.9849
Epoch 86 done.
Train Intent loss: 34.386850788258016
Train Slot loss: 129.5204567760229
Dev Intent loss: 2120.102035522461
Dev slot loss: 63835.42138671875
Intent accuracy (dev): 0.918
Slot F1 (dev): 0.9868
Epoch 87 done.
Train Intent loss: 43.7210881607607
Train Slot loss: 123.0684720389545
Dev Intent loss: 2088.989212036133
Dev slot loss: 65583.71435546875
Intent accuracy (dev): 0.948
Slot F1 (dev): 0.9866
Epoch 88 done.
Train Intent loss: 71.18068548804149
Train Slot loss: 172.09699009731412
Dev Intent loss: 2064.8473052978516
Dev slot loss: 63574.02685546875
Intent accuracy (dev): 0.942
Slot F1 (dev): 0.9863
Epoch 89 done.
Train Intent loss: 43.29541537340265
Train Slot loss: 65.48045572265983
Dev Intent loss: 2184.797622680664
Dev slot loss: 64696.115234375
Intent accuracy (dev): 0.936
Slot F1 (dev): 0.9844
Epoch 90 done.
Train Intent loss: 52.348365558544174
Train Slot loss: 50.00106463395059
Dev Intent loss: 2154.574661254883
Dev slot loss: 65006.7529296875
Intent accuracy (dev): 0.944
Slot F1 (dev): 0.9833
Epoch 91 done.
Train Intent loss: 55.26658974424936
Train Slot loss: 92.99717776104808
Dev Intent loss: 2204.996353149414
Dev slot loss: 63665.140625
Intent accuracy (dev): 0.924
Slot F1 (dev): 0.9853
Epoch 92 done.
Train Intent loss: 131.56341461651027
Train Slot loss: 22.311098532751203
Dev Intent loss: 2078.079345703125
Dev slot loss: 65357.7841796875
Intent accuracy (dev): 0.878
Slot F1 (dev): 0.984
Epoch 93 done.
Train Intent loss: 73.53921110508963
Train Slot loss: 48.61678220145404
Dev Intent loss: 1996.8458404541016
Dev slot loss: 64056.77880859375
Intent accuracy (dev): 0.918
Slot F1 (dev): 0.9856
Epoch 94 done.
Train Intent loss: 44.47556002531201
Train Slot loss: 95.48097881488502
Dev Intent loss: 2024.7689819335938
Dev slot loss: 64448.9501953125
Intent accuracy (dev): 0.926
Slot F1 (dev): 0.985
Epoch 95 done.
Train Intent loss: 38.19617197220214
Train Slot loss: 36.67879739776254
Dev Intent loss: 2233.785369873047
Dev slot loss: 64850.77099609375
Intent accuracy (dev): 0.92
Slot F1 (dev): 0.9856
Epoch 96 done.
Train Intent loss: 39.95146247930825
Train Slot loss: 128.97286228649318
Dev Intent loss: 2202.134323120117
Dev slot loss: 65384.72216796875
Intent accuracy (dev): 0.93
Slot F1 (dev): 0.9864
Epoch 97 done.
Train Intent loss: 38.58362931397278
Train Slot loss: 145.49774856865406
Dev Intent loss: 2137.6875610351562
Dev slot loss: 66395.12109375
Intent accuracy (dev): 0.954
Slot F1 (dev): 0.9868
Epoch 98 done.
Train Intent loss: 11.355245103710331
Train Slot loss: 77.17666264995933
Dev Intent loss: 2315.4694061279297
Dev slot loss: 64547.1904296875
Intent accuracy (dev): 0.958
Slot F1 (dev): 0.9858
Epoch 99 done.
Train Intent loss: 21.114925083587877
Train Slot loss: 63.64705289155245
Dev Intent loss: 2289.3257904052734
Dev slot loss: 66125.20556640625
Intent accuracy (dev): 0.95
Slot F1 (dev): 0.9864
Evaluating on test set...
Intent report
                     precision    recall  f1-score   support

  atis_abbreviation       1.00      0.94      0.97        33
      atis_aircraft       0.23      0.78      0.36         9
       atis_airfare       0.82      0.96      0.89        49
       atis_airline       0.90      0.95      0.92        38
       atis_airport       0.00      0.00      0.00        18
      atis_capacity       0.00      0.00      0.00        21
      atis_cheapest       0.00      0.00      0.00         0
          atis_city       0.50      0.50      0.50         6
      atis_day_name       0.00      0.00      0.00         2
      atis_distance       0.64      0.70      0.67        10
        atis_flight       0.94      0.98      0.96       645
     atis_flight_no       0.00      0.00      0.00         9
   atis_flight_time       0.50      1.00      0.67         1
   atis_ground_fare       1.00      0.29      0.44         7
atis_ground_service       0.94      0.86      0.90        36
          atis_meal       0.00      0.00      0.00         6
      atis_quantity       0.00      0.00      0.00         3
   atis_restriction       0.00      0.00      0.00         0

           accuracy                           0.89       893
          macro avg       0.42      0.44      0.40       893
       weighted avg       0.86      0.89      0.87       893

Slot filling:
                              precision    recall  f1-score   support

             B-aircraft_code       0.67      0.30      0.42        33
              B-airline_code       0.93      0.79      0.86        34
              B-airline_name       0.97      0.97      0.97       101
              B-airport_code       0.33      0.44      0.38         9
              B-airport_name       0.89      0.38      0.53        21
 B-arrive_date.date_relative       1.00      1.00      1.00         2
      B-arrive_date.day_name       0.79      1.00      0.88        11
    B-arrive_date.day_number       0.71      0.83      0.77         6
    B-arrive_date.month_name       0.62      0.83      0.71         6
      B-arrive_time.end_time       1.00      0.88      0.93         8
 B-arrive_time.period_of_day       0.67      1.00      0.80         6
    B-arrive_time.start_time       1.00      0.88      0.93         8
          B-arrive_time.time       0.85      0.97      0.90        34
 B-arrive_time.time_relative       0.94      0.97      0.95        31
             B-booking_class       0.00      0.00      0.00         1
                 B-city_name       0.83      0.51      0.63        57
                B-class_type       0.96      1.00      0.98        24
               B-compartment       0.00      0.00      0.00         1
                   B-connect       1.00      1.00      1.00         6
             B-cost_relative       1.00      0.97      0.99        37
                  B-day_name       0.00      0.00      0.00         2
                 B-days_code       0.17      1.00      0.29         1
 B-depart_date.date_relative       0.94      1.00      0.97        17
      B-depart_date.day_name       0.99      0.99      0.99       212
    B-depart_date.day_number       0.96      0.96      0.96        55
    B-depart_date.month_name       0.96      0.93      0.95        56
B-depart_date.today_relative       0.88      0.78      0.82         9
          B-depart_date.year       1.00      0.33      0.50         3
      B-depart_time.end_time       0.33      0.67      0.44         3
    B-depart_time.period_mod       0.83      1.00      0.91         5
 B-depart_time.period_of_day       1.00      0.87      0.93       130
    B-depart_time.start_time       0.60      1.00      0.75         3
          B-depart_time.time       0.84      0.98      0.90        57
 B-depart_time.time_relative       0.97      0.97      0.97        65
                   B-economy       1.00      0.17      0.29         6
               B-fare_amount       0.50      1.00      0.67         2
           B-fare_basis_code       0.74      1.00      0.85        17
                    B-flight       0.00      0.00      0.00         1
               B-flight_days       1.00      1.00      1.00        10
                B-flight_mod       1.00      1.00      1.00        24
             B-flight_number       0.65      1.00      0.79        11
               B-flight_stop       1.00      1.00      1.00        21
               B-flight_time       1.00      1.00      1.00         1
      B-fromloc.airport_code       0.71      1.00      0.83         5
      B-fromloc.airport_name       0.42      0.83      0.56        12
         B-fromloc.city_name       0.98      0.99      0.99       704
        B-fromloc.state_code       1.00      1.00      1.00        23
        B-fromloc.state_name       1.00      0.94      0.97        17
                      B-meal       1.00      1.00      1.00        16
                 B-meal_code       0.00      0.00      0.00         1
          B-meal_description       1.00      0.80      0.89        10
                       B-mod       0.33      0.50      0.40         2
                        B-or       0.38      1.00      0.55         3
             B-period_of_day       0.50      0.25      0.33         4
          B-restriction_code       0.60      0.75      0.67         4
 B-return_date.date_relative       0.50      0.33      0.40         3
      B-return_date.day_name       0.00      0.00      0.00         2
B-return_date.today_relative       0.00      0.00      0.00         0
    B-return_time.period_mod       0.00      0.00      0.00         0
                B-round_trip       1.00      0.97      0.99        73
                B-state_code       1.00      1.00      1.00         1
                B-state_name       0.00      0.00      0.00         9
      B-stoploc.airport_code       0.00      0.00      0.00         1
      B-stoploc.airport_name       0.00      0.00      0.00         0
         B-stoploc.city_name       0.80      1.00      0.89        20
            B-today_relative       0.00      0.00      0.00         0
        B-toloc.airport_code       0.50      0.50      0.50         4
        B-toloc.airport_name       0.50      1.00      0.67         3
           B-toloc.city_name       0.97      0.99      0.98       716
        B-toloc.country_name       1.00      1.00      1.00         1
          B-toloc.state_code       1.00      1.00      1.00        18
          B-toloc.state_name       0.96      0.89      0.93        28
            B-transport_type       1.00      0.90      0.95        10
              I-airline_name       0.98      0.98      0.98        65
              I-airport_name       0.88      0.48      0.62        29
    I-arrive_date.day_number       0.00      0.00      0.00         0
      I-arrive_time.end_time       1.00      0.88      0.93         8
    I-arrive_time.start_time       1.00      1.00      1.00         1
          I-arrive_time.time       0.97      0.97      0.97        35
 I-arrive_time.time_relative       1.00      0.50      0.67         4
                 I-city_name       0.86      0.40      0.55        30
                I-class_type       1.00      1.00      1.00        17
             I-cost_relative       1.00      0.67      0.80         3
    I-depart_date.day_number       0.82      0.93      0.87        15
I-depart_date.today_relative       0.00      0.00      0.00         0
      I-depart_time.end_time       1.00      1.00      1.00         3
 I-depart_time.period_of_day       0.25      1.00      0.40         1
    I-depart_time.start_time       0.25      1.00      0.40         1
          I-depart_time.time       0.98      1.00      0.99        52
 I-depart_time.time_relative       0.00      0.00      0.00         1
               I-fare_amount       1.00      1.00      1.00         2
           I-fare_basis_code       0.00      0.00      0.00         0
                I-flight_mod       1.00      0.17      0.29         6
             I-flight_number       0.00      0.00      0.00         1
               I-flight_time       1.00      1.00      1.00         1
      I-fromloc.airport_name       0.48      1.00      0.65        15
         I-fromloc.city_name       0.96      0.99      0.97       177
        I-fromloc.state_name       1.00      1.00      1.00         1
                 I-meal_code       0.00      0.00      0.00         0
          I-restriction_code       1.00      0.67      0.80         3
 I-return_date.date_relative       0.67      0.67      0.67         3
                I-round_trip       1.00      1.00      1.00        71
                I-state_name       0.00      0.00      0.00         1
         I-stoploc.city_name       1.00      1.00      1.00        10
                      I-time       0.00      0.00      0.00         0
        I-toloc.airport_name       1.00      1.00      1.00         3
           I-toloc.city_name       0.95      0.98      0.97       265
          I-toloc.state_name       1.00      1.00      1.00         1
            I-transport_type       0.00      0.00      0.00         1
                           O       1.00      1.00      1.00      5501

                    accuracy                           0.97      9164
                   macro avg       0.68      0.69      0.66      9164
                weighted avg       0.97      0.97      0.97      9164

Intent accuracy (test): 0.8914
Slot F1 (test): 0.9709
